006406
009448
005317
006370
008453
004243
008356
007098
012157
006462
009238
009152
006401
003125
001085
008462
010217
004257
004329
008065
012419
001093
012267
007385
011095
006208
003245
002236
011010
003153
007079
006362
010395
011188
008002
007203
006083
010381
006075
010064
009147
011204
007373
010028
008080
008363
009273
002225
009182
012114
010093
012321
008454
005128
010441
010464
010069
008040
011141
006142
010324
006377
006109
002005
007155
001058
008137
010017
010320
007432
001261
011264
004274
001341
008192
001008
001039
010467
008256
009154
011181
005351
007191
004166
010356
010040
007449
005104
004268
008015
010470
007342
003022
001044
004145
001403
003159
001267
011069
004009
001308
009325
012407
012248
009185
008340
002084
002189
011314
008465
004003
008026
007074
008496
007125
007047
009244
008166
005142
006346
010016
005161
006198
010365
003170
009108
004178
009141
007225
001394
005376
002003
007241
004303
011003
012191
012108
009322
005308
006320
006457
010051
012312
004283
003033
002064
003151
004067
002204
008176
008443
004385
003167
007148
007223
007227
012279
009226
012268
005172
010237
009297
002121
011155
006394
004390
011214
007348
007235
001355
001392
007151
012107
005018
010060
002185
010088
004247
002181
007282
005345
007126
010136
001351
001363
005146
007162
006435
008059
003072
007338
001384
010105
009019
010331
002047
007215
011235
011014
008225
004107
007032
005200
006162
011267
006301
007437
002122
008277
009462
004035
010090
012393
010311
005337
007001
001176
008372
004406
007320
004311
003103
006369
005014
005323
003148
010074
010343
003179
012262
007022
001080
005062
001143
012024
003239
007232
008284
002030
008090
003032
001034
006161
008278
010298
004042
012077
007033
009334
003177
006325
008360
009306
002029
009212
005277
004361
001395
001239
010455
007071
006201
012013
006478
011061
012176
009487
009248
006114
010310
011206
006338
011218
004265
006149
010231
012189
010046
008477
009405
010100
012444
003161
009469
004304
006190
009073
009264
008063
009406
012168
008487
012057
008287
001286
009298
001333
010003
008042
006433
010094
010119
009177
010442
004007
010004
004005
001037
009190
003275
006008
009354
006407
012158
007332
012069
008236
001168
009430
009009
002176
012381
007031
011255
012372
010133
009311
002169
006222
009394
008366
001029
007421
007426
007328
009333
003203
012348
006063
007039
001088
003262
009255
005035
010089
007482
010035
005160
009308
007117
005072
007467
007353
003133
001278
011296
004157
002142
008376
006359
012296
009433
010037
010229
003208
006431
006254
009451
004250
002190
007334
008261
003202
001277
011191
012140
006354
007504
007416
008246
007408
012303
008247
008264
001016
002186
004090
008324
007209
006080
006215
005412
005147
001299
003109
006392
008191
001119
009209
008474
002212
001162
009102
012124
001346
007138
005208
012249
006447
008229
007330
010377
010421
003147
012174
009077
012137
012405
003098
009314
011007
005158
001345
001285
001342
005098
001084
002177
008069
009342
006039
010275
006461
009117
011041
005134
010357
007513
001054
008113
001083
003045
006482
002200
012389
007101
001390
006331
005182
001053
010246
009193
004404
008182
002048
004405
006470
008245
012160
005311
003018
010309
012145
006108
005150
009261
011261
002058
008402
006458
006150
006031
009454
010279
007339
005110
006183
004258
005299
005010
012431
006468
010007
006347
008355
007135
012331
001150
010122
002145
002174
011115
009286
003003
010250
007465
008406
001049
007171
005054
001102
006168
008290
004391
008171
009376
009352
005287
002037
010466
010447
001379
003247
007365
006332
011238
003254
008451
008041
009172
009336
007124
008298
002050
006024
002053
009075
009137
007028
012304
009276
009285
006315
010079
009324
001002
003206
007070
003232
012396
008117
001123
003195
008112
012398
010081
003012
010151
009017
005096
005183
011150
010439
006337
008039
004142
007514
004132
009318
011293
010049
007407
001005
001265
007150
002217
009343
006409
010091
001070
006176
004041
003143
003042
005292
007430
006181
012263
004344
003016
006480
001304
010099
006053
008313
007165
003265
002199
012290
012430
012442
002066
008388
005212
002039
006153
001183
012181
007378
009208
009360
009067
009429
009399
011233
004202
007483
003041
001377
005422
004267
010390
006188
001343
009422
006210
012434
005023
003253
008479
004048
007337
006432
003053
009195
004302
010367
010465
011157
008092
007401
004292
007440
003086
001051
002052
001050
005121
004294
005019
007425
008043
007202
004137
012247
001160
009125
012155
008394
001373
008234
009320
007470
011300
010066
010429
004152
007388
008365
001282
002061
004113
006200
001031
004029
008300
012252
006334
008467
010304
012231
009246
009169
006016
004054
008330
009107
010147
008486
009296
010087
011273
006466
001170
004398
004154
005089
001276
007364
009377
004168
001094
001353
011112
009355
009204
010355
004299
010264
012313
011045
005058
009205
011146
005087
007417
010370
010301
009407
008254
009278
006399
011051
008116
008350
002238
012308
009058
006107
001185
008077
008383
003050
010358
008279
009478
004021
010101
001025
008055
008421
010348
010014
012041
005297
012048
012324
001396
007403
011207
011037
008204
004002
012051
010001
012452
009164
008407
011138
010095
011260
007156
011240
011219
006231
003055
003100
005048
004122
009291
007021
005419
009247
011004
010149
001038
003142
007484
012251
007368
001166
008045
003249
005090
001019
001366
008141
012135
005189
012103
008120
002170
003097
005166
009128
008088
012186
006197
009055
001120
008189
008476
009301
007067
008017
004160
001275
001060
008012
008208
011263
006324
008352
007360
009183
012064
005406
010167
004146
003002
008448
001046
001135
004271
007397
012213
012390
011109
001141
001386
008267
001334
006415
011027
003095
010026
004231
012433
009189
006118
007410
006227
009105
010259
010328
007163
003169
008475
008305
008325
007375
008243
001077
004149
003165
010314
010400
010384
006089
010436
005320
003031
005347
003127
009002
002231
004079
007248
009471
005103
001244
010307
010241
008094
011062
004333
009143
010333
012154
009251
011024
012362
007136
007076
007239
007052
007182
008196
009288
012436
005114
010351
004162
012184
004326
007146
012054
009206
004248
006413
008233
012023
004130
009211
010258
007161
009096
004150
002040
012055
010256
008323
005067
009428
010243
005424
003270
009468
011119
006159
008349
008472
007418
006019
004251
006042
004065
008227
005038
009063
009242
008302
001130
002216
011139
003264
002114
012010
003048
001246
011076
001018
002049
002014
005338
002218
001307
008435
004023
002235
011055
010072
006445
012325
006380
005402
012418
011113
004053
012120
010029
005001
011133
011125
008447
003193
008270
006374
003065
008428
005421
009153
007034
007221
001142
008271
003128
006474
010363
006405
004351
003210
005301
006366
012039
010254
006464
010228
010364
009398
009213
006205
012111
012009
004284
002106
006305
001245
010288
002206
003114
011026
009446
003017
006414
012399
008397
011130
007186
007453
008152
009418
001036
011242
009295
010245
004340
006121
007486
001144
006009
003276
004008
009455
003047
009049
009327
005151
009198
006061
008027
010131
009270
006213
004121
002025
007040
004013
005392
009389
002130
006059
001072
012397
012359
007371
009423
009146
004334
011070
002020
009259
009277
005079
012284
008358
004352
011118
002168
007469
005060
005411
004314
005286
004371
006090
007205
008076
010038
010362
006378
009256
012366
009030
011165
005007
009100
005342
001336
004273
009094
005141
010141
009011
012012
004395
001358
003102
011137
001313
006284
004050
005084
004399
008409
011316
004078
008392
010407
011140
011303
002018
003194
012080
010252
008449
003092
005417
011132
012042
009315
010463
002172
009253
006101
004004
012115
009162
010052
001326
012161
001164
012414
011021
010111
002191
001371
011063
009281
011131
004339
008265
004106
012375
002032
008374
006329
006342
010086
005426
010227
010474
007245
008058
009493
003034
005350
008038
001198
011110
012286
012283
006343
008170
006066
001283
009021
008003
005205
008034
006314
003192
009046
008441
009068
012112
009335
007386
007210
001284
008459
006131
007370
005366
011009
007088
011057
009445
012400
001184
007200
006238
002213
002195
009290
004100
001398
006071
006335
002004
006057
008389
006112
011216
008266
005365
001311
010130
006330
001065
002178
001075
001400
001339
011028
008282
001110
007083
006384
011262
005410
004031
001152
009194
001258
002133
004319
005393
011060
005137
007423
008391
011104
001271
011280
009018
010334
009004
010339
004317
008028
002062
012266
007358
002060
011147
001030
007132
009272
006223
007345
012100
005170
010452
007512
006115
012170
004327
001305
007158
005083
008404
010009
001004
009024
003137
004277
011292
010350
005082
005046
001380
004312
003070
012258
012392
012159
009304
007355
003101
012091
001089
001289
003054
011284
009294
010292
008253
012130
002203
007066
005117
011015
010458
011065
012376
009048
005052
005405
011244
007429
004060
007479
012363
003242
007025
011020
008304
009263
003075
001344
008097
001010
002165
005273
007048
008381
005363
009254
012001
001300
010266
003014
001062
003158
008162
009390
007012
006463
004306
011018
009038
005120
005195
012402
003175
005003
003107
010257
009207
009473
001133
010406
005374
007206
001257
012387
004328
010255
012192
006165
001042
003212
002239
009340
009362
006098
004367
007402
012411
009061
002026
004293
009497
006479
012446
007030
009187
001028
004363
012019
007130
009331
008098
009135
007184
011202
004269
007508
008064
010063
011151
009171
001022
012422
003013
010276
012106
006219
001090
004138
004033
010335
009465
008437
004276
003099
009475
005076
006411
010305
001327
010378
009466
011230
006011
005091
005241
012441
002007
012087
004147
008224
011049
007193
009003
003115
008361
006438
012025
001322
008175
008471
012022
005349
009476
010127
006191
007049
008257
003219
006308
009121
007058
012138
008103
011075
012395
010366
006311
007379
003185
010242
012406
010349
011129
010102
001323
008338
011198
007367
012259
006103
012083
004156
004298
010120
003117
008111
007106
004253
005057
012451
009114
005105
008494
009095
010287
003037
010354
006062
003040
003087
001159
006186
010006
012421
007002
005209
001043
001382
006388
006106
003067
007127
012423
010104
010302
006169
010045
011248
007247
005050
004125
006224
005420
006163
006350
003119
011243
009088
005061
001361
005293
005391
002042
011054
012336
008431
006421
004289
007099
007177
008114
009461
008023
005145
011058
006129
003268
006192
010289
010394
012356
009222
011029
006189
002059
009036
012285
009217
012094
009076
007121
011082
001332
009025
007109
010265
002038
012447
008165
009070
012417
002009
009373
003093
012299
009080
011215
008178
004246
010412
007413
009329
006005
012270
012129
008328
006155
006410
006398
012006
005371
012082
003263
007409
012147
006126
009269
004401
010239
005315
010121
005004
008370
010360
006049
007490
001240
012165
009083
010027
005173
007456
004262
007420
001091
008011
008008
007023
006174
009435
009087
006471
007450
010018
012101
007249
010261
001158
011177
012412
007140
008303
012105
008333
008168
006117
004165
007145
007086
001011
008380
006094
002027
004252
010114
010034
001367
008399
004400
012404
005028
007044
007243
009093
008276
008075
003197
004061
008237
011033
006125
009034
012413
012416
004230
006081
003269
009489
008070
009467
002149
005329
003271
003046
007246
004241
006119
005281
002045
004255
009267
002033
010359
002002
009287
012240
011176
011308
012272
010409
004315
004148
007141
007472
003163
007229
009386
001103
002211
010249
005135
008107
004118
006303
005095
009112
008221
008405
007240
004335
001117
007394
010423
011166
005053
005123
004287
006446
012193
006040
011124
004135
001113
003043
001071
012153
010082
012307
010284
010411
010117
009151
006088
006099
004110
010294
008385
009341
011257
007085
009138
012428
012353
009424
001303
008124
005113
001021
009079
004038
001066
001126
011153
005073
004055
008346
009330
001100
005335
001337
005373
010332
002154
002031
012122
009129
001309
006402
008046
005318
003216
006180
001175
010316
008425
001325
011315
008446
008024
006199
012146
009309
009494
005377
012256
010386
008099
001112
009356
011167
006444
009268
004127
006476
006104
006202
010459
011317
005415
004128
001318
003255
006035
003006
004350
004099
005005
008106
008179
011100
012133
006453
007172
007129
003266
011276
002227
010462
008123
001213
001269
006237
012121
005383
007054
006006
005340
001105
010457
005388
007520
001087
010223
008262
007438
004089
004353
001397
005088
010262
010323
008371
007224
006050
008377
004270
006361
011299
010073
003183
004359
008393
004402
011047
010403
010306
010375
012257
010061
005206
007382
006212
005102
012292
005101
005213
005207
004360
008422
006184
010336
006137
006393
011156
001149
001388
001147
012078
005285
009239
006395
010235
006124
004093
007447
006044
005413
011196
010313
003083
009041
004161
003061
006387
005423
002229
002051
002175
011271
006450
001348
012276
001145
006100
009196
004397
006379
006323
002152
009479
008084
001274
007471
006449
009260
004046
007234
001118
005074
008439
002220
009224
011170
005168
008249
010128
004266
003063
012081
008286
007354
002228
001340
010271
009202
010002
004163
004043
011259
007204
011231
010224
005288
001293
006229
005333
004347
001115
009203
004280
012093
007327
011036
003204
010376
005399
004092
007516
002021
005369
001017
005107
011158
011256
001314
010023
008044
008126
007444
008241
010039
003081
008013
007037
008329
003110
008048
006021
004272
006160
012110
005009
003085
012432
002159
006132
010445
009425
007168
008138
005357
006318
008101
008074
003052
003152
011270
012291
001253
012030
003224
009045
010297
007065
006486
012092
003104
007157
010071
007077
007324
004264
007144
009289
008187
006116
001067
012099
003082
009165
010065
010277
009201
001357
008222
005395
008163
010469
010468
006052
010236
007454
007414
008308
006151
005341
011135
001146
003029
009016
007411
010424
002163
011012
005404
003164
008146
004001
010251
007188
005040
006353
008252
004358
007474
006484
008130
012253
010062
006146
002222
004323
012301
012415
004370
012056
007387
010410
010096
006204
009348
001279
012420
006064
011212
005416
005353
007004
004101
003250
007082
010058
011249
001330
002226
011123
008052
001009
010048
010374
004300
006187
006012
011281
010399
007084
007056
011245
004308
012098
012162
011117
011291
004167
004131
011059
004129
002197
006454
011056
008209
002034
010083
011222
012090
012126
007122
001270
006002
010187
006152
007352
006074
002001
009200
004012
011136
009434
002035
007020
001250
009284
009066
007214
005122
003007
009071
008492
012334
006134
006459
007096
003123
009282
008143
009240
010107
008379
004278
003038
009488
004047
002008
005202
010438
011319
004210
012156
010078
007435
008169
006365
007029
012131
002179
002044
005099
004052
007349
009091
002022
011192
010144
007097
007390
009166
009123
006475
004134
010260
004337
007510
012085
004343
008006
005155
001369
006357
008332
007237
009495
007351
012401
010024
006209
006472
005075
004240
009453
005144
008337
008464
008306
005033
008411
009110
012426
012384
008327
003149
008025
012264
007333
010115
009145
001389
009317
010352
001249
006328
006048
007100
007166
004254
001306
008347
003201
001014
005094
004039
004016
006390
007183
010443
008442
007357
001161
004070
012097
009271
011210
008463
011279
010103
001114
010380
010273
012016
011079
005116
001035
005283
001378
004179
004104
005382
005319
008331
006120
011237
006144
007244
008250
003124
006207
008091
012288
012058
009113
004211
008260
005390
002219
006382
003131
008367
006226
007116
005379
005126
009192
006317
005017
003011
009481
012061
007446
007027
005143
012152
012164
004365
005190
006216
005312
002041
004120
010021
003062
010022
010392
003178
004117
003273
006214
010011
006078
010218
011225
007226
012075
005002
001104
008036
008194
006141
004409
009378
007201
009483
006033
010263
005368
009338
007363
010321
011241
007322
009156
004291
009131
008108
011221
012046
009237
007015
003176
007455
003064
005132
003168
002171
008339
008005
002187
012408
011160
007176
001173
010296
009383
006135
008125
010112
011195
004085
006373
004286
007384
009155
010456
002180
008334
012439
009337
008354
006403
007428
008410
006455
011208
012029
009416
002164
004030
007104
006022
001180
005305
006017
008466
010341
002221
006322
001064
010005
004232
012084
008071
001181
009312
010013
012166
002012
012386
010345
004044
002241
010238
011178
012320
001349
006340
007164
004408
011258
009332
012280
005196
005201
009134
011189
003074
012341
005344
006093
006194
009409
012300
011302
010070
012450
011162
006147
008173
005176
003024
005157
001310
005295
005174
001136
003118
002148
005026
011179
007466
001402
010137
002156
004017
009245
004109
012151
007233
012003
010434
011034
006041
010286
011143
001132
008317
004305
010396
001262
007060
006139
003028
002096
009249
003122
001079
008386
012043
004259
005081
006173
004072
005077
007119
009078
006451
009031
008275
009485
010247
004015
012255
011068
012027
006417
003056
008147
011201
009197
010383
007457
007331
009358
009328
009470
002224
006285
009369
010308
011180
005384
012119
001260
006133
005015
001298
005025
008193
011236
003106
008030
006127
001174
012305
007174
001280
001163
002188
011203
008319
005119
006416
008122
002208
009028
006230
007170
006310
012332
008440
008217
009326
005118
003190
003084
005011
009037
010330
006469
007073
003243
007473
008190
007189
012125
003079
010084
007173
010338
006467
005280
005278
004342
011168
001255
008211
001063
006473
006102
009450
011228
008056
011121
006381
005330
002013
006234
006218
010291
007356
007134
001350
006220
001097
012310
007095
008032
012329
003049
002215
010220
006171
002240
008488
003035
008418
009482
012306
009090
012358
004024
009215
012142
011071
011114
008133
010449
006140
004103
006067
009449
002162
008089
009060
003009
010372
008312
008180
010126
011053
002210
012132
006086
007492
003126
003256
006425
001266
012059
011083
012026
009103
009299
006047
001393
005282
006235
003096
005276
008238
001165
010420
006158
010379
010267
010340
005269
006439
005321
011149
004336
008316
003134
005303
007344
010337
010240
006348
009459
011111
012326
003077
009074
002194
006095
011096
002036
004261
010413
003157
005198
007399
005385
009127
007120
008283
007480
005184
010132
005154
009480
008403
004022
004084
009050
006367
008145
010195
006136
012194
012424
001376
007361
008004
005203
009250
006167
007481
004086
009008
005008
009084
006113
006046
005225
011038
003213
004229
012297
004330
004063
008228
006356
012179
004234
010054
009132
008200
010451
008269
012021
010431
010042
007359
009026
009089
009400
005163
005124
011304
012309
005093
003205
011031
010031
004075
005210
011253
009420
003004
005307
001301
008387
007118
006483
008299
008051
009363
001335
001362
003071
005064
006368
007517
006233
005171
006351
010325
008289
008455
007393
003182
010219
010389
008457
002134
007199
009265
009395
010085
005425
004136
011126
008121
012117
006465
004066
012311
006437
004097
012038
005306
001387
002115
004098
010427
005291
010053
005380
006182
010437
005131
011134
004245
006007
012427
010092
008082
007366
011298
011077
008083
006460
009436
004357
009367
006383
007343
008158
005162
004126
004068
012109
007139
009220
006430
003138
006336
007212
006164
011266
001140
012338
010327
008132
005398
009101
005148
010280
007372
001359
008035
011269
005031
003089
008096
011213
005387
011239
008321
007087
007412
008129
012136
005193
001122
012275
010109
006015
009302
012293
009353
010221
004297
010293
008315
005324
003005
005194
009225
011184
008436
005331
001268
001263
012260
008033
003173
012074
010012
003209
005159
008102
002209
010211
006456
008344
011042
001068
012315
009210
001073
007080
007081
006091
004345
004369
011234
012150
010043
006206
003180
003039
009230
001139
005022
009484
001048
011107
006434
002016
009474
008318
008272
012177
008456
007152
012060
011072
010315
004077
006026
002184
002063
012062
007217
005360
004295
005300
012020
006345
007005
002192
009241
012360
002201
008213
012273
006400
007415
008364
006327
012015
006177
012289
004083
001365
005343
003060
012073
007335
010248
009361
005032
007195
005400
009499
010346
012222
010225
009452
006221
003058
009447
005045
004349
010067
010282
008242
008413
001247
009216
009223
011023
007380
007298
002196
002183
004288
005036
009350
005294
004116
009486
006211
012127
001331
006013
003121
001385
004091
006084
009059
009345
003026
002230
007475
001116
009496
005042
009229
009047
008292
008110
009359
004372
003090
010025
005187
010408
001320
001381
011278
009414
007400
009339
010404
006068
006306
009404
008310
003051
001015
010268
005255
010222
008473
006352
012141
010435
011016
008416
003150
003171
005092
001297
007326
011080
007093
008136
007487
001352
005378
003113
008109
002155
011290
010116
004275
008311
005314
004141
001006
003108
011305
012391
012182
009039
003136
010232
008151
005298
007194
004228
012113
008357
010010
008417
004019
002242
004151
002137
003078
005086
004018
006300
001312
005024
004263
001329
008362
001364
010019
002017
012440
008460
007431
011185
001256
008119
011144
005336
001082
010300
010044
012254
008341
001287
001020
005013
012319
002056
011127
012050
007448
005302
008210
007519
007050
002146
004375
004364
009408
009313
004119
003223
006358
005271
008432
004301
011011
006316
012018
010234
011321
002167
011040
005322
012317
009300
002223
009319
009292
012008
008199
006156
006355
012437
006364
007515
003274
008493
006302
005354
004346
010173
007230
008081
010453
011128
005396
005140
007374
008326
007395
011145
011193
006299
012052
008396
003057
012277
012002
006371
004026
004006
005334
005309
001241
002054
010283
004114
001055
004076
003191
009161
009392
008207
011182
010440
009160
008285
003252
008223
005409
006138
012197
008415
003211
005016
005030
010317
001081
008183
008235
001360
009149
009257
009062
007072
008201
009191
011274
004235
011183
001069
005352
012063
001148
001273
012068
004025
009022
003076
011200
005169
009463
007329
008461
007069
002166
006339
001296
005063
009411
001243
004242
007383
006389
001151
012118
010450
005313
004256
009120
005071
002141
004111
008445
010138
005304
001111
005372
004313
008273
010476
001026
003217
011039
009023
008359
008490
010303
004389
012044
012333
008066
008131
004108
007207
004392
011226
011194
008205
001182
004316
004285
007175
003135
006157
001107
001155
008351
008142
010233
012403
009218
008014
010460
007336
012102
006010
007347
011283
009279
011254
012007
012330
009056
008280
006034
001354
005346
001127
001131
008184
004045
005211
005112
005401
009305
009032
005066
009082
003130
008197
002160
005039
008297
007427
007011
008320
012425
001242
001372
009375
004355
001317
005156
006087
008384
009020
006477
009139
008335
011067
007323
012104
008484
005289
007424
001251
012047
004249
004236
007128
004040
006442
003189
008336
011022
005070
004028
001092
011190
009148
012144
008244
011048
011187
003120
008068
004080
007062
010388
012323
006154
004087
003166
003198
005108
009179
010347
003233
001032
012034
007376
002158
011008
003069
008281
004159
008429
007238
007159
003154
005186
009015
008420
008296
004394
005270
008450
006028
010272
010253
003139
006004
009051
009346
012261
009106
002202
009170
011019
001264
005152
009069
011161
008398
009266
004348
009293
011001
009014
003188
010425
009316
007321
003186
005139
005403
009043
012011
011175
004088
003141
004153
010419
006029
001248
002144
007500
011197
011116
001375
003094
006236
002028
008378
008248
001138
012035
004332
012388
007391
009410
012028
004393
001106
007405
010446
002193
008232
004027
009186
005386
004082
006385
009347
006372
003008
008419
009243
003088
008239
011046
011050
010471
005177
008295
003021
005274
004233
010057
004010
009477
003146
008251
012282
006195
001095
004237
009140
004032
009232
005125
007511
001024
005027
009221
003036
011251
011066
006170
006065
008414
010342
005097
011268
010361
006020
009104
003068
002143
001003
001374
002207
001338
007024
002011
008127
008049
006179
010041
006418
009184
010353
006203
006025
001056
006404
008495
007439
002023
010020
009180
009144
012205
008216
006175
008259
008154
007046
009384
007464
009351
006166
001096
005284
009126
002046
009214
007198
008167
008263
008155
012014
005069
007220
004155
008423
003080
007242
008309
001272
006130
005414
012067
005370
006360
006054
009344
006319
006145
012294
010036
001041
012004
001383
006196
002128
009234
004309
005037
011275
007153
006452
006123
009178
006375
005397
006481
008430
005130
001057
003181
004239
009168
006060
005034
004144
012302
010432
005164
009001
009365
008016
012172
006038
012278
011120
006326
011301
005180
011152
012382
001052
001252
009252
006225
009013
001023
007340
004396
001171
009219
002043
008348
005272
001086
005136
005167
003132
006122
007518
007043
008220
005133
009199
007218
007396
004238
012037
004123
002015
004221
005012
010433
010387
007398
006128
008268
006178
010405
001040
005127
008301
004051
001059
008369
004095
009458
005339
010226
012005
008293
006058
009064
011220
012281
005138
002129
005051
005332
005059
003145
009415
010299
003200
010098
002068
007038
012274
005358
009275
009401
007208
011307
006111
003025
004105
009233
010097
010473
009122
003105
002153
008105
004036
008118
008085
010444
006092
007041
009457
010329
007509
011073
001302
008149
006485
006172
007507
006085
004290
001061
003027
012383
011032
009472
007061
010015
007213
010318
001224
012409
007190
010454
003155
007222
006386
009097
008231
012435
006055
007197
005049
008373
011227
009099
004338
003267
007219
010008
004140
002173
012295
006217
009098
010108
010344
008050
012394
006037
009349
011318
002198
009072
007091
006441
006313
006148
008307
011025
008240
005275
006045
007102
006270
001347
001167
010059
003044
010148
012031
008489
004193
003030
003196
012250
005188
012116
007090
008144
001295
006344
004310
001177
010055
001128
003184
001078
004071
010056
009498
007228
004124
005375
009421
003059
009427
010077
009035
006001
004112
006420
011142
008018
012134
008291
009181
001074
002157
012438
010032
001178
009052
006349
002147
001172
004059
010274
009086
008214
005055
011052
004062
006072
007231
010422
001134
009228
005407
010171
006082
003111
006391
012070
003001
011169
006043
003010
001399
011006
008427
010139
011122
004260
009057
010050
009396
011287
004403
001391
002055
001315
001154
008412
001292
004331
006312
007369
001109
007434
006429
007389
010428
002214
010322
008139
007169
001368
001237
010118
012148
005181
001321
008230
011250
004318
005149
006143
010129
009040
007216
012128
009007
008390
006232
007064
001157
010430
005006
002010
005355
004320
012171
006341
002232
002150
004011
011252
008294
001012
006426
010075
010047
011148
007346
005020
007192
012316
009403
003227
010080
008203
012298
010125
008353
001101
002161
008444
001281
011017
011217
005179
006408
011043
009235
008288
009310
004407
007419
009118
008093
007404
010142
010312
011074
005021
008258
004374
005080
011159
004081
005111
006397
002024
007433
002243
005109
010448
009044
006321
006014
