56 0.099 0.7346666666666667 0.194 0.5306666666666666
56 0.11800000000000001 0.35866666666666663 0.232 0.52
56 0.127 0.13333333333333333 0.25 0.2613333333333333
56 0.911 0.144 0.17 0.2826666666666667
56 0.802 0.08399999999999999 0.192 0.15733333333333333
