60 0.41500000000000004 0.78 0.47400000000000003 0.42933333333333334
56 0.549 0.7986666666666666 0.194 0.4026666666666667
56 0.319 0.776 0.194 0.416
56 0.21 0.732 0.088 0.36
56 0.266 0.5653333333333334 0.108 0.08533333333333333
56 0.484 0.5786666666666667 0.092 0.08
56 0.578 0.5893333333333333 0.096 0.08
62 0.25 0.524 0.076 0.11466666666666667
