0 0.17200000000000001 0.6613333333333333 0.3 0.6773333333333333
0 0.231 0.756 0.31 0.488
0 0.674 0.5173333333333333 0.228 0.368
0 0.888 0.5626666666666666 0.224 0.48
60 0.642 0.7999999999999999 0.716 0.39999999999999997
