14 0.4239350912778905 0.652 0.7383367139959431 0.64
14 0.3762677484787018 0.643 0.5253549695740365 0.47000000000000003
0 0.8367139959432048 0.441 0.23732251521298176 0.806
0 0.2657200811359026 0.489 0.27586206896551724 0.7020000000000001
