60 0.325 0.8588588588588588 0.646 0.27627627627627627
0 0.44 0.5900900900900901 0.456 0.8138138138138138
0 0.8190000000000001 0.5885885885885885 0.322 0.8228228228228228
0 0.105 0.38288288288288286 0.20600000000000002 0.7597597597597597
