15 0.273 0.5025252525252526 0.242 0.20202020202020204
16 0.668 0.4886363636363637 0.152 0.4065656565656566
16 0.742 0.6161616161616162 0.12 0.2828282828282829
0 0.8150000000000001 0.4128787878787879 0.278 0.547979797979798
2 0.713 0.148989898989899 0.5740000000000001 0.29292929292929293
