58 0.664 0.20933333333333332 0.2 0.20533333333333334
0 0.593 0.7053333333333333 0.202 0.5893333333333333
0 0.425 0.66 0.194 0.6799999999999999
58 0.1 0.7693333333333333 0.136 0.21066666666666667
58 0.858 0.5786666666666667 0.16 0.352
