56 0.499 0.8509036144578314 0.182 0.29819277108433734
56 0.6900000000000001 0.9006024096385543 0.20800000000000002 0.19879518072289157
56 0.608 0.7153614457831325 0.096 0.09939759036144578
58 0.522 0.6490963855421688 0.048 0.11746987951807229
