60 0.501 0.5479999999999999 0.998 0.536
0 0.8220000000000001 0.5106666666666666 0.356 0.9253333333333333
0 0.5 0.608 0.524 0.7839999999999999
56 0.25 0.5826666666666667 0.352 0.4666666666666667
56 0.6950000000000001 0.6093333333333333 0.29 0.4666666666666667
