0 0.605 0.592 0.222 0.512
0 0.309 0.5293333333333333 0.314 0.6053333333333333
39 0.245 0.8093333333333333 0.066 0.13066666666666665
39 0.04 0.7999999999999999 0.076 0.2773333333333333
39 0.343 0.84 0.062 0.23466666666666666
39 0.512 0.8666666666666666 0.064 0.26666666666666666
60 0.501 0.9026666666666666 0.998 0.19466666666666665
