0 0.6236111111111111 0.4903846153846154 0.1527777777777778 0.6730769230769231
2 0.4902777777777778 0.545673076923077 0.8805555555555555 0.46634615384615385
2 0.24027777777777778 0.3341346153846154 0.14722222222222223 0.07211538461538462
