0 0.6146666666666667 0.6910000000000001 0.19466666666666665 0.23
0 0.112 0.716 0.21866666666666665 0.276
2 0.7586666666666666 0.674 0.48266666666666663 0.192
0 0.4533333333333333 0.297 0.16533333333333333 0.154
