39 0.5375375375375375 0.5630000000000001 0.5885885885885885 0.874
39 0.17567567567567569 0.381 0.3213213213213213 0.758
39 0.8093093093093093 0.242 0.3813813813813814 0.48
39 0.5540540540540541 0.133 0.34534534534534533 0.262
