0 0.680628272251309 0.556 0.6387434554973822 0.888
0 0.21727748691099477 0.397 0.4136125654450262 0.418
0 0.306282722513089 0.26 0.2670157068062827 0.228
0 0.05759162303664922 0.272 0.10471204188481675 0.244
1 0.2198952879581152 0.508 0.4293193717277487 0.28
