56 0.551 0.4066666666666667 0.122 0.22666666666666666
58 0.7000000000000001 0.352 0.06 0.096
58 0.247 0.8119999999999999 0.094 0.216
58 0.304 0.3893333333333333 0.224 0.24533333333333332
58 0.227 0.588 0.194 0.2533333333333333
