56 0.5 0.612 0.524 0.776
56 0.5650000000000001 0.6133333333333333 0.234 0.448
56 0.711 0.592 0.134 0.256
56 0.9410000000000001 0.6053333333333333 0.11800000000000001 0.32
56 0.332 0.6333333333333333 0.312 0.5893333333333333
