56 0.28800000000000003 0.5039787798408488 0.276 0.6259946949602122
56 0.618 0.4562334217506631 0.308 0.8435013262599469
56 0.914 0.6180371352785146 0.17200000000000001 0.7639257294429708
57 0.438 0.6114058355437666 0.872 0.7771883289124668
