56 0.864 0.8119999999999999 0.228 0.376
56 0.711 0.6866666666666666 0.13 0.35466666666666663
56 0.722 0.7626666666666666 0.136 0.3413333333333333
56 0.88 0.8186666666666667 0.24 0.36266666666666664
60 0.811 0.736 0.294 0.39466666666666667
60 0.366 0.8586666666666667 0.48 0.2826666666666667
0 0.5670000000000001 0.7133333333333333 0.28200000000000003 0.5733333333333334
0 0.47000000000000003 0.3853333333333333 0.128 0.4026666666666667
