8 0.355 0.36266666666666664 0.294 0.208
8 0.164 0.3253333333333333 0.18 0.18666666666666665
8 0.47300000000000003 0.7066666666666667 0.9420000000000001 0.5866666666666667
0 0.757 0.39066666666666666 0.082 0.19466666666666665
