39 0.106 0.6573333333333333 0.20800000000000002 0.6693333333333333
39 0.224 0.584 0.192 0.6293333333333333
39 0.298 0.5 0.17200000000000001 0.584
39 0.41400000000000003 0.448 0.148 0.5706666666666667
39 0.529 0.4053333333333333 0.134 0.5599999999999999
39 0.645 0.39066666666666666 0.134 0.5573333333333333
39 0.765 0.3733333333333333 0.11800000000000001 0.5546666666666666
39 0.874 0.39866666666666667 0.132 0.5946666666666667
