6 0.461 0.5013333333333333 0.918 0.9973333333333333
0 0.385 0.6733333333333333 0.158 0.6533333333333333
0 0.541 0.7133333333333333 0.162 0.5733333333333334
0 0.9530000000000001 0.33199999999999996 0.038 0.10933333333333332
0 0.907 0.35866666666666663 0.05 0.17333333333333334
0 0.863 0.40399999999999997 0.062 0.264
