0 0.67 0.604 0.23600000000000002 0.5093333333333333
0 0.5680000000000001 0.6786666666666666 0.392 0.6426666666666666
16 0.544 0.7253333333333333 0.256 0.37866666666666665
58 0.364 0.06666666666666667 0.07200000000000001 0.064
