8 0.079 0.44294294294294295 0.154 0.44744744744744747
0 0.293 0.4924924924924925 0.11800000000000001 0.6126126126126126
0 0.484 0.5585585585585585 0.20800000000000002 0.8348348348348348
0 0.534 0.45045045045045046 0.108 0.6726726726726726
0 0.8200000000000001 0.484984984984985 0.16 0.6156156156156156
8 0.775 0.36036036036036034 0.45 0.7147147147147147
