4 0.524 0.3907185628742515 0.9400000000000001 0.3982035928143713
5 0.638 0.6017964071856288 0.14400000000000002 0.08982035928143713
2 0.134 0.8967065868263474 0.188 0.15269461077844312
2 0.516 0.6811377245508983 0.056 0.08083832335329341
