58 0.23600000000000002 0.14666666666666667 0.14 0.288
56 0.08700000000000001 0.19999999999999998 0.122 0.26666666666666666
0 0.315 0.284 0.226 0.41333333333333333
0 0.486 0.5506666666666666 0.448 0.6906666666666667
57 0.611 0.5693333333333334 0.654 0.8613333333333333
