0 0.154 0.6826666666666666 0.304 0.6346666666666666
0 0.792 0.584 0.34 0.832
39 0.664 0.536 0.07200000000000001 0.19733333333333333
39 0.846 0.072 0.048 0.13866666666666666
39 0.759 0.072 0.038 0.128
39 0.798 0.08266666666666667 0.056 0.12266666666666666
