56 0.756 0.668693009118541 0.128 0.3586626139817629
56 0.457 0.7051671732522796 0.13 0.3404255319148936
56 0.532 0.6474164133738601 0.108 0.2796352583586626
56 0.578 0.729483282674772 0.148 0.3829787234042553
