39 0.5204678362573099 0.513 0.14035087719298245 0.28600000000000003
39 0.33187134502923976 0.519 0.1023391812865497 0.194
0 0.48245614035087714 0.512 0.5438596491228069 0.976
56 0.8581871345029239 0.839 0.283625730994152 0.322
