2 0.598 0.5759075907590759 0.756 0.8283828382838284
0 0.513 0.27887788778877887 0.082 0.12871287128712872
2 0.213 0.24422442244224424 0.226 0.18481848184818483
2 0.056 0.25742574257425743 0.108 0.1716171617161716
