3 0.8280000000000001 0.5093333333333333 0.34400000000000003 0.36266666666666664
3 0.464 0.488 0.364 0.29866666666666664
3 0.303 0.528 0.378 0.37866666666666665
0 0.124 0.5479999999999999 0.136 0.5466666666666666
0 0.25 0.42 0.224 0.17866666666666667
