58 0.132 0.5110192837465565 0.16 0.278236914600551
58 0.402 0.30991735537190085 0.132 0.22865013774104684
58 0.556 0.2727272727272727 0.148 0.15426997245179064
58 0.5660000000000001 0.1322314049586777 0.068 0.11019283746556474
58 0.644 0.3650137741046832 0.132 0.21212121212121213
58 0.75 0.43526170798898073 0.148 0.2369146005509642
58 0.856 0.534435261707989 0.108 0.21487603305785125
16 0.5630000000000001 0.7520661157024794 0.278 0.325068870523416
58 0.497 0.08677685950413223 0.05 0.162534435261708
