5 0.273 0.2822164948453608 0.454 0.5592783505154639
2 0.298 0.3865979381443299 0.372 0.5567010309278351
0 0.51 0.4368556701030928 0.308 0.7963917525773195
0 0.713 0.615979381443299 0.258 0.7319587628865979
2 0.844 0.5322164948453608 0.312 0.6469072164948454
