0 0.646 0.6625000000000001 0.404 0.675
0 0.533 0.5234375 0.51 0.953125
0 0.31 0.6625000000000001 0.324 0.675
56 0.097 0.5906250000000001 0.19 0.7312500000000001
62 0.6960000000000001 0.203125 0.268 0.34375
2 0.927 0.17500000000000002 0.146 0.1
