4 0.8130000000000001 0.07277628032345014 0.134 0.09164420485175202
4 0.615 0.06738544474393532 0.122 0.08086253369272238
4 0.449 0.0633423180592992 0.11 0.06738544474393532
4 0.23800000000000002 0.06199460916442049 0.128 0.0862533692722372
