0 0.856 0.54 0.28800000000000003 0.408
0 0.505 0.496 0.254 0.384
0 0.108 0.5666666666666667 0.212 0.6
39 0.549 0.64 0.074 0.3253333333333333
39 0.453 0.6413333333333333 0.08600000000000001 0.3173333333333333
