8 0.292 0.6586666666666666 0.06 0.128
8 0.467 0.6546666666666666 0.038 0.07733333333333334
8 0.526 0.64 0.028 0.058666666666666666
8 0.709 0.6293333333333333 0.058 0.10133333333333333
8 0.9400000000000001 0.644 0.064 0.09333333333333332
