58 0.9410000000000001 0.7906666666666666 0.11800000000000001 0.27466666666666667
58 0.854 0.8746666666666666 0.096 0.18133333333333332
58 0.539 0.9213333333333333 0.11800000000000001 0.15733333333333333
58 0.052000000000000005 0.94 0.1 0.12
0 0.29 0.6546666666666666 0.224 0.6906666666666667
0 0.499 0.6373333333333333 0.198 0.7253333333333333
0 0.667 0.6746666666666666 0.154 0.6506666666666666
0 0.8150000000000001 0.6799999999999999 0.162 0.64
