0 0.766 0.636 0.36 0.728
0 0.256 0.592 0.22 0.2826666666666667
0 0.273 0.4706666666666667 0.106 0.18933333333333333
56 0.607 0.4573333333333333 0.15 0.27466666666666667
62 0.1 0.8986666666666666 0.196 0.20266666666666666
62 0.077 0.7586666666666666 0.15 0.22133333333333333
