62 0.139 0.5653333333333334 0.194 0.23466666666666666
62 0.532 0.6679999999999999 0.14 0.16266666666666665
62 0.33 0.6586666666666666 0.128 0.15466666666666667
56 0.34700000000000003 0.844 0.21 0.312
