2 0.894 0.816 0.184 0.128
5 0.668 0.72 0.392 0.33599999999999997
0 0.08700000000000001 0.8226666666666667 0.038 0.14666666666666667
0 0.127 0.824 0.042 0.144
0 0.28300000000000003 0.8266666666666667 0.03 0.11733333333333333
0 0.403 0.8186666666666667 0.03 0.10666666666666666
0 0.431 0.8213333333333334 0.03 0.112
