58 0.153 0.6608910891089109 0.094 0.12871287128712872
58 0.195 0.3948019801980198 0.07 0.08168316831683169
58 0.896 0.5470297029702971 0.044 0.06435643564356436
58 0.914 0.39603960396039606 0.064 0.04950495049504951
58 0.6880000000000001 0.4096534653465347 0.056 0.09653465346534654
0 0.623 0.4282178217821782 0.066 0.14356435643564355
