1 0.501 0.5026666666666666 0.998 0.9946666666666666
0 0.11800000000000001 0.3293333333333333 0.232 0.6533333333333333
0 0.91 0.20666666666666667 0.128 0.32266666666666666
0 0.672 0.17733333333333332 0.096 0.25866666666666666
