0 0.434 0.728 0.34 0.5439999999999999
0 0.465 0.6706666666666666 0.53 0.6266666666666666
0 0.23800000000000002 0.35866666666666663 0.124 0.17333333333333334
0 0.306 0.43466666666666665 0.17200000000000001 0.18666666666666665
0 0.396 0.4573333333333333 0.112 0.19466666666666665
0 0.128 0.6719999999999999 0.252 0.592
56 0.094 0.8306666666666667 0.184 0.33866666666666667
39 0.8180000000000001 0.688 0.044 0.10666666666666666
