57 0.511 0.6384180790960452 0.842 0.7231638418079096
0 0.302 0.5169491525423728 0.392 0.7740112994350282
0 0.433 0.5833333333333334 0.366 0.8333333333333334
0 0.615 0.6384180790960452 0.47800000000000004 0.7231638418079096
