39 0.467 0.472 0.038 0.096
0 0.394 0.37066666666666664 0.24 0.35733333333333334
0 0.742 0.7466666666666666 0.26 0.5066666666666666
0 0.365 0.748 0.338 0.504
0 0.901 0.588 0.186 0.52
0 0.675 0.38666666666666666 0.218 0.384
0 0.165 0.4373333333333333 0.318 0.7253333333333333
60 0.555 0.7293333333333333 0.314 0.48266666666666663
