15 0.368 0.8190000000000001 0.2773333333333333 0.162
15 0.33999999999999997 0.711 0.21066666666666667 0.17400000000000002
0 0.3973333333333333 0.454 0.4533333333333333 0.66
58 0.7173333333333333 0.258 0.13866666666666666 0.08
