14 0.523 0.4973333333333333 0.43 0.6106666666666667
14 0.775 0.5013333333333333 0.214 0.5493333333333333
14 0.209 0.45999999999999996 0.266 0.424
14 0.443 0.33199999999999996 0.45 0.33866666666666667
14 0.365 0.24933333333333332 0.09 0.08266666666666667
14 0.914 0.39599999999999996 0.17200000000000001 0.3333333333333333
14 0.623 0.368 0.214 0.42666666666666664
