39 0.9570000000000001 0.14533333333333334 0.08600000000000001 0.2853333333333333
39 0.891 0.10133333333333333 0.08600000000000001 0.19733333333333333
39 0.8230000000000001 0.09733333333333333 0.10200000000000001 0.18933333333333333
