0 0.294 0.29624277456647397 0.352 0.5867052023121387
0 0.107 0.6719653179190751 0.21 0.4710982658959537
57 0.522 0.5780346820809248 0.908 0.7630057803468208
0 0.47500000000000003 0.5606936416184971 0.37 0.7976878612716762
0 0.712 0.5202312138728323 0.524 0.884393063583815
