0 0.747 0.5093333333333333 0.258 0.29333333333333333
60 0.68 0.7786666666666666 0.64 0.44266666666666665
0 0.509 0.49866666666666665 0.294 0.2826666666666667
0 0.353 0.6826666666666666 0.29 0.31466666666666665
0 0.338 0.5786666666666667 0.14 0.18666666666666665
56 0.28200000000000003 0.8066666666666666 0.328 0.38666666666666666
