57 0.6958333333333333 0.7430555555555556 0.48333333333333334 0.41944444444444445
56 0.22395833333333334 0.7472222222222222 0.35625 0.37777777777777777
57 0.14583333333333334 0.6138888888888889 0.2875 0.24444444444444446
0 0.578125 0.6777777777777778 0.20208333333333334 0.4222222222222222
