17 0.756 0.6853333333333333 0.32 0.4053333333333333
17 0.6880000000000001 0.66 0.312 0.39199999999999996
0 0.246 0.6186666666666667 0.076 0.25066666666666665
0 0.433 0.6093333333333333 0.13 0.24266666666666667
