1 0.159 0.6013333333333333 0.15 0.39199999999999996
1 0.686 0.7666666666666666 0.628 0.4666666666666667
1 0.375 0.7093333333333333 0.446 0.4533333333333333
0 0.9470000000000001 0.6293333333333333 0.106 0.7093333333333333
0 0.6990000000000001 0.62 0.322 0.76
0 0.627 0.7 0.194 0.49866666666666665
0 0.806 0.4013333333333333 0.092 0.32266666666666666
0 0.406 0.576 0.212 0.7573333333333333
0 0.23500000000000001 0.5093333333333333 0.11800000000000001 0.5653333333333334
