0 0.185 0.2972972972972973 0.13 0.24624624624624625
0 0.397 0.5570570570570571 0.214 0.8858858858858859
0 0.587 0.6486486486486487 0.194 0.3843843843843844
0 0.798 0.6696696696696697 0.248 0.4984984984984985
62 0.176 0.29429429429429427 0.28400000000000003 0.35435435435435436
39 0.884 0.8708708708708709 0.048 0.1921921921921922
56 0.108 0.6411411411411412 0.16 0.26726726726726724
