8 0.069 0.4746666666666666 0.114 0.064
8 0.41400000000000003 0.5013333333333333 0.8240000000000001 0.9973333333333333
0 0.677 0.884 0.046 0.23199999999999998
0 0.593 0.884 0.058 0.19999999999999998
0 0.863 0.9626666666666667 0.062 0.07466666666666666
