14 0.078 0.692 0.096 0.152
14 0.07 0.5693333333333334 0.096 0.17333333333333334
14 0.212 0.5706666666666667 0.092 0.12266666666666666
14 0.502 0.5253333333333333 0.132 0.176
14 0.712 0.4013333333333333 0.12 0.19999999999999998
14 0.754 0.3506666666666667 0.088 0.16266666666666665
