8 0.501 0.6156156156156156 0.998 0.11411411411411411
0 0.383 0.5015015015015015 0.134 0.22822822822822822
0 0.5700000000000001 0.5375375375375375 0.092 0.15615615615615616
0 0.74 0.536036036036036 0.096 0.14714714714714713
0 0.899 0.5345345345345345 0.122 0.15615615615615616
