2 0.43302180685358255 0.6340579710144927 0.8598130841121495 0.47101449275362317
0 0.26635514018691586 0.5893719806763285 0.308411214953271 0.6473429951690821
0 0.6401869158878505 0.5869565217391304 0.24610591900311526 0.6280193236714976
