56 0.797 0.7432432432432432 0.37 0.5135135135135135
56 0.247 0.18768768768768768 0.278 0.1891891891891892
56 0.481 0.12162162162162161 0.226 0.14714714714714713
60 0.501 0.5585585585585585 0.998 0.8828828828828829
