17 0.091 0.6626666666666666 0.178 0.20533333333333334
17 0.357 0.7186666666666667 0.274 0.2693333333333333
17 0.388 0.6666666666666666 0.252 0.2773333333333333
17 0.888 0.5373333333333333 0.10400000000000001 0.11466666666666667
0 0.785 0.8119999999999999 0.066 0.33866666666666667
0 0.859 0.752 0.046 0.27199999999999996
0 0.778 0.628 0.06 0.17333333333333334
0 0.18 0.6773333333333333 0.032 0.18133333333333332
2 0.6940000000000001 0.5519999999999999 0.14400000000000002 0.13333333333333333
