2 0.769 0.18933333333333333 0.198 0.14933333333333332
2 0.553 0.17866666666666667 0.242 0.176
2 0.268 0.20133333333333334 0.20400000000000001 0.16799999999999998
0 0.049 0.32 0.094 0.49066666666666664
2 0.5670000000000001 0.5106666666666666 0.798 0.49866666666666665
0 0.11 0.3293333333333333 0.168 0.5573333333333333
