3 0.9031250000000001 0.23124999999999998 0.19375 0.45416666666666666
3 0.665625 0.19791666666666666 0.19375 0.3875
3 0.42812500000000003 0.5020833333333333 0.375 0.9958333333333333
3 0.3765625 0.15208333333333332 0.140625 0.29583333333333334
1 0.12812500000000002 0.5020833333333333 0.25 0.9958333333333333
