0 0.529 0.6266666666666666 0.254 0.5866666666666667
0 0.341 0.5586666666666666 0.338 0.43466666666666665
0 0.179 0.5439999999999999 0.11800000000000001 0.24
0 0.114 0.512 0.12 0.208
0 0.092 0.3973333333333333 0.124 0.26666666666666666
8 0.47800000000000004 0.7493333333333333 0.868 0.5013333333333333
