8 0.221 0.6737160120845922 0.082 0.09063444108761329
8 0.466 0.649546827794562 0.096 0.07250755287009064
8 0.622 0.6737160120845922 0.096 0.060422960725075525
8 0.6970000000000001 0.6465256797583081 0.08600000000000001 0.07250755287009064
