0 0.48148148148148145 0.52 0.874074074074074 0.96
0 0.782716049382716 0.687 0.3259259259259259 0.17
39 0.6506172839506172 0.608 0.15555555555555556 0.084
56 0.4962962962962963 0.518 0.9876543209876543 0.964
