8 0.925 0.5904255319148936 0.106 0.5
8 0.8190000000000001 0.625 0.10200000000000001 0.4521276595744681
8 0.435 0.5957446808510638 0.138 0.48936170212765956
8 0.241 0.6356382978723404 0.09 0.3351063829787234
8 0.033 0.651595744680851 0.058 0.2925531914893617
8 0.503 0.6702127659574468 0.07 0.22340425531914893
8 0.768 0.6542553191489362 0.088 0.3191489361702128
