5 0.836 0.45066666666666666 0.328 0.368
0 0.8170000000000001 0.58 0.09 0.33866666666666667
0 0.439 0.596 0.078 0.2853333333333333
0 0.319 0.616 0.07 0.3466666666666667
0 0.624 0.596 0.092 0.33866666666666667
0 0.723 0.6413333333333333 0.146 0.39199999999999996
0 0.546 0.6146666666666667 0.124 0.296
0 0.384 0.6053333333333333 0.1 0.3733333333333333
0 0.125 0.6146666666666667 0.114 0.2853333333333333
