17 0.678 0.6291291291291291 0.492 0.7297297297297297
0 0.399 0.31981981981981983 0.078 0.14114114114114115
0 0.303 0.3183183183183183 0.13 0.25825825825825827
0 0.16 0.3963963963963964 0.084 0.17417417417417416
0 0.217 0.3483483483483483 0.062 0.12012012012012012
