1 0.394 0.6479028697571744 0.5760000000000001 0.41721854304635764
1 0.615 0.6324503311258278 0.442 0.3068432671081678
0 0.595 0.46467991169977924 0.198 0.7571743929359823
0 0.445 0.4900662251655629 0.198 0.6887417218543046
