39 0.32 0.4039039039039039 0.02 0.09309309309309309
39 0.34500000000000003 0.40540540540540543 0.018000000000000002 0.09009009009009009
39 0.371 0.4069069069069069 0.018000000000000002 0.09309309309309309
17 0.676 0.6426426426426426 0.28800000000000003 0.3123123123123123
