2 0.906 0.8106666666666666 0.188 0.3253333333333333
2 0.786 0.7653333333333333 0.17200000000000001 0.16533333333333333
2 0.622 0.7266666666666667 0.064 0.06133333333333333
2 0.117 0.752 0.23 0.208
2 0.271 0.7373333333333333 0.098 0.10933333333333332
5 0.517 0.6946666666666667 0.058 0.09866666666666667
