56 0.352 0.811141304347826 0.088 0.27445652173913043
56 0.432 0.8138586956521738 0.076 0.27445652173913043
56 0.51 0.8125 0.076 0.2717391304347826
56 0.599 0.8152173913043478 0.074 0.27717391304347827
56 0.68 0.8152173913043478 0.076 0.2826086956521739
56 0.767 0.8152173913043478 0.094 0.2826086956521739
56 0.853 0.8179347826086957 0.09 0.28804347826086957
56 0.9420000000000001 0.8125 0.1 0.28804347826086957
