17 0.722 0.5578231292517006 0.47600000000000003 0.6462585034013605
17 0.252 0.5527210884353742 0.41200000000000003 0.6836734693877551
2 0.9420000000000001 0.3214285714285714 0.068 0.04421768707482993
