16 0.44 0.5596816976127321 0.512 0.48275862068965514
0 0.496 0.6140583554376657 0.41200000000000003 0.7718832891246684
58 0.758 0.3952254641909814 0.156 0.1273209549071618
58 0.544 0.35941644562334213 0.028 0.10875331564986737
