0 0.714 0.37466666666666665 0.14 0.2693333333333333
0 0.526 0.39999999999999997 0.112 0.21333333333333332
0 0.266 0.604 0.26 0.3973333333333333
39 0.5630000000000001 0.4453333333333333 0.034 0.112
39 0.595 0.4453333333333333 0.03 0.10666666666666666
56 0.227 0.6573333333333333 0.20600000000000002 0.37066666666666664
