39 0.937 0.697508896797153 0.026000000000000002 0.11387900355871886
56 0.792 0.8380782918149465 0.164 0.3238434163701067
0 0.642 0.6565836298932384 0.228 0.2882562277580071
0 0.468 0.5088967971530249 0.512 0.9822064056939501
