57 0.163 0.7133333333333333 0.322 0.5733333333333334
56 0.329 0.49866666666666665 0.19 0.30933333333333335
56 0.56 0.48666666666666664 0.20400000000000001 0.30133333333333334
56 0.772 0.5266666666666666 0.244 0.312
