57 0.549 0.6411411411411412 0.902 0.7177177177177178
0 0.364 0.6246246246246246 0.484 0.7507507507507507
0 0.652 0.596096096096096 0.308 0.8078078078078078
0 0.377 0.6216216216216216 0.226 0.24624624624624625
