58 0.5650000000000001 0.7146666666666667 0.28600000000000003 0.21866666666666665
58 0.241 0.6613333333333333 0.218 0.16
58 0.857 0.5986666666666667 0.14200000000000002 0.11466666666666667
58 0.487 0.512 0.074 0.112
58 0.117 0.568 0.162 0.19733333333333333
58 0.306 0.5213333333333333 0.292 0.32266666666666666
58 0.716 0.5173333333333333 0.152 0.208
