2 0.5733333333333334 0.536 0.8533333333333333 0.404
2 0.39999999999999997 0.47500000000000003 0.7946666666666666 0.31
0 0.3893333333333333 0.546 0.192 0.5720000000000001
0 0.6 0.535 0.23466666666666666 0.55
