15 0.20833333333333334 0.5652173913043478 0.20333333333333334 0.5093167701863354
15 0.35500000000000004 0.5962732919254659 0.14333333333333334 0.45962732919254656
15 0.5366666666666667 0.5527950310559006 0.16666666666666669 0.5341614906832298
15 0.7166666666666667 0.4658385093167702 0.2 0.7204968944099378
