3 0.5 0.5717592592592592 0.5123456790123456 0.7222222222222222
3 0.8657407407407407 0.37152777777777773 0.2685185185185185 0.24305555555555555
3 0.2006172839506173 0.43981481481481477 0.37037037037037035 0.2175925925925926
2 0.36882716049382713 0.20949074074074073 0.7314814814814814 0.21990740740740738
0 0.48765432098765427 0.46412037037037035 0.49382716049382713 0.5810185185185185
0 0.22376543209876543 0.3171296296296296 0.3179012345679012 0.32407407407407407
0 0.566358024691358 0.15162037037037035 0.12654320987654322 0.17824074074074073
0 0.06172839506172839 0.1388888888888889 0.06790123456790123 0.046296296296296294
