19 0.295 0.3667664670658683 0.586 0.7035928143712575
19 0.8280000000000001 0.45508982035928147 0.34400000000000003 0.6766467065868264
19 0.40700000000000003 0.624251497005988 0.28200000000000003 0.18862275449101798
19 0.638 0.3607784431137725 0.396 0.6317365269461078
