8 0.145 0.47297297297297297 0.28600000000000003 0.93993993993994
8 0.401 0.8228228228228228 0.234 0.26426426426426425
8 0.744 0.4984984984984985 0.512 0.990990990990991
8 0.498 0.6141141141141141 0.036000000000000004 0.2912912912912913
