1 0.4959893048128342 0.772 0.27540106951871657 0.396
0 0.48128342245989303 0.5710000000000001 0.3422459893048128 0.606
0 0.8449197860962566 0.341 0.10695187165775401 0.242
1 0.28609625668449196 0.178 0.2032085561497326 0.308
1 0.5548128342245989 0.168 0.20053475935828877 0.3
2 0.5133689839572192 0.58 0.8877005347593583 0.504
