56 0.97 0.372 0.06 0.312
0 0.379 0.568 0.426 0.864
0 0.632 0.3893333333333333 0.308 0.4533333333333333
0 0.5710000000000001 0.7173333333333333 0.186 0.25066666666666665
0 0.719 0.5439999999999999 0.298 0.46399999999999997
