0 0.302 0.576 0.256 0.848
62 0.055 0.3813333333333333 0.106 0.15466666666666667
62 0.9550000000000001 0.31466666666666665 0.09 0.10666666666666666
0 0.5700000000000001 0.2733333333333333 0.07200000000000001 0.248
