0 0.7668213457076566 0.507 0.46635730858468677 0.986
0 0.20069605568445475 0.512 0.36890951276102085 0.976
0 0.5185614849187935 0.66 0.37354988399071926 0.68
56 0.48491879350348027 0.809 0.35266821345707655 0.382
39 0.14153132250580047 0.328 0.06496519721577726 0.152
