17 0.5053333333333333 0.556 0.08266666666666667 0.14400000000000002
17 0.5866666666666667 0.548 0.09066666666666666 0.148
17 0.7693333333333333 0.5660000000000001 0.10933333333333332 0.14400000000000002
17 0.8653333333333333 0.549 0.11466666666666667 0.134
17 0.348 0.532 0.088 0.152
17 0.03733333333333333 0.437 0.06933333333333333 0.13
