4 0.541 0.8708708708708709 0.542 0.25825825825825827
4 0.5710000000000001 0.47597597597597596 0.858 0.40540540540540543
4 0.17500000000000002 0.6396396396396397 0.262 0.15015015015015015
4 0.917 0.36936936936936937 0.166 0.14414414414414414
4 0.887 0.1831831831831832 0.226 0.21021021021021022
4 0.79 0.7597597597597597 0.26 0.23423423423423423
