57 0.333 0.644 0.662 0.6373333333333333
58 0.523 0.692 0.17400000000000002 0.16266666666666665
56 0.937 0.692 0.126 0.36533333333333334
56 0.8150000000000001 0.5826666666666667 0.37 0.6053333333333333
58 0.231 0.7186666666666667 0.202 0.312
