4 0.7738853503184713 0.528169014084507 0.23142250530785563 0.11971830985915494
4 0.5169851380042463 0.5616197183098591 0.28662420382165604 0.15140845070422534
4 0.24203821656050956 0.573943661971831 0.28450106157112526 0.13380281690140847
