14 0.437 0.7879999999999999 0.186 0.17866666666666667
14 0.17400000000000002 0.744 0.264 0.144
14 0.362 0.6506666666666666 0.16 0.096
14 0.185 0.6613333333333333 0.202 0.08533333333333333
14 0.614 0.5693333333333334 0.152 0.08266666666666667
14 0.895 0.5093333333333333 0.09 0.112
14 0.771 0.5893333333333333 0.162 0.09066666666666666
14 0.759 0.648 0.11800000000000001 0.112
14 0.682 0.512 0.08 0.11733333333333333
14 0.484 0.5586666666666666 0.08 0.14133333333333334
14 0.749 0.512 0.066 0.08
