2 0.498 0.6542553191489362 0.992 0.49468085106382975
0 0.302 0.5212765957446809 0.14 0.26595744680851063
0 0.38 0.34308510638297873 0.128 0.22340425531914893
0 0.324 0.46143617021276595 0.264 0.11968085106382978
