17 0.164 0.6211180124223602 0.248 0.670807453416149
17 0.359 0.6211180124223602 0.194 0.608695652173913
17 0.488 0.6304347826086956 0.168 0.6459627329192547
17 0.663 0.6133540372670807 0.17 0.5869565217391304
17 0.8220000000000001 0.5807453416149068 0.152 0.6149068322981366
17 0.93 0.6583850931677018 0.14 0.5900621118012422
0 0.115 0.41459627329192544 0.194 0.4192546583850931
0 0.322 0.42546583850931674 0.164 0.3913043478260869
0 0.47000000000000003 0.3913043478260869 0.176 0.3416149068322981
0 0.603 0.40838509316770183 0.13 0.2826086956521739
0 0.774 0.38664596273291924 0.14400000000000002 0.3695652173913043
0 0.911 0.43788819875776397 0.178 0.45341614906832295
