0 0.2117647058823529 0.4848993288590604 0.2541176470588235 0.7281879194630873
58 0.868235294117647 0.23657718120805368 0.15999999999999998 0.4664429530201342
56 0.24235294117647058 0.6140939597315436 0.22588235294117645 0.5100671140939598
58 0.6588235294117647 0.37080536912751677 0.24 0.2046979865771812
