0 0.359 0.6146666666666667 0.05 0.23199999999999998
0 0.386 0.616 0.036000000000000004 0.21866666666666665
0 0.428 0.6226666666666666 0.068 0.248
0 0.47000000000000003 0.5533333333333333 0.044 0.10933333333333332
0 0.522 0.632 0.044 0.18133333333333332
0 0.664 0.624 0.04 0.18666666666666665
58 0.974 0.07466666666666666 0.052000000000000005 0.06933333333333333
58 0.913 0.07066666666666667 0.062 0.056
