17 0.272 0.5993377483443708 0.276 0.7218543046357616
0 0.312 0.4420529801324503 0.188 0.6456953642384106
0 0.426 0.3658940397350993 0.092 0.24834437086092714
17 0.465 0.6688741721854304 0.17 0.5165562913907285
