57 0.522 0.4333333333333333 0.864 0.41333333333333333
56 0.047 0.4573333333333333 0.09 0.45599999999999996
0 0.34400000000000003 0.4613333333333333 0.216 0.384
0 0.6990000000000001 0.5466666666666666 0.294 0.45866666666666667
