0 0.47800000000000004 0.6693333333333333 0.224 0.48533333333333334
0 0.637 0.6226666666666666 0.23 0.7546666666666666
0 0.434 0.6213333333333333 0.248 0.7573333333333333
56 0.839 0.7933333333333333 0.214 0.3813333333333333
60 0.8180000000000001 0.772 0.304 0.408
56 0.905 0.644 0.11800000000000001 0.23199999999999998
