0 0.93375 0.6533333333333333 0.0675 0.14666666666666667
2 0.50625 0.6383333333333334 0.1275 0.15000000000000002
2 0.36625 0.6566666666666667 0.0775 0.08
2 0.67625 0.6516666666666667 0.1675 0.08333333333333334
2 0.15625 0.655 0.1875 0.08333333333333334
