0 0.536 0.6141141141141141 0.224 0.4174174174174174
0 0.749 0.6921921921921922 0.25 0.5615615615615616
0 0.305 0.7357357357357357 0.14200000000000002 0.5285285285285285
0 0.123 0.7402402402402403 0.242 0.5195195195195195
60 0.55 0.8678678678678678 0.56 0.26426426426426425
56 0.8170000000000001 0.7897897897897898 0.242 0.42042042042042044
62 0.93 0.6291291291291291 0.14 0.2552552552552553
57 0.373 0.7627627627627628 0.502 0.4744744744744745
