56 0.357 0.816 0.214 0.368
56 0.5740000000000001 0.8119999999999999 0.224 0.376
56 0.762 0.6679999999999999 0.088 0.23199999999999998
56 0.091 0.8026666666666666 0.178 0.39466666666666667
60 0.423 0.8039999999999999 0.7020000000000001 0.39199999999999996
