17 0.47600000000000003 0.47147147147147145 0.424 0.48648648648648646
17 0.249 0.4219219219219219 0.23800000000000002 0.34534534534534533
0 0.47000000000000003 0.3033033033033033 0.088 0.39039039039039036
0 0.304 0.3003003003003003 0.07200000000000001 0.2882882882882883
17 0.157 0.41291291291291293 0.14200000000000002 0.2972972972972973
