4 0.501 0.545045045045045 0.998 0.7057057057057057
4 0.501 0.3033033033033033 0.998 0.5585585585585585
4 0.23700000000000002 0.539039039039039 0.178 0.07507507507507508
4 0.092 0.5330330330330331 0.18 0.08108108108108109
