0 0.792 0.5986666666666667 0.164 0.8026666666666666
0 0.6970000000000001 0.5693333333333334 0.122 0.8026666666666666
0 0.582 0.5559999999999999 0.136 0.7813333333333333
0 0.46900000000000003 0.5599999999999999 0.11800000000000001 0.736
0 0.20700000000000002 0.572 0.14200000000000002 0.6746666666666666
0 0.34500000000000003 0.48533333333333334 0.114 0.4693333333333333
58 0.064 0.484 0.124 0.472
