5 0.41400000000000003 0.5105105105105106 0.536 0.7867867867867868
5 0.089 0.46096096096096095 0.15 0.37537537537537535
2 0.07 0.5780780780780781 0.08 0.1831831831831832
2 0.112 0.581081081081081 0.07200000000000001 0.1891891891891892
2 0.908 0.5195195195195195 0.076 0.06006006006006006
0 0.518 0.3768768768768769 0.07200000000000001 0.23123123123123124
0 0.40900000000000003 0.36936936936936937 0.114 0.25225225225225223
