3 0.47300000000000003 0.6586666666666666 0.626 0.5333333333333333
0 0.47300000000000003 0.4746666666666666 0.23800000000000002 0.6293333333333333
0 0.931 0.38 0.07 0.13599999999999998
58 0.926 0.584 0.148 0.304
58 0.222 0.572 0.128 0.3173333333333333
