58 0.93 0.7106666666666667 0.14 0.296
58 0.062 0.3893333333333333 0.12 0.224
58 0.158 0.42133333333333334 0.108 0.13333333333333333
58 0.254 0.35333333333333333 0.12 0.09333333333333332
58 0.41400000000000003 0.39466666666666667 0.112 0.14933333333333332
58 0.525 0.38 0.14200000000000002 0.16799999999999998
58 0.656 0.408 0.07200000000000001 0.096
58 0.799 0.3853333333333333 0.094 0.11466666666666667
58 0.889 0.36933333333333335 0.09 0.13599999999999998
58 0.8240000000000001 0.7959999999999999 0.10400000000000001 0.17866666666666667
58 0.755 0.7026666666666667 0.158 0.42933333333333334
58 0.6900000000000001 0.86 0.068 0.152
58 0.608 0.768 0.124 0.21866666666666665
58 0.525 0.9226666666666666 0.09 0.15466666666666667
58 0.35000000000000003 0.656 0.584 0.5386666666666666
58 0.146 0.9279999999999999 0.12 0.144
