2 0.925 0.27999999999999997 0.10200000000000001 0.08533333333333333
0 0.745 0.47333333333333333 0.066 0.30133333333333334
0 0.6880000000000001 0.4573333333333333 0.084 0.312
0 0.623 0.5559999999999999 0.094 0.4613333333333333
