16 0.391 0.5493333333333333 0.762 0.9013333333333333
56 0.628 0.056 0.07200000000000001 0.10666666666666666
56 0.549 0.05466666666666666 0.07 0.104
56 0.303 0.16799999999999998 0.15 0.27199999999999996
56 0.184 0.20133333333333334 0.108 0.34933333333333333
56 0.193 0.17066666666666666 0.126 0.33599999999999997
2 0.84 0.076 0.244 0.14666666666666667
