56 0.158 0.7667638483965015 0.312 0.46647230320699706
56 0.513 0.7696793002915452 0.358 0.4606413994169096
60 0.504 0.8192419825072886 0.648 0.36151603498542273
0 0.20600000000000002 0.6588921282798834 0.40800000000000003 0.6822157434402333
0 0.835 0.6384839650145773 0.318 0.7230320699708455
58 0.432 0.7696793002915452 0.052000000000000005 0.08163265306122448
58 0.139 0.33527696793002915 0.178 0.1574344023323615
