0 0.748 0.6036036036036035 0.504 0.7927927927927928
0 0.225 0.6036036036036035 0.446 0.7927927927927928
56 0.35000000000000003 0.6711711711711712 0.184 0.6576576576576576
39 0.6990000000000001 0.8273273273273273 0.058 0.17717717717717718
39 0.9420000000000001 0.8618618618618619 0.088 0.16216216216216217
