8 0.125 0.11866666666666666 0.182 0.11466666666666667
8 0.757 0.20666666666666667 0.154 0.12
0 0.909 0.14533333333333334 0.05 0.12533333333333332
0 0.622 0.21066666666666667 0.048 0.14933333333333332
0 0.531 0.16266666666666665 0.05 0.06933333333333333
8 0.501 0.6133333333333333 0.998 0.7733333333333333
