62 0.6980000000000001 0.5626666666666666 0.108 0.13333333333333333
56 0.597 0.7999999999999999 0.202 0.39999999999999997
56 0.262 0.7986666666666666 0.116 0.4026666666666667
56 0.402 0.7253333333333333 0.148 0.304
56 0.343 0.7106666666666667 0.08600000000000001 0.2853333333333333
60 0.191 0.8333333333333333 0.378 0.3333333333333333
