16 0.5322916666666666 0.36580882352941174 0.48541666666666666 0.7169117647058824
16 0.503125 0.5551470588235294 0.31875 0.625
16 0.8760416666666666 0.2077205882352941 0.24791666666666667 0.40808823529411764
