5 0.5 0.49514563106796117 0.46 0.8284789644012945
2 0.214 0.6731391585760518 0.096 0.11003236245954694
0 0.741 0.7168284789644014 0.046 0.28802588996763756
0 0.787 0.7233009708737864 0.05 0.29449838187702265
0 0.8230000000000001 0.6925566343042071 0.038 0.23300970873786409
0 0.88 0.7038834951456311 0.056 0.24919093851132687
0 0.921 0.7071197411003236 0.058 0.3268608414239482
0 0.799 0.7071197411003236 0.046 0.2621359223300971
