62 0.498 0.30666666666666664 0.352 0.44266666666666665
39 0.633 0.8146666666666667 0.082 0.37066666666666664
0 0.273 0.6893333333333334 0.35000000000000003 0.376
0 0.659 0.6786666666666666 0.426 0.6426666666666666
0 0.7000000000000001 0.6533333333333333 0.392 0.6933333333333334
58 0.931 0.3813333333333333 0.138 0.704
58 0.073 0.49466666666666664 0.106 0.43466666666666665
58 0.17300000000000001 0.3293333333333333 0.222 0.6533333333333333
