8 0.746 0.42666666666666664 0.308 0.33599999999999997
8 0.309 0.39866666666666667 0.614 0.7919999999999999
2 0.806 0.7426666666666667 0.388 0.5146666666666666
0 0.776 0.6986666666666667 0.304 0.6026666666666667
