14 0.5630000000000001 0.4706666666666667 0.07 0.12533333333333332
14 0.47100000000000003 0.5013333333333333 0.114 0.08
14 0.401 0.45199999999999996 0.066 0.11466666666666667
14 0.289 0.45066666666666666 0.062 0.13866666666666666
