3 0.663 0.5891891891891892 0.114 0.14054054054054055
3 0.47900000000000004 0.5513513513513514 0.11 0.12972972972972974
0 0.642 0.5783783783783785 0.128 0.15675675675675677
0 0.439 0.5324324324324324 0.122 0.15135135135135136
