0 0.4296875 0.6830985915492958 0.47187500000000004 0.6338028169014085
0 0.49843750000000003 0.5164319248826291 0.609375 0.9671361502347418
57 0.5015625 0.6596244131455399 0.9968750000000001 0.6807511737089202
