0 0.275 0.632 0.314 0.5599999999999999
0 0.512 0.368 0.272 0.33599999999999997
0 0.807 0.5013333333333333 0.262 0.592
57 0.622 0.5306666666666666 0.656 0.5439999999999999
56 0.11 0.5773333333333334 0.216 0.472
