0 0.2926356589147287 0.64 0.47674418604651164 0.38
0 0.4050387596899225 0.55125 0.8023255813953488 0.8975
56 0.622093023255814 0.6062500000000001 0.7558139534883721 0.7875
39 0.3488372093023256 0.485 0.20930232558139533 0.11
