16 0.556 0.6276276276276276 0.388 0.45045045045045046
39 0.8280000000000001 0.18768768768768768 0.048 0.14114114114114115
39 0.765 0.1831831831831832 0.058 0.13813813813813813
39 0.654 0.1891891891891892 0.096 0.08408408408408408
39 0.743 0.13063063063063063 0.058 0.12912912912912913
