0 0.449 0.4053333333333333 0.222 0.432
0 0.637 0.416 0.21 0.42666666666666664
39 0.9410000000000001 0.6386666666666666 0.034 0.13066666666666665
39 0.483 0.6293333333333333 0.05 0.21866666666666665
39 0.536 0.624 0.048 0.21866666666666665
