39 0.716 0.7477477477477478 0.116 0.5045045045045045
0 0.253 0.5135135135135135 0.28600000000000003 0.6606606606606606
0 0.536 0.524024024024024 0.324 0.6156156156156156
0 0.647 0.34684684684684686 0.082 0.1111111111111111
0 0.726 0.36936936936936937 0.076 0.15015015015015015
0 0.78 0.4189189189189189 0.164 0.30930930930930933
