1 0.775 0.8738738738738738 0.45 0.25225225225225223
2 0.618 0.5615615615615616 0.296 0.39039039039039036
0 0.858 0.575075075075075 0.28400000000000003 0.8498498498498498
0 0.266 0.5615615615615616 0.496 0.8768768768768769
