4 0.897 0.5255255255255256 0.08600000000000001 0.07207207207207207
4 0.491 0.41291291291291293 0.08600000000000001 0.06906906906906907
4 0.223 0.4219219219219219 0.08600000000000001 0.06306306306306306
