0 0.393 0.52 0.262 0.9279999999999999
0 0.586 0.5973333333333333 0.192 0.768
0 0.741 0.5706666666666667 0.21 0.8586666666666667
0 0.163 0.588 0.302 0.824
56 0.934 0.7653333333333333 0.132 0.4693333333333333
0 0.8220000000000001 0.24 0.04 0.096
