56 0.884 0.8483483483483484 0.2 0.3033033033033033
56 0.515 0.7522522522522522 0.146 0.37537537537537535
56 0.289 0.8048048048048048 0.17 0.39039039039039036
62 0.796 0.5885885885885885 0.128 0.2042042042042042
62 0.524 0.5105105105105106 0.088 0.10810810810810811
62 0.29 0.545045045045045 0.148 0.17117117117117117
