62 0.27 0.9136690647482014 0.536 0.1726618705035971
0 0.20700000000000002 0.44844124700239807 0.322 0.6091127098321343
0 0.41300000000000003 0.776978417266187 0.138 0.12949640287769784
0 0.676 0.5131894484412469 0.264 0.9688249400479616
0 0.772 0.5251798561151079 0.14400000000000002 0.935251798561151
0 0.871 0.49999999999999994 0.258 0.9952038369304556
0 0.229 0.9316546762589928 0.134 0.13669064748201437
