60 0.641 0.7546666666666666 0.63 0.49066666666666664
0 0.374 0.6786666666666666 0.516 0.6426666666666666
0 0.343 0.36666666666666664 0.07 0.14666666666666667
0 0.87 0.652 0.26 0.6213333333333333
0 0.735 0.476 0.23 0.32266666666666666
0 0.681 0.43866666666666665 0.13 0.3173333333333333
0 0.435 0.37866666666666665 0.19 0.2826666666666667
39 0.517 0.5213333333333333 0.046 0.15733333333333333
