18 0.855 0.7093333333333333 0.29 0.45866666666666667
18 0.641 0.5906666666666667 0.386 0.296
0 0.326 0.5613333333333334 0.136 0.504
0 0.132 0.43866666666666665 0.112 0.408
0 0.07100000000000001 0.364 0.10200000000000001 0.39199999999999996
0 0.243 0.4573333333333333 0.066 0.27466666666666667
