14 0.467 0.176 0.07 0.10133333333333333
14 0.503 0.292 0.098 0.08266666666666667
14 0.462 0.5973333333333333 0.048 0.09066666666666666
14 0.5700000000000001 0.604 0.052000000000000005 0.08266666666666667
14 0.5690000000000001 0.8186666666666667 0.05 0.10666666666666666
