14 0.476 0.852 0.30133333333333334 0.164
14 0.43466666666666665 0.6930000000000001 0.20266666666666666 0.15
14 0.7626666666666666 0.677 0.208 0.17
14 0.624 0.776 0.10133333333333333 0.10400000000000001
