0 0.299 0.5599999999999999 0.386 0.88
0 0.834 0.5706666666666667 0.332 0.8586666666666667
39 0.355 0.6626666666666666 0.046 0.23199999999999998
39 0.556 0.372 0.044 0.12533333333333332
8 0.095 0.4933333333333333 0.186 0.27199999999999996
8 0.179 0.36266666666666664 0.07 0.064
