0 0.065 0.42533333333333334 0.126 0.45066666666666666
16 0.14300000000000002 0.76 0.28200000000000003 0.48
16 0.308 0.8786666666666666 0.22 0.24266666666666667
16 0.447 0.32266666666666666 0.37 0.45866666666666667
