39 0.553 0.6906666666666667 0.042 0.18133333333333332
39 0.333 0.7386666666666667 0.062 0.23466666666666666
39 0.06 0.9053333333333333 0.064 0.18933333333333333
39 0.23500000000000001 0.952 0.046 0.096
39 0.335 0.6093333333333333 0.042 0.152
0 0.31 0.4933333333333333 0.252 0.368
0 0.599 0.5053333333333333 0.202 0.36533333333333334
60 0.367 0.7973333333333333 0.73 0.4053333333333333
0 0.777 0.7026666666666667 0.41000000000000003 0.5946666666666667
