2 0.652 0.8024861878453038 0.6960000000000001 0.39502762430939226
2 0.48 0.6049723756906077 0.20800000000000002 0.11602209944751381
2 0.355 0.5939226519337016 0.07 0.07734806629834254
5 0.224 0.5497237569060773 0.10400000000000001 0.09944751381215469
2 0.611 0.5704419889502762 0.05 0.03591160220994475
2 0.5660000000000001 0.569060773480663 0.048 0.03314917127071823
2 0.653 0.5732044198895028 0.038 0.03591160220994475
2 0.28600000000000003 0.5676795580110497 0.024 0.03591160220994475
2 0.157 0.56353591160221 0.038 0.06077348066298342
2 0.487 0.5428176795580111 0.11 0.052486187845303865
