62 0.79 0.472 0.248 0.2613333333333333
60 0.34500000000000003 0.7999999999999999 0.686 0.39999999999999997
56 0.61 0.7666666666666666 0.24 0.4666666666666667
39 0.8180000000000001 0.2826666666666667 0.036000000000000004 0.112
39 0.713 0.4706666666666667 0.054 0.216
39 0.557 0.5106666666666666 0.046 0.27999999999999997
39 0.448 0.4533333333333333 0.06 0.19733333333333333
39 0.382 0.39066666666666666 0.06 0.072
39 0.519 0.472 0.046 0.16
39 0.449 0.4693333333333333 0.034 0.15466666666666667
