39 0.7854166666666667 0.8231197771587744 0.05 0.16434540389972144
39 0.43854166666666666 0.6337047353760445 0.035416666666666666 0.11420612813370473
0 0.646875 0.5236768802228412 0.33958333333333335 0.6072423398328691
0 0.2677083333333333 0.5445682451253482 0.4354166666666667 0.35376044568245124
