4 0.15 0.5930930930930931 0.056 0.057057057057057055
4 0.367 0.5795795795795796 0.058 0.04204204204204204
4 0.651 0.545045045045045 0.054 0.04504504504504504
4 0.839 0.524024024024024 0.054 0.05105105105105105
