2 0.787 0.3418674698795181 0.094 0.05120481927710844
2 0.892 0.43373493975903615 0.216 0.19879518072289157
3 0.365 0.4954819277108434 0.214 0.5090361445783133
0 0.314 0.3599397590361446 0.22 0.569277108433735
