0 0.20500000000000002 0.6226666666666666 0.406 0.6799999999999999
0 0.5 0.6653333333333333 0.62 0.6693333333333333
0 0.417 0.6026666666666667 0.366 0.6133333333333333
57 0.47200000000000003 0.652 0.9400000000000001 0.696
