0 0.502 0.3333333333333333 0.152 0.6366366366366366
17 0.461 0.6351351351351351 0.654 0.6456456456456456
0 0.101 0.45495495495495497 0.08600000000000001 0.2912912912912913
17 0.089 0.5825825825825826 0.158 0.29429429429429427
0 0.913 0.6006006006006006 0.082 0.14414414414414414
0 0.9590000000000001 0.5840840840840841 0.054 0.17117117117117117
