60 0.709 0.8493333333333333 0.582 0.30133333333333334
60 0.45 0.7693333333333333 0.34400000000000003 0.3333333333333333
56 0.519 0.8666666666666666 0.126 0.26666666666666666
56 0.326 0.7746666666666666 0.184 0.32266666666666666
56 0.617 0.6506666666666666 0.078 0.11733333333333333
