58 0.154 0.711590296495957 0.164 0.5013477088948788
58 0.891 0.7493261455525607 0.218 0.4097035040431267
0 0.298 0.6415094339622642 0.228 0.7169811320754718
0 0.52 0.6185983827493262 0.196 0.7628032345013478
0 0.717 0.6522911051212938 0.178 0.6954177897574124
