1 0.6880000000000001 0.856 0.16 0.12266666666666666
2 0.272 0.8746666666666666 0.54 0.25066666666666665
5 0.92 0.596 0.16 0.8079999999999999
0 0.551 0.7186666666666667 0.042 0.17866666666666667
0 0.499 0.7253333333333333 0.058 0.176
0 0.774 0.656 0.048 0.16533333333333333
