0 0.18694362017804156 0.5925925925925926 0.18991097922848665 0.34074074074074073
0 0.4910979228486647 0.5851851851851851 0.2166172106824926 0.3950617283950617
0 0.8189910979228487 0.5790123456790124 0.17804154302670624 0.3728395061728395
56 0.3857566765578635 0.6419753086419753 0.10089020771513353 0.13333333333333333
