5 0.39599999999999996 0.635 0.19466666666666665 0.11800000000000001
5 0.4453333333333333 0.735 0.33599999999999997 0.17
2 0.5 0.799 0.15733333333333333 0.07
2 0.692 0.6970000000000001 0.104 0.042
2 0.7546666666666666 0.664 0.09066666666666666 0.044
