0 0.447 0.46399999999999997 0.186 0.4746666666666666
0 0.294 0.632 0.448 0.736
0 0.8180000000000001 0.5706666666666667 0.276 0.8586666666666667
0 0.128 0.516 0.232 0.712
39 0.8150000000000001 0.696 0.05 0.12266666666666666
39 0.517 0.696 0.094 0.24533333333333332
39 0.467 0.5293333333333333 0.042 0.10933333333333332
