39 0.356 0.5506666666666666 0.056 0.20533333333333334
39 0.441 0.5146666666666666 0.038 0.192
39 0.579 0.5439999999999999 0.082 0.288
0 0.732 0.5906666666666667 0.512 0.8186666666666667
0 0.165 0.5733333333333334 0.326 0.8533333333333333
