8 0.5 0.683 0.6097560975609756 0.066
8 0.5894308943089431 0.853 0.7560975609756098 0.10200000000000001
8 0.7127371273712737 0.771 0.13550135501355012 0.034
8 0.6287262872628726 0.446 0.1951219512195122 0.036000000000000004
