56 0.892 0.4973333333333333 0.216 0.8506666666666667
56 0.126 0.45599999999999996 0.248 0.8266666666666667
56 0.161 0.16666666666666666 0.214 0.328
56 0.377 0.16666666666666666 0.234 0.328
56 0.641 0.16266666666666665 0.294 0.32
56 0.439 0.5093333333333333 0.47000000000000003 0.9119999999999999
