62 0.712 0.628 0.26 0.3173333333333333
0 0.75 0.7626666666666666 0.5 0.4746666666666666
0 0.47000000000000003 0.6173333333333333 0.316 0.7653333333333333
0 0.362 0.49866666666666665 0.4 0.688
0 0.28300000000000003 0.532 0.562 0.9359999999999999
