19 0.19 0.5570570570570571 0.376 0.5795795795795796
19 0.509 0.6456456456456456 0.358 0.7087087087087087
19 0.759 0.5135135135135135 0.482 0.9729729729729729
19 0.9520000000000001 0.5765765765765766 0.096 0.5525525525525525
19 0.29 0.45945945945945943 0.1 0.16216216216216217
