14 0.93 0.13063063063063063 0.136 0.2072072072072072
14 0.8140000000000001 0.7222222222222222 0.16 0.30930930930930933
14 0.743 0.48648648648648646 0.27 0.43843843843843844
14 0.601 0.5435435435435435 0.258 0.34234234234234234
14 0.453 0.6606606606606606 0.214 0.35435435435435436
14 0.272 0.45345345345345345 0.156 0.23423423423423423
