62 0.749 0.13066666666666665 0.15 0.20266666666666666
0 0.9400000000000001 0.7186666666666667 0.12 0.5626666666666666
0 0.679 0.74 0.33 0.52
0 0.375 0.7373333333333333 0.354 0.5253333333333333
0 0.191 0.5453333333333333 0.222 0.9093333333333333
