56 0.493 0.5466666666666666 0.882 0.9066666666666666
0 0.293 0.64 0.342 0.72
0 0.499 0.5573333333333333 0.686 0.8853333333333333
0 0.648 0.5933333333333333 0.34800000000000003 0.6693333333333333
0 0.519 0.6466666666666666 0.254 0.5573333333333333
