5 0.499 0.5026666666666666 0.714 0.6373333333333333
2 0.906 0.5373333333333333 0.064 0.088
2 0.866 0.5373333333333333 0.032 0.09333333333333332
2 0.06 0.5413333333333333 0.116 0.14933333333333332
2 0.127 0.5426666666666666 0.03 0.07733333333333334
0 0.6990000000000001 0.48266666666666663 0.082 0.10666666666666666
