19 0.882 0.11066666666666666 0.036000000000000004 0.072
19 0.4 0.14666666666666667 0.084 0.08
19 0.266 0.16133333333333333 0.064 0.06133333333333333
19 0.354 0.13999999999999999 0.084 0.088
19 0.839 0.5559999999999999 0.322 0.6639999999999999
19 0.294 0.5559999999999999 0.268 0.6426666666666666
19 0.583 0.612 0.37 0.616
19 0.10400000000000001 0.5466666666666666 0.20400000000000001 0.416
