17 0.661 0.6441441441441441 0.226 0.2972972972972973
17 0.277 0.6276276276276276 0.198 0.2222222222222222
19 0.5720000000000001 0.53003003003003 0.048 0.04504504504504504
17 0.922 0.5225225225225225 0.024 0.04204204204204204
