60 0.422 0.5345345345345345 0.84 0.9309309309309309
56 0.869 0.8303303303303303 0.262 0.33933933933933935
56 0.803 0.4024024024024024 0.178 0.3003003003003003
56 0.595 0.1111111111111111 0.182 0.21621621621621623
56 0.394 0.07357357357357357 0.252 0.14114114114114115
56 0.046 0.5675675675675675 0.088 0.4444444444444444
0 0.91 0.4369369369369369 0.18 0.34534534534534533
0 0.793 0.16666666666666666 0.33 0.32732732732732733
