2 0.636 0.527027027027027 0.468 0.48348348348348347
0 0.7000000000000001 0.3933933933933934 0.108 0.12012012012012012
0 0.555 0.3963963963963964 0.10200000000000001 0.10810810810810811
2 0.215 0.6441441441441441 0.134 0.12312312312312312
