0 0.372 0.7613333333333333 0.16 0.47733333333333333
0 0.184 0.736 0.176 0.48
1 0.182 0.8386666666666667 0.32 0.27466666666666667
1 0.257 0.5773333333333334 0.134 0.21066666666666667
0 0.26 0.484 0.12 0.312
0 0.327 0.19866666666666666 0.042 0.07733333333333334
1 0.326 0.22266666666666665 0.068 0.050666666666666665
0 0.221 0.208 0.042 0.08533333333333333
1 0.225 0.22933333333333333 0.078 0.058666666666666666
