60 0.397 0.7220543806646526 0.79 0.5558912386706949
0 0.707 0.6253776435045317 0.318 0.6163141993957704
0 0.424 0.4123867069486405 0.22 0.33534743202416917
39 0.635 0.4244712990936556 0.022 0.14803625377643503
39 0.662 0.41842900302114805 0.028 0.14803625377643503
56 0.34 0.4833836858006042 0.188 0.2598187311178248
