58 0.739 0.07807807807807808 0.162 0.15015015015015015
0 0.756 0.44744744744744747 0.396 0.7447447447447447
0 0.509 0.44894894894894893 0.386 0.6396396396396397
0 0.501 0.6786786786786787 0.998 0.6426426426426426
57 0.502 0.542042042042042 0.996 0.9159159159159159
