14 0.268 0.37866666666666665 0.06 0.16
0 0.669 0.6093333333333333 0.362 0.7813333333333333
0 0.317 0.44666666666666666 0.402 0.6373333333333333
56 0.533 0.768 0.494 0.448
56 0.329 0.7093333333333333 0.35000000000000003 0.5813333333333334
56 0.886 0.636 0.20800000000000002 0.5146666666666666
