60 0.498 0.7906666666666666 0.536 0.41866666666666663
56 0.674 0.8453333333333333 0.3 0.30933333333333335
56 0.711 0.716 0.20600000000000002 0.27999999999999997
56 0.553 0.5866666666666667 0.07 0.08533333333333333
56 0.365 0.8106666666666666 0.242 0.37866666666666665
56 0.28600000000000003 0.768 0.196 0.3893333333333333
56 0.343 0.5573333333333333 0.106 0.08
56 0.082 0.6799999999999999 0.16 0.256
