3 0.496 0.5439999999999999 0.916 0.6986666666666667
1 0.876 0.5293333333333333 0.20800000000000002 0.18933333333333333
2 0.96 0.54 0.08 0.15733333333333333
2 0.892 0.46399999999999997 0.216 0.15466666666666667
