58 0.195 0.46399999999999997 0.266 0.5599999999999999
58 0.53 0.5293333333333333 0.152 0.344
58 0.722 0.45466666666666666 0.224 0.10933333333333332
58 0.724 0.33999999999999997 0.108 0.14133333333333334
58 0.536 0.8906666666666666 0.20400000000000001 0.21866666666666665
0 0.648 0.576 0.22 0.848
0 0.395 0.608 0.262 0.7839999999999999
58 0.812 0.7173333333333333 0.08 0.08533333333333333
