2 0.317 0.5340557275541796 0.626 0.9133126934984521
0 0.81 0.5696594427244582 0.224 0.8606811145510836
2 0.9390000000000001 0.5479876160990712 0.122 0.5201238390092879
0 0.921 0.2693498452012384 0.062 0.061919504643962855
0 0.97 0.26780185758513936 0.04 0.07120743034055728
0 0.984 0.25386996904024767 0.032 0.09287925696594428
