60 0.486 0.7919999999999999 0.864 0.416
0 0.842 0.564 0.316 0.856
0 0.122 0.536 0.212 0.5813333333333334
0 0.557 0.424 0.25 0.39466666666666667
58 0.577 0.044 0.046 0.07733333333333334
58 0.35000000000000003 0.042666666666666665 0.06 0.08
56 0.222 0.30133333333333334 0.08 0.17066666666666666
56 0.259 0.308 0.026000000000000002 0.17866666666666667
0 0.092 0.19866666666666666 0.092 0.09866666666666667
