58 0.06933333333333333 0.038 0.064 0.07200000000000001
60 0.5013333333333333 0.662 0.9973333333333333 0.676
56 0.7613333333333333 0.149 0.19466666666666665 0.274
56 0.3973333333333333 0.074 0.18133333333333332 0.132
60 0.16133333333333333 0.149 0.3173333333333333 0.222
56 0.328 0.038 0.16 0.07200000000000001
