60 0.5740000000000001 0.6306306306306306 0.06 0.1021021021021021
56 0.528 0.6186186186186187 0.06 0.13813813813813813
56 0.61 0.6171171171171171 0.048 0.12312312312312312
56 0.636 0.8018018018018018 0.256 0.3963963963963964
56 0.258 0.7567567567567568 0.256 0.3123123123123123
58 0.094 0.7372372372372372 0.116 0.23123123123123124
