60 0.536 0.8986666666666666 0.8 0.20266666666666666
56 0.492 0.776 0.132 0.15466666666666667
56 0.291 0.824 0.17400000000000002 0.18666666666666665
56 0.9510000000000001 0.9426666666666667 0.098 0.11466666666666667
