56 0.6487603305785125 0.114 0.10192837465564739 0.112
56 0.44077134986225897 0.10200000000000001 0.209366391184573 0.14
56 0.8581267217630855 0.10400000000000001 0.162534435261708 0.116
56 0.19146005509641872 0.111 0.14600550964187328 0.106
56 0.5027548209366391 0.503 0.5261707988980716 0.674
56 0.15289256198347106 0.394 0.29476584022038566 0.256
56 0.12534435261707988 0.253 0.2396694214876033 0.182
