8 0.386 0.7132132132132132 0.17200000000000001 0.23723723723723725
8 0.23700000000000002 0.6186186186186187 0.29 0.12612612612612611
8 0.42 0.3948948948948949 0.148 0.27927927927927926
58 0.20800000000000002 0.3843843843843844 0.096 0.1921921921921922
8 0.405 0.4099099099099099 0.138 0.24324324324324323
