2 0.933 0.48133333333333334 0.07 0.04533333333333333
2 0.929 0.5466666666666666 0.094 0.13333333333333333
5 0.466 0.4746666666666666 0.872 0.608
2 0.02 0.6093333333333333 0.036000000000000004 0.4666666666666667
