2 0.435 0.5650793650793651 0.65 0.5650793650793651
3 0.8170000000000001 0.6349206349206349 0.106 0.19682539682539682
2 0.10300000000000001 0.5936507936507937 0.202 0.3682539682539683
2 0.93 0.5777777777777777 0.14 0.2857142857142857
0 0.614 0.4380952380952381 0.076 0.23492063492063492
0 0.729 0.42857142857142855 0.07 0.21587301587301588
0 0.036000000000000004 0.3761904761904762 0.052000000000000005 0.11746031746031746
0 0.153 0.37142857142857144 0.046 0.0761904761904762
0 0.86 0.42063492063492064 0.068 0.24444444444444444
0 0.896 0.42857142857142855 0.032 0.19047619047619047
0 0.928 0.4095238095238095 0.056 0.18412698412698414
0 0.983 0.37936507936507935 0.034 0.13015873015873017
