57 0.311 0.6310240963855422 0.618 0.6295180722891567
56 0.775 0.4954819277108434 0.25 0.4849397590361446
0 0.717 0.5150602409638555 0.226 0.674698795180723
0 0.447 0.5406626506024097 0.366 0.6536144578313253
0 0.188 0.6174698795180723 0.2 0.7650602409638555
