2 0.9380000000000001 0.636 0.068 0.050666666666666665
2 0.8320000000000001 0.652 0.10400000000000001 0.08266666666666667
5 0.811 0.6053333333333333 0.094 0.13866666666666666
5 0.625 0.6146666666666667 0.28600000000000003 0.248
2 0.38 0.7173333333333333 0.24 0.16
5 0.274 0.6066666666666667 0.44 0.2693333333333333
2 0.9570000000000001 0.6253333333333333 0.058 0.050666666666666665
