3 0.742 0.5826666666666667 0.136 0.12
0 0.61 0.568 0.044 0.15466666666666667
0 0.428 0.6533333333333333 0.092 0.15466666666666667
0 0.5710000000000001 0.5626666666666666 0.038 0.16533333333333333
2 0.422 0.5573333333333333 0.26 0.25066666666666665
