18 0.908 0.5599999999999999 0.184 0.4106666666666667
18 0.5630000000000001 0.592 0.178 0.44266666666666665
18 0.31 0.5586666666666666 0.28800000000000003 0.45066666666666666
18 0.137 0.45866666666666667 0.27 0.37866666666666665
18 0.641 0.40399999999999997 0.17 0.19999999999999998
