60 0.27199999999999996 0.394 0.512 0.184
56 0.6986666666666667 0.368 0.12266666666666666 0.148
56 0.19466666666666665 0.417 0.16533333333333333 0.182
56 0.34933333333333333 0.41600000000000004 0.13333333333333333 0.18
56 0.504 0.386 0.14933333333333332 0.184
56 0.06933333333333333 0.398 0.13333333333333333 0.168
57 0.36666666666666664 0.86 0.728 0.28
62 0.82 0.377 0.12 0.162
0 0.27999999999999997 0.181 0.08533333333333333 0.054
