60 0.497 0.8033033033033034 0.434 0.3933933933933934
56 0.374 0.8768768768768769 0.276 0.24624624624624625
56 0.9410000000000001 0.8933933933933934 0.11800000000000001 0.2132132132132132
56 0.914 0.7177177177177178 0.056 0.24024024024024024
39 0.524 0.6036036036036035 0.036000000000000004 0.1921921921921922
0 0.643 0.37537537537537535 0.398 0.5525525525525525
62 0.523 0.4099099099099099 0.158 0.16516516516516516
0 0.736 0.6906906906906907 0.324 0.6186186186186187
0 0.199 0.5885885885885885 0.294 0.8228228228228228
0 0.36 0.49399399399399396 0.188 0.34534534534534533
39 0.468 0.5615615615615616 0.036000000000000004 0.08408408408408408
56 0.036000000000000004 0.7357357357357357 0.052000000000000005 0.3123123123123123
