17 0.78 0.6386666666666666 0.212 0.7226666666666667
17 0.9 0.48133333333333334 0.112 0.27999999999999997
17 0.503 0.6386666666666666 0.406 0.7226666666666667
17 0.27 0.6386666666666666 0.216 0.7226666666666667
17 0.541 0.3733333333333333 0.182 0.21866666666666665
17 0.133 0.6866666666666666 0.262 0.5306666666666666
17 0.9410000000000001 0.7106666666666667 0.11800000000000001 0.5733333333333334
