3 0.36651583710407243 0.44 0.579185520361991 0.424
3 0.6798642533936652 0.42 0.41855203619909503 0.336
0 0.5045248868778281 0.28500000000000003 0.3212669683257919 0.294
0 0.29298642533936653 0.281 0.3461538461538462 0.422
0 0.4898190045248869 0.871 0.30995475113122173 0.258
0 0.11877828054298643 0.886 0.23303167420814483 0.228
0 0.7782805429864255 0.805 0.05429864253393665 0.106
