56 0.5226666666666666 0.685 0.5706666666666667 0.582
56 0.17066666666666666 0.552 0.33599999999999997 0.42
56 0.4613333333333333 0.428 0.24533333333333332 0.232
56 0.4106666666666667 0.387 0.18666666666666665 0.182
60 0.21066666666666667 0.424 0.4053333333333333 0.28
