0 0.6126126126126126 0.807 0.25825825825825827 0.258
56 0.21921921921921922 0.86 0.23423423423423423 0.22
56 0.5405405405405406 0.837 0.2042042042042042 0.162
56 0.3813813813813814 0.866 0.26426426426426425 0.164
56 0.1021021021021021 0.88 0.1981981981981982 0.24
