0 0.075 0.3888888888888889 0.14444444444444446 0.5555555555555556
0 0.225 0.5222222222222223 0.4444444444444445 0.48888888888888893
0 0.5055555555555555 0.6555555555555556 0.49444444444444446 0.6888888888888889
0 0.7958333333333334 0.6148148148148148 0.4083333333333333 0.7703703703703704
60 0.23472222222222222 0.8740740740740741 0.4638888888888889 0.2518518518518519
