18 0.65 0.6990291262135923 0.17200000000000001 0.22006472491909387
18 0.268 0.551779935275081 0.256 0.37216828478964403
18 0.522 0.5566343042071198 0.164 0.39482200647249194
18 0.5 0.5161812297734628 0.256 0.3268608414239482
18 0.683 0.5857605177993528 0.154 0.3754045307443366
