0 0.049 0.47866666666666663 0.094 0.584
0 0.167 0.39599999999999996 0.258 0.5573333333333333
0 0.509 0.43866666666666665 0.246 0.8186666666666667
0 0.445 0.4693333333333333 0.258 0.3413333333333333
0 0.921 0.204 0.158 0.23199999999999998
0 0.924 0.31066666666666665 0.152 0.568
0 0.77 0.44266666666666665 0.252 0.592
0 0.662 0.7226666666666667 0.392 0.5546666666666666
0 0.926 0.5519999999999999 0.148 0.896
60 0.305 0.8079999999999999 0.606 0.384
