56 0.629 0.24 0.098 0.192
56 0.49 0.496 0.24 0.6506666666666666
56 0.039 0.5053333333333333 0.074 0.408
56 0.20500000000000002 0.576 0.334 0.7626666666666666
56 0.59 0.5786666666666667 0.316 0.7306666666666667
56 0.834 0.5 0.216 0.6426666666666666
60 0.541 0.612 0.854 0.568
