17 0.312 0.5522875816993464 0.124 0.07189542483660132
17 0.227 0.6830065359477124 0.23 0.17647058823529413
17 0.598 0.6813725490196079 0.084 0.14705882352941177
17 0.726 0.5375816993464052 0.076 0.06209150326797386
17 0.6960000000000001 0.6617647058823529 0.04 0.12745098039215685
17 0.761 0.6290849673202614 0.154 0.14705882352941177
