56 0.9173333333333333 0.176 0.13866666666666666 0.168
56 0.11066666666666666 0.18 0.14133333333333334 0.18
56 0.04666666666666666 0.298 0.088 0.232
56 0.52 0.833 0.832 0.334
56 0.504 0.066 0.25066666666666665 0.048
60 0.5013333333333333 0.365 0.9973333333333333 0.558
