62 0.751 0.4373333333333333 0.11800000000000001 0.144
62 0.851 0.47333333333333333 0.098 0.16799999999999998
56 0.8160000000000001 0.7973333333333333 0.252 0.4053333333333333
56 0.923 0.7893333333333333 0.154 0.42133333333333334
