2 0.915 0.042666666666666665 0.14200000000000002 0.064
2 0.645 0.08133333333333333 0.226 0.15733333333333333
2 0.467 0.31466666666666665 0.606 0.624
0 0.617 0.472 0.258 0.5653333333333334
1 0.632 0.712 0.596 0.528
