2 0.76 0.7147147147147147 0.056 0.04204204204204204
2 0.8140000000000001 0.6966966966966966 0.016 0.07207207207207207
2 0.133 0.7837837837837838 0.262 0.43243243243243246
6 0.34600000000000003 0.5285285285285285 0.6880000000000001 0.5165165165165165
