62 0.161 0.7346666666666667 0.318 0.5306666666666666
0 0.491 0.536 0.434 0.6933333333333334
39 0.582 0.868 0.076 0.264
39 0.772 0.7386666666666667 0.06 0.27199999999999996
39 0.986 0.8626666666666667 0.028 0.27466666666666667
0 0.899 0.6719999999999999 0.202 0.384
