5 0.403 0.44157608695652173 0.766 0.6440217391304348
2 0.054 0.6100543478260869 0.10400000000000001 0.25815217391304346
0 0.863 0.5652173913043478 0.054 0.21195652173913043
0 0.974 0.5434782608695652 0.052000000000000005 0.20108695652173914
0 0.935 0.5652173913043478 0.038 0.15760869565217392
0 0.897 0.5366847826086957 0.054 0.23097826086956522
