6 0.402 0.5179640718562875 0.636 0.2694610778443114
0 0.6930000000000001 0.5763473053892216 0.042 0.09880239520958084
0 0.889 0.5404191616766467 0.046 0.08083832335329341
0 0.166 0.655688622754491 0.068 0.09580838323353294
