5 0.447 0.5519999999999999 0.786 0.5493333333333333
0 0.202 0.5013333333333333 0.044 0.058666666666666666
0 0.253 0.504 0.042 0.06933333333333333
0 0.297 0.5013333333333333 0.034 0.058666666666666666
0 0.34500000000000003 0.48933333333333334 0.038 0.072
0 0.40900000000000003 0.492 0.042 0.056
0 0.534 0.49066666666666664 0.076 0.17066666666666666
