0 0.482 0.08492822966507177 0.3 0.16507177033492823
18 0.268 0.5095693779904306 0.252 0.8181818181818181
18 0.436 0.4832535885167464 0.252 0.8181818181818181
18 0.7020000000000001 0.4593301435406698 0.428 0.6411483253588517
