4 0.8395953757225433 0.9480000000000001 0.3208092485549133 0.10400000000000001
0 0.4580924855491329 0.512 0.06647398843930635 0.116
0 0.3540462427745665 0.528 0.0722543352601156 0.14
0 0.23265895953757224 0.532 0.0722543352601156 0.16
