60 0.504 0.5893333333333333 0.596 0.8213333333333334
56 0.792 0.632 0.36 0.6026666666666667
56 0.229 0.6546666666666666 0.342 0.5786666666666667
56 0.731 0.472 0.266 0.48
56 0.733 0.268 0.122 0.22666666666666666
56 0.193 0.38 0.154 0.2693333333333333
56 0.229 0.2786666666666667 0.134 0.22666666666666666
56 0.056 0.16266666666666665 0.108 0.21333333333333332
56 0.10200000000000001 0.11466666666666667 0.07200000000000001 0.17066666666666666
