17 0.6880000000000001 0.5609756097560976 0.54 0.7073170731707318
0 0.682 0.30335365853658536 0.196 0.3384146341463415
17 0.343 0.6189024390243902 0.262 0.5914634146341463
0 0.17 0.3307926829268293 0.168 0.32621951219512196
17 0.061 0.5442073170731707 0.11800000000000001 0.6859756097560976
0 0.276 0.3094512195121951 0.14 0.21646341463414634
