62 0.048 0.4453333333333333 0.04 0.06933333333333333
62 0.137 0.44 0.054 0.06933333333333333
56 0.161 0.5653333333333334 0.094 0.17066666666666666
56 0.27 0.5373333333333333 0.084 0.14666666666666667
0 0.23700000000000002 0.43066666666666664 0.046 0.09333333333333332
0 0.267 0.45466666666666666 0.082 0.13599999999999998
0 0.386 0.4453333333333333 0.1 0.096
0 0.391 0.5559999999999999 0.11 0.264
56 0.38 0.632 0.108 0.224
62 0.5650000000000001 0.47333333333333333 0.066 0.07733333333333334
62 0.506 0.46399999999999997 0.032 0.08533333333333333
62 0.721 0.47333333333333333 0.078 0.09333333333333332
0 0.746 0.5973333333333333 0.14400000000000002 0.3253333333333333
56 0.796 0.6906666666666667 0.152 0.31466666666666665
0 0.885 0.5653333333333334 0.134 0.3253333333333333
56 0.932 0.6253333333333333 0.108 0.22666666666666666
0 0.771 0.416 0.046 0.06933333333333333
0 0.14300000000000002 0.49866666666666665 0.058 0.19733333333333333
