6 0.221 0.5013333333333333 0.438 0.9973333333333333
0 0.166 0.508 0.048 0.13599999999999998
0 0.166 0.388 0.048 0.15733333333333333
0 0.188 0.27199999999999996 0.036000000000000004 0.128
0 0.212 0.288 0.016 0.06933333333333333
