56 0.37866666666666665 0.628 0.35733333333333334 0.372
56 0.6973333333333334 0.599 0.36 0.34600000000000003
56 0.6799999999999999 0.53 0.21333333333333332 0.256
56 0.412 0.5670000000000001 0.2906666666666667 0.306
60 0.5253333333333333 0.621 0.6026666666666667 0.378
