1 0.424 0.6597938144329897 0.8200000000000001 0.6288659793814433
0 0.468 0.4768041237113402 0.296 0.8969072164948454
1 0.732 0.5489690721649484 0.356 0.34536082474226804
0 0.78 0.4304123711340206 0.168 0.5463917525773195
