0 0.726 0.70578231292517 0.096 0.26870748299319724
3 0.722 0.8163265306122449 0.06 0.16326530612244897
2 0.58 0.6207482993197279 0.16 0.17346938775510204
3 0.669 0.6343537414965986 0.038 0.11224489795918367
0 0.279 0.5612244897959183 0.03 0.07482993197278912
0 0.169 0.5238095238095238 0.03 0.08163265306122448
3 0.17300000000000001 0.5561224489795918 0.034 0.04421768707482993
3 0.277 0.576530612244898 0.042 0.05102040816326531
