60 0.487 0.5466666666666666 0.8180000000000001 0.9066666666666666
56 0.185 0.576 0.218 0.6826666666666666
56 0.584 0.748 0.42 0.504
56 0.8190000000000001 0.6626666666666666 0.362 0.6693333333333333
56 0.33 0.12 0.2 0.08
