56 0.749 0.66 0.318 0.52
56 0.4 0.6346666666666666 0.3 0.5226666666666666
56 0.135 0.5906666666666667 0.266 0.45599999999999996
56 0.889 0.648 0.222 0.42666666666666664
39 0.28 0.32666666666666666 0.044 0.16799999999999998
39 0.607 0.2613333333333333 0.026000000000000002 0.11733333333333333
60 0.522 0.612 0.9560000000000001 0.44
