3 0.482 0.5930930930930931 0.332 0.23723723723723725
17 0.492 0.506006006006006 0.032 0.04504504504504504
17 0.582 0.5135135135135135 0.036000000000000004 0.04204204204204204
17 0.639 0.5165165165165165 0.022 0.04804804804804805
3 0.973 0.6051051051051051 0.054 0.17717717717717718
