62 0.134 0.40399999999999997 0.20800000000000002 0.216
56 0.47100000000000003 0.6986666666666667 0.33 0.6026666666666667
56 0.781 0.6653333333333333 0.306 0.6266666666666666
56 0.587 0.36933333333333335 0.138 0.15733333333333333
56 0.305 0.572 0.278 0.5093333333333333
60 0.526 0.72 0.496 0.5599999999999999
