62 0.6 0.412 0.332 0.376
62 0.255 0.4026666666666667 0.366 0.4106666666666667
39 0.661 0.696 0.162 0.10133333333333333
0 0.537 0.48533333333333334 0.046 0.08
0 0.20400000000000001 0.5 0.052000000000000005 0.07733333333333334
