3 0.778 0.694006309148265 0.444 0.5993690851735015
0 0.558 0.5331230283911672 0.192 0.8391167192429022
0 0.294 0.5205047318611987 0.276 0.8264984227129337
3 0.24 0.7082018927444794 0.432 0.5520504731861199
