5 0.546 0.52 0.484 0.3893333333333333
2 0.043000000000000003 0.8466666666666667 0.082 0.248
2 0.10300000000000001 0.6253333333333333 0.202 0.2533333333333333
2 0.098 0.5373333333333333 0.192 0.15733333333333333
2 0.214 0.4973333333333333 0.052000000000000005 0.04533333333333333
