3 0.3787425149700599 0.598 0.751497005988024 0.804
0 0.6646706586826348 0.54 0.46107784431137727 0.92
2 0.9071856287425151 0.648 0.18562874251497008 0.316
2 0.06137724550898204 0.641 0.11676646706586827 0.246
