8 0.467 0.4234104046242774 0.834 0.8410404624277457
0 0.546 0.6632947976878613 0.032 0.0838150289017341
8 0.057 0.4552023121387283 0.062 0.026011560693641616
8 0.101 0.45231213872832365 0.034 0.026011560693641616
8 0.634 0.46965317919075145 0.10400000000000001 0.03757225433526011
8 0.493 0.4595375722543352 0.14200000000000002 0.05202312138728323
