18 0.553 0.12533333333333332 0.09 0.20266666666666666
18 0.6940000000000001 0.132 0.20800000000000002 0.22133333333333333
18 0.8150000000000001 0.24133333333333332 0.166 0.18933333333333333
18 0.5750000000000001 0.6759999999999999 0.294 0.35466666666666663
18 0.483 0.7013333333333334 0.122 0.32
18 0.331 0.7026666666666667 0.226 0.41333333333333333
18 0.15 0.6719999999999999 0.252 0.32
