1 0.503 0.4734848484848485 0.99 0.941919191919192
2 0.92 0.25883838383838387 0.16 0.22474747474747478
2 0.9550000000000001 0.1287878787878788 0.09 0.12121212121212122
2 0.708 0.19065656565656566 0.196 0.10353535353535355
2 0.577 0.1830808080808081 0.134 0.08333333333333334
2 0.41500000000000004 0.18686868686868688 0.066 0.05555555555555556
2 0.34 0.21717171717171718 0.164 0.12626262626262627
