8 0.34900000000000003 0.5413333333333333 0.53 0.32
0 0.2 0.52 0.028 0.042666666666666665
0 0.183 0.5266666666666666 0.026000000000000002 0.034666666666666665
0 0.306 0.5106666666666666 0.052000000000000005 0.06133333333333333
0 0.358 0.524 0.04 0.034666666666666665
0 0.435 0.5226666666666666 0.03 0.032
0 0.512 0.516 0.028 0.034666666666666665
