62 0.171 0.488 0.31 0.384
62 0.493 0.5386666666666666 0.358 0.46399999999999997
62 0.41500000000000004 0.052 0.226 0.09866666666666667
57 0.864 0.24666666666666665 0.272 0.30133333333333334
0 0.266 0.424 0.02 0.05333333333333333
0 0.253 0.42933333333333334 0.03 0.05333333333333333
56 0.116 0.25866666666666666 0.228 0.18133333333333332
