0 0.112 0.8253333333333333 0.22 0.34933333333333333
0 0.296 0.6666666666666666 0.168 0.6666666666666666
0 0.46900000000000003 0.6586666666666666 0.178 0.6826666666666666
0 0.64 0.6613333333333333 0.20400000000000001 0.6773333333333333
56 0.903 0.8786666666666666 0.194 0.24266666666666667
56 0.713 0.8773333333333333 0.106 0.24533333333333332
60 0.719 0.772 0.386 0.20533333333333334
