1 0.28200000000000003 0.596096096096096 0.56 0.6876876876876877
1 0.25 0.5375375375375375 0.484 0.4984984984984985
1 0.6960000000000001 0.5285285285285285 0.336 0.5885885885885885
1 0.802 0.5105105105105106 0.396 0.4744744744744745
0 0.936 0.35435435435435436 0.124 0.1921921921921922
