0 0.5425764192139738 0.47500000000000003 0.5480349344978166 0.862
1 0.5021834061135371 0.685 0.9344978165938864 0.554
2 0.9093886462882096 0.32 0.18122270742358076 0.064
2 0.3864628820960698 0.325 0.18777292576419213 0.062
