57 0.859 0.4026666666666667 0.28200000000000003 0.176
56 0.059000000000000004 0.58 0.114 0.09333333333333332
56 0.127 0.7986666666666666 0.25 0.4026666666666667
57 0.507 0.608 0.966 0.496
56 0.8240000000000001 0.9213333333333333 0.3 0.15733333333333333
