57 0.30271084337349397 0.883 0.5993975903614458 0.234
0 0.26957831325301207 0.634 0.533132530120482 0.52
0 0.8463855421686748 0.499 0.3072289156626506 0.81
0 0.1957831325301205 0.404 0.3855421686746988 0.232
0 0.2846385542168675 0.229 0.3885542168674699 0.454
0 0.5602409638554218 0.193 0.21686746987951808 0.382
0 0.6927710843373495 0.15 0.24698795180722893 0.296
