14 0.497 0.33199999999999996 0.19 0.184
14 0.176 0.9359999999999999 0.076 0.128
8 0.9560000000000001 0.6253333333333333 0.088 0.088
8 0.858 0.6333333333333333 0.17200000000000001 0.08266666666666667
8 0.747 0.6346666666666666 0.078 0.08
