2 0.155 0.47733333333333333 0.114 0.064
2 0.9480000000000001 0.4973333333333333 0.032 0.06666666666666667
5 0.889 0.49466666666666664 0.09 0.17866666666666667
5 0.529 0.5146666666666666 0.65 0.5599999999999999
2 0.07 0.48133333333333334 0.048 0.050666666666666665
