60 0.584 0.6676646706586826 0.8320000000000001 0.6646706586826348
56 0.202 0.7245508982035929 0.17200000000000001 0.5508982035928144
56 0.151 0.655688622754491 0.13 0.688622754491018
56 0.89 0.937125748502994 0.22 0.125748502994012
56 0.916 0.5449101796407186 0.168 0.38922155688622756
56 0.767 0.40868263473053895 0.17400000000000002 0.3203592814371258
56 0.342 0.24251497005988026 0.2 0.30538922155688625
