0 0.081 0.5866666666666667 0.158 0.3466666666666667
0 0.295 0.42 0.306 0.504
0 0.61 0.42 0.352 0.5306666666666666
0 0.937 0.5546666666666666 0.126 0.5866666666666667
60 0.501 0.8213333333333334 0.998 0.35733333333333334
