0 0.199 0.6373333333333333 0.122 0.5333333333333333
0 0.444 0.5213333333333333 0.096 0.328
2 0.6910000000000001 0.6813333333333333 0.462 0.47733333333333333
1 0.531 0.8133333333333334 0.558 0.3733333333333333
