57 0.289 0.5737179487179487 0.546 0.5705128205128205
56 0.812 0.8189102564102564 0.376 0.36217948717948717
56 0.911 0.5368589743589743 0.178 0.34294871794871795
58 0.859 0.2724358974358974 0.046 0.08333333333333333
57 0.302 0.375 0.228 0.20512820512820512
