57 0.6809623430962343 0.5640000000000001 0.4539748953974895 0.32
57 0.1715481171548117 0.908 0.3389121338912134 0.184
60 0.2635983263598326 0.538 0.21757322175732216 0.224
56 0.40899581589958156 0.525 0.14016736401673638 0.258
56 0.19351464435146443 0.534 0.202928870292887 0.244
56 0.29811715481171547 0.495 0.13598326359832635 0.23
56 0.18305439330543932 0.502 0.17364016736401672 0.232
