56 0.08 0.515015015015015 0.156 0.3933933933933934
56 0.251 0.521021021021021 0.214 0.40540540540540543
56 0.446 0.5165165165165165 0.196 0.4084084084084084
56 0.796 0.5195195195195195 0.20800000000000002 0.4084084084084084
56 0.9520000000000001 0.5105105105105106 0.096 0.4144144144144144
