19 0.078 0.736 0.152 0.45866666666666667
19 0.482 0.74 0.112 0.12
19 0.713 0.5946666666666667 0.27 0.16533333333333333
19 0.842 0.6799999999999999 0.316 0.18666666666666665
19 0.616 0.7133333333333333 0.268 0.216
19 0.738 0.752 0.168 0.10133333333333333
