2 0.501 0.5946666666666667 0.998 0.5813333333333334
2 0.096 0.37866666666666665 0.184 0.24533333333333332
62 0.278 0.19333333333333333 0.1 0.09866666666666667
62 0.127 0.19733333333333333 0.106 0.09066666666666666
