3 0.517 0.551051051051051 0.47000000000000003 0.6096096096096096
16 0.521 0.31681681681681684 0.08600000000000001 0.3153153153153153
0 0.528 0.37987987987987987 0.24 0.6936936936936937
2 0.801 0.2972972972972973 0.398 0.39039039039039036
