8 0.5629453681710214 0.496 0.7458432304038005 0.836
8 0.2517814726840855 0.684 0.37054631828978624 0.428
0 0.503562945368171 0.8180000000000001 0.0332541567695962 0.084
0 0.7743467933491687 0.849 0.0332541567695962 0.046
0 0.838479809976247 0.85 0.0332541567695962 0.056
