56 0.3982142857142857 0.59 0.225 0.052000000000000005
56 0.7160714285714286 0.624 0.075 0.068
56 0.7482142857142857 0.672 0.060714285714285714 0.092
56 0.23392857142857143 0.847 0.4464285714285714 0.162
39 0.6071428571428571 0.6980000000000001 0.09285714285714286 0.192
39 0.07678571428571428 0.6900000000000001 0.11785714285714285 0.164
60 0.3964285714285714 0.751 0.7857142857142857 0.274
