0 0.867 0.4613333333333333 0.266 0.33066666666666666
0 0.655 0.436 0.078 0.30666666666666664
0 0.253 0.572 0.342 0.6586666666666666
0 0.52 0.4093333333333333 0.056 0.264
0 0.456 0.30533333333333335 0.036000000000000004 0.072
0 0.406 0.3133333333333333 0.052000000000000005 0.104
3 0.23700000000000002 0.6786666666666666 0.374 0.6426666666666666
3 0.871 0.52 0.258 0.416
3 0.633 0.47733333333333333 0.214 0.26666666666666666
3 0.488 0.42666666666666664 0.152 0.21866666666666665
