0 0.5015974440894568 0.533 0.9968051118210862 0.934
39 0.8003194888178914 0.34800000000000003 0.16293929712460065 0.392
39 0.07507987220447285 0.152 0.07348242811501597 0.092
39 0.11022364217252395 0.158 0.0670926517571885 0.092
39 0.14536741214057508 0.161 0.054313099041533544 0.10200000000000001
