17 0.593 0.6321989528795812 0.442 0.5314136125654451
17 0.28300000000000003 0.6387434554973822 0.354 0.47643979057591623
17 0.467 0.5026178010471205 0.678 0.7539267015706806
2 0.265 0.4175392670157068 0.526 0.6989528795811518
0 0.787 0.44371727748691103 0.23800000000000002 0.7460732984293195
0 0.552 0.4973821989528796 0.156 0.712041884816754
