5 0.525 0.42266666666666663 0.734 0.6266666666666666
5 0.924 0.372 0.096 0.296
2 0.128 0.38 0.092 0.06666666666666667
2 0.042 0.38666666666666666 0.08 0.064
0 0.08600000000000001 0.47866666666666663 0.032 0.15733333333333333
0 0.029 0.4573333333333333 0.034 0.152
0 0.056 0.484 0.032 0.152
2 0.232 0.372 0.084 0.056
