15 0.516 0.7106666666666667 0.364 0.32266666666666666
58 0.5730000000000001 0.33866666666666667 0.422 0.6719999999999999
58 0.9540000000000001 0.32666666666666666 0.092 0.648
58 0.275 0.2533333333333333 0.358 0.5013333333333333
58 0.051000000000000004 0.25866666666666666 0.098 0.512
