3 0.42666666666666664 0.648 0.816 0.616
0 0.576 0.34500000000000003 0.3733333333333333 0.35000000000000003
0 0.9053333333333333 0.452 0.08266666666666667 0.17200000000000001
0 0.8093333333333333 0.438 0.09866666666666667 0.14
3 0.9359999999999999 0.612 0.128 0.148
3 0.072 0.468 0.13866666666666666 0.14
