56 0.2132132132132132 0.37 0.04204204204204204 0.044
56 0.06006006006006006 0.369 0.04804804804804805 0.038
60 0.5015015015015015 0.86 0.996996996996997 0.28
0 0.4159159159159159 0.454 0.7477477477477478 0.628
