0 0.246 0.44728915662650603 0.40800000000000003 0.75
0 0.17500000000000002 0.7771084337349398 0.342 0.44578313253012053
56 0.41600000000000004 0.8283132530120483 0.224 0.3433734939759036
56 0.677 0.9156626506024097 0.13 0.16867469879518074
0 0.871 0.8870481927710844 0.154 0.22590361445783133
0 0.806 0.3704819277108434 0.24 0.45180722891566266
56 0.935 0.375 0.13 0.23795180722891568
0 0.788 0.5632530120481928 0.424 0.49397590361445787
