60 0.5013333333333333 0.726 0.9973333333333333 0.548
0 0.10533333333333333 0.17400000000000002 0.17866666666666667 0.34400000000000003
0 0.8466666666666667 0.097 0.18933333333333333 0.19
0 0.9373333333333334 0.361 0.12533333333333332 0.714
2 0.492 0.275 0.9146666666666666 0.47000000000000003
39 0.732 0.547 0.376 0.906
