60 0.48 0.78 0.652 0.41866666666666663
0 0.133 0.6346666666666666 0.254 0.7306666666666667
0 0.279 0.4706666666666667 0.23800000000000002 0.4613333333333333
0 0.8150000000000001 0.6573333333333333 0.37 0.6853333333333333
0 0.712 0.5786666666666667 0.192 0.416
39 0.437 0.5733333333333334 0.054 0.13333333333333333
39 0.47300000000000003 0.5546666666666666 0.03 0.128
39 0.41600000000000004 0.5506666666666666 0.02 0.14133333333333334
39 0.443 0.484 0.022 0.034666666666666665
39 0.424 0.48533333333333334 0.024 0.03733333333333333
