56 0.716 0.7053333333333333 0.152 0.27466666666666667
56 0.561 0.6733333333333333 0.13 0.27466666666666667
60 0.681 0.6773333333333333 0.354 0.2613333333333333
57 0.525 0.608 0.338 0.26666666666666666
