0 0.568 0.41500000000000004 0.416 0.8140000000000001
56 0.584 0.787 0.4373333333333333 0.426
56 0.13866666666666666 0.79 0.27199999999999996 0.328
56 0.5986666666666667 0.751 0.25866666666666666 0.274
