3 0.528 0.5093333333333333 0.9440000000000001 0.6719999999999999
0 0.9580000000000001 0.36666666666666664 0.084 0.43466666666666665
0 0.889 0.3893333333333333 0.05 0.16
0 0.057 0.36533333333333334 0.11 0.19733333333333333
