3 0.545 0.4955089820359282 0.862 0.781437125748503
0 0.719 0.18862275449101798 0.154 0.37125748502994016
3 0.212 0.19011976047904192 0.42 0.36826347305389223
1 0.925 0.07335329341317366 0.15 0.1407185628742515
