39 0.5524691358024691 0.8515815085158152 0.12345679012345678 0.29683698296836986
0 0.45987654320987653 0.551094890510949 0.9074074074074073 0.8978102189781022
56 0.1280864197530864 0.6776155717761557 0.24382716049382713 0.44525547445255476
