0 0.5453333333333333 0.578 0.04 0.04
0 0.4013333333333333 0.615 0.072 0.062
8 0.5466666666666666 0.681 0.17066666666666666 0.054
8 0.632 0.727 0.4106666666666667 0.126
8 0.6799999999999999 0.676 0.10666666666666666 0.052000000000000005
8 0.2826666666666667 0.969 0.20266666666666666 0.062
8 0.9253333333333333 0.6930000000000001 0.14933333333333332 0.066
8 0.8253333333333333 0.6970000000000001 0.19999999999999998 0.094
