56 0.769 0.7773333333333333 0.266 0.3973333333333333
56 0.531 0.6186666666666667 0.054 0.176
56 0.523 0.6213333333333333 0.122 0.22933333333333333
56 0.326 0.5386666666666666 0.084 0.048
57 0.34600000000000003 0.7773333333333333 0.44 0.4453333333333333
56 0.23500000000000001 0.5106666666666666 0.066 0.12
