5 0.397 0.3853333333333333 0.674 0.5626666666666666
5 0.8160000000000001 0.3453333333333333 0.17200000000000001 0.22666666666666666
5 0.9460000000000001 0.3293333333333333 0.096 0.14133333333333334
0 0.975 0.376 0.03 0.096
