0 0.192 0.7440318302387268 0.07200000000000001 0.21485411140583555
0 0.258 0.6538461538461539 0.02 0.04509283819628647
2 0.92 0.8249336870026525 0.16 0.28116710875331563
5 0.535 0.603448275862069 0.402 0.33687002652519893
