56 0.5135135135135135 0.665 0.37237237237237236 0.45
60 0.5075075075075075 0.666 0.7207207207207207 0.356
56 0.7987987987987988 0.628 0.1021021021021021 0.372
56 0.1981981981981982 0.629 0.14414414414414414 0.374
56 0.23723723723723725 0.47400000000000003 0.07807807807807808 0.064
