39 0.376 0.7147147147147147 0.088 0.4744744744744745
39 0.267 0.5525525525525525 0.042 0.24624624624624625
0 0.761 0.5915915915915916 0.47800000000000004 0.8168168168168168
0 0.589 0.503003003003003 0.25 0.47147147147147145
0 0.14200000000000002 0.5525525525525525 0.276 0.8948948948948949
60 0.377 0.8438438438438438 0.582 0.3123123123123123
60 0.247 0.6276276276276276 0.19 0.16816816816816815
0 0.445 0.47597597597597596 0.154 0.44744744744744747
39 0.34500000000000003 0.6876876876876877 0.038 0.42042042042042044
