8 0.74 0.5293333333333333 0.084 0.018666666666666665
0 0.516 0.5066666666666666 0.036000000000000004 0.064
0 0.5700000000000001 0.516 0.036000000000000004 0.056
0 0.809 0.512 0.074 0.11733333333333333
8 0.5 0.5013333333333333 0.996 0.9973333333333333
