4 0.512 0.5259938837920489 0.924 0.3241590214067278
4 0.9530000000000001 0.43883792048929665 0.08600000000000001 0.045871559633027525
4 0.757 0.4602446483180428 0.08600000000000001 0.06422018348623854
4 0.083 0.48623853211009177 0.162 0.1162079510703364
