0 0.839 0.49866666666666665 0.13 0.31466666666666665
0 0.75 0.48266666666666663 0.14400000000000002 0.5333333333333333
0 0.598 0.41733333333333333 0.04 0.088
0 0.34400000000000003 0.3253333333333333 0.184 0.224
0 0.182 0.604 0.324 0.7653333333333333
8 0.502 0.5013333333333333 0.996 0.9973333333333333
