57 0.35100000000000003 0.7435897435897436 0.6980000000000001 0.5128205128205128
0 0.361 0.6515151515151515 0.614 0.696969696969697
57 0.9510000000000001 0.782051282051282 0.098 0.4358974358974359
58 0.766 0.5710955710955711 0.10400000000000001 0.46153846153846156
