8 0.865 0.6933797909407665 0.23800000000000002 0.06968641114982578
8 0.548 0.5888501742160279 0.372 0.2787456445993031
8 0.627 0.4372822299651568 0.154 0.156794425087108
8 0.22 0.6445993031358885 0.36 0.20209059233449478
0 0.808 0.6219512195121951 0.04 0.12195121951219512
0 0.259 0.5993031358885017 0.046 0.10452961672473868
0 0.17500000000000002 0.5940766550522648 0.046 0.11498257839721254
8 0.075 0.49825783972125437 0.082 0.041811846689895474
