0 0.5093333333333333 0.527 0.42133333333333334 0.45
60 0.5013333333333333 0.8160000000000001 0.9973333333333333 0.368
39 0.20533333333333334 0.6960000000000001 0.224 0.608
39 0.44 0.677 0.18133333333333332 0.534
39 0.58 0.7020000000000001 0.12 0.28800000000000003
