57 0.872 0.7879999999999999 0.256 0.424
58 0.551 0.6053333333333333 0.11800000000000001 0.112
58 0.577 0.3893333333333333 0.122 0.18666666666666665
58 0.91 0.49866666666666665 0.112 0.11733333333333333
58 0.733 0.48 0.05 0.08
58 0.8170000000000001 0.384 0.114 0.128
