19 0.798 0.732 0.404 0.45599999999999996
19 0.511 0.6839999999999999 0.306 0.3173333333333333
19 0.447 0.6973333333333334 0.454 0.39199999999999996
19 0.231 0.7226666666666667 0.33 0.29866666666666664
19 0.18 0.6146666666666667 0.14400000000000002 0.12
19 0.07100000000000001 0.7146666666666667 0.094 0.224
19 0.015 0.7013333333333334 0.026000000000000002 0.224
