14 0.252 0.35435435435435436 0.132 0.18018018018018017
14 0.467 0.4039039039039039 0.114 0.19519519519519518
14 0.40900000000000003 0.47147147147147145 0.146 0.3843843843843844
14 0.359 0.6876876876876877 0.074 0.18018018018018017
14 0.525 0.8303303303303303 0.126 0.2132132132132132
14 0.8300000000000001 0.7672672672672672 0.14 0.21921921921921922
14 0.884 0.6306306306306306 0.2 0.17417417417417416
