2 0.8290000000000001 0.5973333333333333 0.14200000000000002 0.16533333333333333
2 0.9380000000000001 0.644 0.124 0.15733333333333333
2 0.19 0.48266666666666663 0.04 0.05333333333333333
2 0.154 0.476 0.044 0.04533333333333333
5 0.48 0.48933333333333334 0.56 0.39199999999999996
