56 0.10400000000000001 0.7813333333333333 0.20400000000000001 0.4373333333333333
56 0.23600000000000002 0.7613333333333333 0.156 0.47733333333333333
56 0.456 0.736 0.188 0.432
56 0.615 0.7053333333333333 0.23 0.3173333333333333
56 0.636 0.8119999999999999 0.276 0.376
56 0.424 0.864 0.272 0.27199999999999996
60 0.317 0.7946666666666666 0.63 0.3413333333333333
