0 0.242 0.6213333333333333 0.064 0.24
0 0.388 0.7133333333333333 0.076 0.184
0 0.421 0.5906666666666667 0.058 0.22133333333333333
0 0.45 0.5986666666666667 0.052000000000000005 0.22133333333333333
0 0.506 0.5986666666666667 0.052000000000000005 0.184
0 0.557 0.5866666666666667 0.054 0.192
0 0.617 0.5813333333333334 0.054 0.19733333333333333
0 0.685 0.568 0.058 0.20266666666666666
0 0.738 0.5519999999999999 0.04 0.18666666666666665
1 0.835 0.856 0.158 0.112
1 0.878 0.7826666666666666 0.112 0.11466666666666667
