0 0.7386666666666667 0.065 0.11733333333333333 0.126
0 0.4746666666666666 0.324 0.3466666666666667 0.644
3 0.7573333333333333 0.5750000000000001 0.416 0.634
1 0.7386666666666667 0.097 0.21333333333333332 0.09
3 0.476 0.216 0.44 0.192
1 0.6093333333333333 0.116 0.09333333333333332 0.076
