56 0.8133333333333334 0.748 0.3733333333333333 0.504
56 0.15066666666666667 0.659 0.2693333333333333 0.37
0 0.7546666666666666 0.328 0.14933333333333332 0.10400000000000001
0 0.4666666666666667 0.558 0.4693333333333333 0.884
