17 0.6186666666666667 0.454 0.368 0.4
0 0.732 0.507 0.264 0.378
0 0.132 0.48 0.21066666666666667 0.336
0 0.19333333333333333 0.446 0.08266666666666667 0.296
0 0.2826666666666667 0.438 0.096 0.28
0 0.3466666666666667 0.47300000000000003 0.08 0.19
0 0.48666666666666664 0.47700000000000004 0.06666666666666667 0.186
