39 0.05 0.24533333333333332 0.096 0.064
39 0.052000000000000005 0.39866666666666667 0.088 0.072
56 0.255 0.436 0.21 0.2853333333333333
56 0.59 0.48666666666666664 0.22 0.19999999999999998
56 0.8300000000000001 0.6053333333333333 0.256 0.2613333333333333
60 0.527 0.7573333333333333 0.9460000000000001 0.48533333333333334
