56 0.785 0.7058011049723757 0.278 0.5883977900552486
56 0.343 0.5552486187845304 0.20600000000000002 0.38121546961325964
0 0.28200000000000003 0.3632596685082873 0.216 0.6767955801104972
15 0.63 0.6850828729281768 0.124 0.2154696132596685
0 0.384 0.42679558011049723 0.332 0.6325966850828729
