0 0.394 0.7213333333333333 0.224 0.5519999999999999
8 0.5640000000000001 0.42666666666666664 0.8200000000000001 0.46399999999999997
2 0.14 0.6306666666666666 0.136 0.14666666666666667
2 0.036000000000000004 0.6719999999999999 0.068 0.112
