5 0.63 0.5712530712530712 0.528 0.6412776412776413
2 0.035 0.6805896805896806 0.066 0.1375921375921376
2 0.127 0.6547911547911548 0.198 0.14496314496314497
2 0.226 0.6326781326781327 0.14400000000000002 0.12530712530712532
2 0.322 0.6154791154791155 0.08 0.12530712530712532
