18 0.6253333333333333 0.524 0.6853333333333333 0.612
18 0.252 0.395 0.23199999999999998 0.298
18 0.5586666666666666 0.12 0.25866666666666666 0.23600000000000002
18 0.19599999999999998 0.126 0.38666666666666666 0.248
18 0.9533333333333333 0.05 0.09333333333333332 0.07200000000000001
