18 0.78 0.583076923076923 0.368 0.6492307692307693
18 0.778 0.28615384615384615 0.424 0.3323076923076923
18 0.508 0.18 0.248 0.3230769230769231
18 0.452 0.5415384615384615 0.32 0.7015384615384616
18 0.17400000000000002 0.6430769230769231 0.34 0.7138461538461538
18 0.066 0.14923076923076922 0.128 0.2923076923076923
