1 0.5493333333333333 0.62 0.9013333333333333 0.76
0 0.6986666666666667 0.5680000000000001 0.07466666666666666 0.088
39 0.6866666666666666 0.602 0.152 0.14400000000000002
58 0.08533333333333333 0.553 0.10133333333333333 0.14200000000000002
