14 0.14 0.4987212276214834 0.084 0.06649616368286446
14 0.338 0.782608695652174 0.116 0.09718670076726343
14 0.5690000000000001 0.7263427109974425 0.066 0.06649616368286446
14 0.599 0.8772378516624042 0.078 0.07161125319693096
