60 0.231 0.8986666666666666 0.458 0.192
56 0.17500000000000002 0.7773333333333333 0.138 0.13066666666666665
56 0.112 0.9173333333333333 0.22 0.16
62 0.47100000000000003 0.39999999999999997 0.14200000000000002 0.13866666666666666
58 0.6930000000000001 0.33466666666666667 0.15 0.27999999999999997
