4 0.364 0.5439999999999999 0.44 0.22933333333333333
4 0.165 0.592 0.106 0.05333333333333333
0 0.1 0.7853333333333333 0.036000000000000004 0.13066666666666665
0 0.969 0.816 0.042 0.14933333333333332
2 0.886 0.772 0.216 0.16266666666666665
