62 0.123 0.49466666666666664 0.242 0.38666666666666666
58 0.761 0.5093333333333333 0.122 0.08533333333333333
58 0.51 0.4066666666666667 0.084 0.06666666666666667
58 0.65 0.2653333333333333 0.136 0.08266666666666667
58 0.8150000000000001 0.11733333333333333 0.234 0.22933333333333333
58 0.524 0.096 0.076 0.05333333333333333
