56 0.5435435435435435 0.833 0.32432432432432434 0.334
56 0.8588588588588588 0.866 0.2822822822822823 0.268
60 0.7687687687687688 0.748 0.4624624624624625 0.136
39 0.9669669669669669 0.684 0.03003003003003003 0.056
