2 0.49874371859296485 0.653 0.9371859296482412 0.622
2 0.6984924623115578 0.323 0.15075376884422112 0.08600000000000001
2 0.8454773869346733 0.47600000000000003 0.1884422110552764 0.08
2 0.5175879396984925 0.368 0.1457286432160804 0.076
0 0.06155778894472362 0.389 0.09798994974874373 0.078
