0 0.62 0.1524163568773234 0.056 0.2973977695167286
0 0.43 0.1449814126394052 0.04 0.17843866171003717
0 0.8310000000000001 0.21561338289962825 0.17 0.42379182156133827
3 0.499 0.6003717472118959 0.894 0.7026022304832713
3 0.23600000000000002 0.39962825278810404 0.468 0.6579925650557621
