2 0.516 0.5333333333333333 0.7000000000000001 0.5813333333333334
2 0.124 0.3293333333333333 0.244 0.21066666666666667
0 0.084 0.17066666666666666 0.036000000000000004 0.10666666666666666
2 0.217 0.17466666666666666 0.058 0.072
2 0.159 0.172 0.066 0.06666666666666667
