56 0.614 0.5635838150289018 0.772 0.8728323699421965
56 0.20700000000000002 0.17774566473988437 0.41000000000000003 0.3497109826589595
56 0.125 0.17052023121387283 0.246 0.3352601156069364
0 0.199 0.3858381502890173 0.394 0.5346820809248555
0 0.315 0.17774566473988437 0.49 0.2976878612716763
0 0.341 0.3872832369942196 0.622 0.6127167630057803
0 0.445 0.4783236994219653 0.626 0.7485549132947976
0 0.658 0.5592485549132947 0.592 0.8815028901734103
