57 0.5720000000000001 0.6706666666666666 0.856 0.6586666666666666
56 0.81 0.21066666666666667 0.244 0.416
58 0.494 0.14533333333333334 0.22 0.2853333333333333
62 0.209 0.30533333333333335 0.13 0.19466666666666665
