2 0.489 0.5453333333333333 0.542 0.488
0 0.192 0.328 0.068 0.19733333333333333
0 0.271 0.328 0.066 0.16533333333333333
0 0.275 0.3133333333333333 0.03 0.14133333333333334
2 0.08700000000000001 0.33199999999999996 0.17 0.08266666666666667
2 0.439 0.29733333333333334 0.13 0.04
