0 0.731 0.4493333333333333 0.098 0.32266666666666666
0 0.765 0.6413333333333333 0.058 0.3173333333333333
0 0.89 0.6266666666666666 0.064 0.36266666666666664
6 0.501 0.5773333333333334 0.998 0.8453333333333333
