5 0.549 0.539787798408488 0.6940000000000001 0.7559681697612731
0 0.921 0.7387267904509284 0.042 0.129973474801061
0 0.9450000000000001 0.753315649867374 0.038 0.1326259946949602
0 0.631 0.6591511936339522 0.042 0.1246684350132626
39 0.424 0.5649867374005305 0.036000000000000004 0.2015915119363395
0 0.318 0.689655172413793 0.036000000000000004 0.04774535809018567
