60 0.461 0.7799401197604791 0.454 0.31437125748503
0 0.686 0.6931137724550899 0.448 0.6137724550898204
0 0.243 0.6826347305389222 0.442 0.6347305389221557
0 0.37 0.4311377245508982 0.20800000000000002 0.39520958083832336
0 0.577 0.46556886227544914 0.162 0.38023952095808383
39 0.533 0.6107784431137725 0.042 0.17365269461077845
39 0.5640000000000001 0.6452095808383234 0.032 0.2065868263473054
56 0.932 0.8712574850299402 0.136 0.2574850299401198
