1 0.359 0.7813333333333333 0.322 0.4373333333333333
1 0.543 0.7946666666666666 0.34600000000000003 0.4106666666666667
0 0.586 0.6546666666666666 0.232 0.6906666666666667
0 0.385 0.656 0.218 0.6026666666666667
