2 0.507 0.6168341708542714 0.93 0.7211055276381909
0 0.501 0.20728643216080403 0.242 0.36432160804020103
0 0.721 0.3417085427135678 0.29 0.5527638190954774
0 0.889 0.18467336683417085 0.17400000000000002 0.36432160804020103
