56 0.8228228228228228 0.619 0.13813813813813813 0.258
56 0.6711711711711712 0.66 0.3213213213213213 0.3
56 0.45495495495495497 0.498 0.06906906906906907 0.07200000000000001
56 0.3708708708708709 0.513 0.0990990990990991 0.078
56 0.32432432432432434 0.642 0.3003003003003003 0.312
56 0.5630630630630631 0.709 0.37537537537537535 0.35000000000000003
60 0.47297297297297297 0.705 0.8318318318318318 0.398
