18 0.675 0.46399999999999997 0.09 0.21333333333333332
18 0.724 0.436 0.056 0.17866666666666667
18 0.5710000000000001 0.43866666666666665 0.14200000000000002 0.10933333333333332
18 0.523 0.5453333333333333 0.09 0.14133333333333334
18 0.423 0.572 0.11800000000000001 0.2373333333333333
18 0.311 0.564 0.126 0.20533333333333334
