0 0.47100000000000003 0.30266666666666664 0.038 0.088
0 0.724 0.3133333333333333 0.06 0.09333333333333332
0 0.872 0.16133333333333333 0.188 0.16266666666666665
62 0.425 0.17333333333333334 0.082 0.10133333333333333
62 0.201 0.288 0.294 0.29866666666666664
