58 0.5640000000000001 0.45045045045045046 0.048 0.07807807807807808
58 0.778 0.487987987987988 0.096 0.14114114114114115
6 0.808 0.4159159159159159 0.384 0.30930930930930933
0 0.41400000000000003 0.5900900900900901 0.744 0.8198198198198198
