2 0.58 0.36 0.068 0.08533333333333333
3 0.635 0.376 0.09 0.13333333333333333
3 0.484 0.5133333333333333 0.164 0.34933333333333333
0 0.292 0.45999999999999996 0.1 0.30133333333333334
3 0.9 0.692 0.2 0.616
