18 0.35100000000000003 0.5 0.178 0.3681462140992167
18 0.512 0.5013054830287207 0.2 0.370757180156658
18 0.638 0.5221932114882507 0.176 0.33942558746736295
18 0.71 0.5926892950391645 0.18 0.381201044386423
