16 0.435 0.48666666666666664 0.23 0.504
39 0.584 0.41866666666666663 0.036000000000000004 0.042666666666666665
39 0.643 0.412 0.034 0.04
39 0.6980000000000001 0.4106666666666667 0.036000000000000004 0.042666666666666665
39 0.7030000000000001 0.48933333333333334 0.046 0.11466666666666667
39 0.642 0.4933333333333333 0.052000000000000005 0.112
39 0.585 0.5 0.054 0.10933333333333332
0 0.836 0.09733333333333333 0.064 0.10933333333333332
