0 0.8180000000000001 0.5511811023622047 0.152 0.2099737532808399
0 0.67 0.5853018372703412 0.212 0.2782152230971129
3 0.259 0.5538057742782152 0.514 0.3464566929133858
8 0.847 0.7086614173228346 0.28600000000000003 0.43569553805774275
