60 0.5013333333333333 0.705 0.9973333333333333 0.59
39 0.52 0.585 0.06933333333333333 0.198
39 0.7013333333333334 0.516 0.07466666666666666 0.168
39 0.7133333333333333 0.394 0.050666666666666665 0.12
