39 0.8230000000000001 0.21171171171171171 0.038 0.08708708708708708
0 0.217 0.5015015015015015 0.43 0.996996996996997
0 0.664 0.6546546546546547 0.428 0.6906906906906907
0 0.839 0.6246246246246246 0.322 0.7507507507507507
0 0.638 0.15465465465465467 0.232 0.2852852852852853
0 0.918 0.4009009009009009 0.164 0.7957957957957957
0 0.716 0.4294294294294294 0.084 0.2702702702702703
0 0.803 0.16066066066066065 0.17400000000000002 0.21921921921921922
