56 0.782 0.895017793594306 0.296 0.2099644128113879
56 0.099 0.8665480427046263 0.098 0.2669039145907473
60 0.304 0.891459074733096 0.41200000000000003 0.21708185053380782
39 0.227 0.04804270462633452 0.018000000000000002 0.0889679715302491
39 0.20600000000000002 0.04448398576512455 0.016 0.08185053380782918
39 0.183 0.04448398576512455 0.022 0.08185053380782918
39 0.161 0.042704626334519574 0.022 0.07829181494661921
39 0.137 0.037366548042704624 0.022 0.06761565836298931
