19 0.845 0.7147147147147147 0.20600000000000002 0.22822822822822822
19 0.7030000000000001 0.7162162162162162 0.186 0.2132132132132132
19 0.501 0.7177177177177178 0.246 0.2222222222222222
19 0.627 0.7027027027027027 0.222 0.23423423423423423
19 0.06 0.6876876876876877 0.076 0.09009009009009009
