18 0.863 0.5886792452830188 0.218 0.6716981132075471
18 0.577 0.5962264150943396 0.19 0.5584905660377358
18 0.40700000000000003 0.5867924528301887 0.122 0.5245283018867924
18 0.32 0.6339622641509434 0.192 0.5886792452830188
18 0.083 0.6264150943396226 0.162 0.5207547169811321
