15 0.926 0.536 0.136 0.096
56 0.857 0.5506666666666666 0.28600000000000003 0.5093333333333333
0 0.41300000000000003 0.5133333333333333 0.674 0.17866666666666667
57 0.362 0.58 0.72 0.5253333333333333
58 0.785 0.248 0.05 0.15466666666666667
