2 0.155 0.188 0.294 0.16799999999999998
2 0.418 0.22 0.28 0.13066666666666665
0 0.379 0.568 0.20600000000000002 0.42133333333333334
0 0.593 0.5106666666666666 0.20600000000000002 0.5253333333333333
1 0.84 0.7066666666666667 0.32 0.192
