62 0.812 0.42 0.124 0.13066666666666665
0 0.73 0.30533333333333335 0.14400000000000002 0.27466666666666667
0 0.589 0.30533333333333335 0.14200000000000002 0.344
0 0.458 0.264 0.128 0.20266666666666666
0 0.36 0.2733333333333333 0.088 0.19466666666666665
0 0.20400000000000001 0.448 0.116 0.6506666666666666
0 0.251 0.5186666666666666 0.194 0.696
0 0.718 0.6933333333333334 0.20800000000000002 0.6133333333333333
