60 0.40700000000000003 0.7779456193353474 0.806 0.44410876132930516
56 0.9410000000000001 0.7749244712990937 0.11 0.44410876132930516
0 0.171 0.6314199395770392 0.338 0.7009063444108762
0 0.292 0.540785498489426 0.12 0.2416918429003021
0 0.8130000000000001 0.6631419939577039 0.374 0.6737160120845922
0 0.9460000000000001 0.3187311178247734 0.108 0.2084592145015106
39 0.449 0.5800604229607251 0.046 0.18126888217522658
39 0.424 0.5513595166163142 0.032 0.18429003021148035
