0 0.362 0.592391304347826 0.196 0.30434782608695654
0 0.418 0.6222826086956521 0.14 0.2554347826086956
0 0.54 0.5679347826086957 0.20800000000000002 0.33695652173913043
8 0.543 0.7065217391304348 0.726 0.30978260869565216
