57 0.224 0.6119402985074627 0.34800000000000003 0.4417910447761194
62 0.65 0.40746268656716417 0.136 0.2
58 0.388 0.39850746268656717 0.064 0.13432835820895522
60 0.312 0.3776119402985075 0.248 0.1701492537313433
