60 0.264 0.884 0.5226666666666666 0.164
39 0.6946666666666667 0.887 0.09866666666666667 0.222
0 0.42533333333333334 0.515 0.4453333333333333 0.654
0 0.6719999999999999 0.704 0.5226666666666666 0.47600000000000003
