58 0.714 0.5626666666666666 0.292 0.48
58 0.523 0.7733333333333333 0.218 0.29333333333333333
58 0.317 0.7106666666666667 0.21 0.27466666666666667
58 0.354 0.3173333333333333 0.34400000000000003 0.4053333333333333
56 0.842 0.5426666666666666 0.316 0.9146666666666666
