57 0.324 0.7999999999999999 0.644 0.39999999999999997
56 0.67 0.45199999999999996 0.088 0.088
56 0.547 0.45466666666666666 0.094 0.08266666666666667
56 0.41600000000000004 0.5346666666666666 0.14 0.19999999999999998
56 0.861 0.5893333333333333 0.134 0.33599999999999997
56 0.62 0.6533333333333333 0.12 0.36266666666666664
56 0.75 0.6466666666666666 0.18 0.37066666666666664
60 0.644 0.644 0.42 0.30666666666666664
