0 0.46 0.4333333333333333 0.076 0.2373333333333333
17 0.621 0.47733333333333333 0.222 0.2773333333333333
17 0.812 0.48666666666666664 0.328 0.34933333333333333
0 0.605 0.324 0.062 0.16799999999999998
2 0.10200000000000001 0.3853333333333333 0.2 0.17333333333333334
