0 0.371 0.5546666666666666 0.054 0.22933333333333333
0 0.306 0.5573333333333333 0.052000000000000005 0.24533333333333332
2 0.506 0.48133333333333334 0.076 0.04
2 0.616 0.612 0.34400000000000003 0.23199999999999998
