16 0.317 0.5386666666666666 0.09 0.15466666666666667
0 0.513 0.3333333333333333 0.21 0.608
2 0.911 0.19999999999999998 0.14200000000000002 0.14933333333333332
39 0.23 0.6906666666666667 0.084 0.05333333333333333
