60 0.501 0.8173333333333334 0.998 0.36533333333333334
0 0.279 0.4333333333333333 0.218 0.5146666666666666
56 0.481 0.6293333333333333 0.138 0.21866666666666665
0 0.583 0.596 0.25 0.43466666666666665
0 0.802 0.5946666666666667 0.324 0.6773333333333333
