2 0.505 0.5466867469879518 0.902 0.6054216867469879
0 0.124 0.37198795180722893 0.052000000000000005 0.1957831325301205
0 0.17 0.37198795180722893 0.06 0.1716867469879518
0 0.201 0.38253012048192775 0.026000000000000002 0.12650602409638556
0 0.031 0.42018072289156627 0.058 0.3042168674698795
