1 0.521 0.45999999999999996 0.594 0.8293333333333333
2 0.14100000000000001 0.20666666666666667 0.278 0.408
2 0.792 0.04933333333333333 0.256 0.09333333333333332
2 0.784 0.27599999999999997 0.428 0.5466666666666666
