0 0.304 0.7170658682634731 0.048 0.09880239520958084
0 0.551 0.6841317365269461 0.05 0.17664670658682635
8 0.3 0.7350299401197605 0.424 0.23652694610778444
8 0.779 0.6616766467065869 0.05 0.07185628742514971
