16 0.683 0.5679347826086957 0.274 0.1902173913043478
16 0.20500000000000002 0.6304347826086957 0.29 0.2391304347826087
0 0.807 0.3654891304347826 0.378 0.7255434782608695
0 0.466 0.37364130434782605 0.368 0.7418478260869565
