39 0.687 0.8483483483483484 0.034 0.09309309309309309
0 0.8200000000000001 0.536036036036036 0.196 0.8438438438438438
0 0.23500000000000001 0.5255255255255256 0.21 0.7747747747747747
2 0.937 0.581081081081081 0.126 0.14114114114114115
