18 0.022 0.7223719676549866 0.04 0.17789757412398924
18 0.232 0.7075471698113208 0.084 0.12129380053908356
18 0.623 0.8113207547169812 0.11 0.15633423180592992
18 0.6900000000000001 0.8153638814016173 0.064 0.13746630727762804
18 0.746 0.7924528301886793 0.096 0.15094339622641512
18 0.929 0.9245283018867925 0.138 0.15094339622641512
18 0.808 0.8194070080862534 0.084 0.10242587601078168
18 0.881 0.7654986522911051 0.08600000000000001 0.15633423180592992
18 0.8170000000000001 0.7196765498652291 0.122 0.11320754716981132
