60 0.677 0.7906666666666666 0.646 0.41866666666666663
0 0.5660000000000001 0.38 0.34400000000000003 0.648
0 0.833 0.472 0.198 0.29866666666666664
0 0.164 0.7413333333333333 0.23600000000000002 0.35733333333333334
39 0.9550000000000001 0.5426666666666666 0.066 0.19999999999999998
56 0.213 0.8693333333333333 0.354 0.2613333333333333
