18 0.203 0.702445652173913 0.334 0.3179347826086956
18 0.615 0.592391304347826 0.47400000000000003 0.46195652173913043
18 0.54 0.6902173913043478 0.216 0.1902173913043478
18 0.615 0.7078804347826086 0.262 0.23097826086956522
