4 0.513 0.4437869822485207 0.9460000000000001 0.42011834319526625
4 0.3 0.23668639053254437 0.184 0.11834319526627218
4 0.41600000000000004 0.27514792899408286 0.188 0.10650887573964497
4 0.59 0.2662721893491124 0.18 0.08284023668639053
4 0.734 0.2529585798816568 0.156 0.06804733727810651
4 0.859 0.24704142011834318 0.134 0.07988165680473372
