56 0.882 0.652 0.064 0.14133333333333334
0 0.521 0.6759999999999999 0.106 0.45066666666666666
0 0.37 0.64 0.152 0.29333333333333333
56 0.591 0.7253333333333333 0.098 0.21333333333333332
56 0.458 0.7146666666666667 0.056 0.224
