14 0.7177177177177178 0.41000000000000003 0.10810810810810811 0.048
14 0.09759759759759759 0.40900000000000003 0.10510510510510511 0.08600000000000001
14 0.14864864864864866 0.539 0.11711711711711711 0.08600000000000001
14 0.527027027027027 0.448 0.08708708708708708 0.08
