18 0.6960000000000001 0.5895721925133689 0.608 0.820855614973262
18 0.35100000000000003 0.6577540106951871 0.41000000000000003 0.6844919786096256
18 0.553 0.12032085561497326 0.19 0.23529411764705882
