57 0.425 0.43066666666666664 0.47000000000000003 0.35466666666666663
0 0.728 0.6866666666666666 0.216 0.5626666666666666
0 0.666 0.49866666666666665 0.12 0.33599999999999997
0 0.444 0.484 0.164 0.37066666666666664
0 0.28400000000000003 0.6106666666666667 0.228 0.46399999999999997
60 0.493 0.76 0.39 0.30933333333333335
60 0.323 0.9066666666666666 0.546 0.18666666666666665
