0 0.725 0.7837837837837838 0.226 0.43243243243243246
0 0.8290000000000001 0.7852852852852853 0.094 0.4294294294294294
0 0.711 0.6291291291291291 0.082 0.35135135135135137
8 0.279 0.551051051051051 0.09 0.03303303303303303
