58 0.5915915915915916 0.17300000000000001 0.18018018018018017 0.186
0 0.7612612612612613 0.20500000000000002 0.12912912912912913 0.10200000000000001
62 0.5645645645645646 0.521 0.35435435435435436 0.226
0 0.06606606606606606 0.241 0.07207207207207207 0.094
