60 0.5266666666666666 0.639 0.8773333333333333 0.538
56 0.6026666666666667 0.39 0.5813333333333334 0.604
56 0.8626666666666667 0.609 0.27466666666666667 0.514
56 0.2773333333333333 0.649 0.3893333333333333 0.498
58 0.8746666666666666 0.296 0.25066666666666665 0.192
56 0.348 0.641 0.184 0.298
