0 0.461 0.4573333333333333 0.17400000000000002 0.32266666666666666
1 0.505 0.5666666666666667 0.37 0.25866666666666666
2 0.137 0.38266666666666665 0.21 0.20533333333333334
2 0.339 0.368 0.294 0.18666666666666665
2 0.48 0.35333333333333333 0.148 0.152
