3 0.1015625 0.33958333333333335 0.19687500000000002 0.4375
3 0.521875 0.4791666666666667 0.6937500000000001 0.7666666666666666
2 0.8046875 0.08333333333333333 0.390625 0.15833333333333333
2 0.1765625 0.041666666666666664 0.265625 0.075
