56 0.776 0.8466666666666667 0.212 0.30666666666666664
56 0.252 0.756 0.22 0.30666666666666664
60 0.424 0.9106666666666666 0.676 0.17866666666666667
0 0.46 0.6293333333333333 0.116 0.352
57 0.177 0.5599999999999999 0.34600000000000003 0.19733333333333333
56 0.304 0.4333333333333333 0.10400000000000001 0.104
