2 0.227 0.4453333333333333 0.122 0.09066666666666666
2 0.44 0.39999999999999997 0.04 0.048
1 0.811 0.6506666666666666 0.11800000000000001 0.29866666666666664
0 0.8160000000000001 0.5346666666666666 0.112 0.38666666666666666
