16 0.526 0.6053333333333333 0.056 0.13866666666666666
0 0.376 0.412 0.14400000000000002 0.6
0 0.261 0.2813333333333333 0.046 0.20533333333333334
0 0.844 0.26 0.044 0.17333333333333334
0 0.294 0.29333333333333333 0.036000000000000004 0.20266666666666666
0 0.462 0.27466666666666667 0.06 0.21866666666666665
