0 0.418 0.356951871657754 0.152 0.23262032085561496
0 0.342 0.47192513368983957 0.192 0.4037433155080214
0 0.639 0.4866310160427807 0.198 0.4224598930481283
0 0.65 0.7232620320855615 0.6 0.553475935828877
0 0.15 0.7005347593582887 0.296 0.5989304812834224
0 0.439 0.7005347593582887 0.39 0.5989304812834224
58 0.721 0.44652406417112295 0.114 0.1818181818181818
58 0.897 0.27807486631016043 0.106 0.1657754010695187
