57 0.501 0.6846846846846847 0.998 0.6246246246246246
0 0.385 0.26426426426426425 0.21 0.3183183183183183
0 0.675 0.5045045045045045 0.558 0.34234234234234234
0 0.336 0.6906906906906907 0.504 0.6186186186186187
