16 0.225 0.4795918367346939 0.4166666666666667 0.9102040816326531
16 0.48833333333333334 0.6693877551020408 0.4566666666666667 0.5061224489795919
16 0.7966666666666667 0.5816326530612246 0.3866666666666667 0.7714285714285715
