0 0.89 0.4258160237388724 0.176 0.40059347181008903
0 0.436 0.41543026706231456 0.164 0.39169139465875374
0 0.114 0.38724035608308605 0.108 0.3590504451038576
17 0.886 0.6706231454005935 0.116 0.4391691394658754
17 0.449 0.5667655786350149 0.13 0.4629080118694362
17 0.107 0.5326409495548962 0.21 0.42433234421364985
