56 0.687 0.3813333333333333 0.222 0.4053333333333333
39 0.17300000000000001 0.772 0.138 0.32266666666666666
39 0.152 0.5213333333333333 0.064 0.19999999999999998
39 0.518 0.4373333333333333 0.068 0.24533333333333332
39 0.58 0.724 0.064 0.21066666666666667
39 0.026000000000000002 0.312 0.048 0.224
0 0.8160000000000001 0.748 0.368 0.504
0 0.328 0.636 0.624 0.728
