56 0.06 0.778 0.11466666666666667 0.20800000000000002
56 0.8893333333333333 0.686 0.13599999999999998 0.124
56 0.724 0.8270000000000001 0.14666666666666667 0.262
60 0.8586666666666667 0.869 0.2826666666666667 0.262
