1 0.449820788530466 0.6930000000000001 0.46236559139784944 0.28600000000000003
0 0.5394265232974911 0.586 0.4265232974910394 0.456
0 0.11648745519713262 0.55 0.13261648745519714 0.17200000000000001
0 0.3655913978494624 0.544 0.1003584229390681 0.2
0 0.7437275985663082 0.556 0.12544802867383512 0.22
0 0.9247311827956989 0.542 0.15053763440860216 0.152
0 0.8064516129032258 0.55 0.10752688172043011 0.216
0 0.17204301075268819 0.539 0.05734767025089606 0.126
