17 0.653 0.5559999999999999 0.482 0.888
17 0.085 0.3813333333333333 0.10200000000000001 0.21866666666666665
0 0.081 0.29733333333333334 0.08600000000000001 0.20533333333333334
17 0.291 0.388 0.302 0.2853333333333333
0 0.28400000000000003 0.5813333333333334 0.48 0.8373333333333333
