2 0.20600000000000002 0.11561561561561562 0.26 0.22522522522522523
2 0.064 0.40540540540540543 0.124 0.27627627627627627
5 0.504 0.3363363363363363 0.5720000000000001 0.6666666666666666
5 0.745 0.5015015015015015 0.51 0.996996996996997
