39 0.489 0.5133333333333333 0.03 0.14666666666666667
56 0.154 0.7973333333333333 0.304 0.4053333333333333
56 0.8180000000000001 0.8813333333333333 0.364 0.2373333333333333
0 0.317 0.592 0.28200000000000003 0.72
0 0.588 0.35333333333333333 0.252 0.32266666666666666
0 0.715 0.43466666666666665 0.266 0.432
0 0.766 0.6013333333333333 0.468 0.7973333333333333
0 0.213 0.6173333333333333 0.422 0.7653333333333333
60 0.536 0.7213333333333333 0.48 0.5573333333333333
