16 0.5690000000000001 0.46396396396396394 0.442 0.5315315315315315
58 0.26 0.6456456456456456 0.23600000000000002 0.3363363363363363
58 0.085 0.6081081081081081 0.162 0.3153153153153153
58 0.494 0.2822822822822823 0.04 0.09009009009009009
58 0.356 0.2747747747747748 0.248 0.4954954954954955
