0 0.577 0.5373333333333333 0.598 0.9253333333333333
0 0.28800000000000003 0.688 0.42 0.624
2 0.051000000000000004 0.30266666666666664 0.098 0.22666666666666666
2 0.35100000000000003 0.184 0.066 0.09066666666666666
2 0.266 0.192 0.056 0.064
