58 0.39066666666666666 0.509 0.6693333333333333 0.6940000000000001
58 0.12533333333333332 0.6970000000000001 0.24533333333333332 0.31
56 0.8333333333333333 0.675 0.3333333333333333 0.518
60 0.39999999999999997 0.759 0.7946666666666666 0.482
