8 0.418 0.7869822485207101 0.788 0.21893491124260356
0 0.221 0.6834319526627218 0.11800000000000001 0.23076923076923075
0 0.362 0.7115384615384616 0.116 0.15680473372781065
0 0.5740000000000001 0.650887573964497 0.128 0.23668639053254437
