14 0.242 0.6197604790419162 0.10400000000000001 0.2095808383233533
14 0.368 0.6302395209580839 0.076 0.17664670658682635
14 0.502 0.658682634730539 0.048 0.1377245508982036
14 0.648 0.595808383233533 0.052000000000000005 0.08982035928143713
14 0.687 0.6511976047904192 0.114 0.1347305389221557
