18 0.365 0.23460410557184752 0.09 0.12316715542521994
18 0.354 0.36363636363636365 0.14 0.19941348973607037
18 0.452 0.47214076246334313 0.23600000000000002 0.2404692082111437
18 0.451 0.7917888563049853 0.258 0.2697947214076246
18 0.741 0.3944281524926686 0.14200000000000002 0.13196480938416422
18 0.754 0.5043988269794721 0.20400000000000001 0.22287390029325513
