60 0.5973333333333333 0.758 0.7413333333333333 0.372
56 0.5186666666666666 0.752 0.37066666666666664 0.496
56 0.2573333333333333 0.662 0.2373333333333333 0.388
58 0.2373333333333333 0.397 0.09066666666666666 0.182
58 0.508 0.4 0.072 0.168
