18 0.291 0.6441441441441441 0.066 0.07507507507507508
18 0.5 0.34234234234234234 0.084 0.12012012012012012
18 0.395 0.3993993993993994 0.078 0.12612612612612611
18 0.47500000000000003 0.16216216216216217 0.062 0.13213213213213212
18 0.154 0.3738738738738739 0.076 0.11711711711711711
18 0.404 0.5915915915915916 0.152 0.12612612612612611
18 0.273 0.8018018018018018 0.062 0.06606606606606606
18 0.076 0.7702702702702703 0.056 0.06906906906906907
