16 0.3030690537084399 0.871 0.41687979539641945 0.258
16 0.3938618925831202 0.322 0.24552429667519182 0.196
16 0.7289002557544758 0.209 0.1534526854219949 0.158
56 0.3964194373401535 0.41300000000000003 0.7877237851662404 0.638
56 0.7020460358056266 0.255 0.5601023017902814 0.45
