1 0.459 0.720486111111111 0.138 0.1909722222222222
1 0.9560000000000001 0.65625 0.088 0.1597222222222222
0 0.461 0.6440972222222222 0.066 0.23263888888888887
0 0.97 0.6145833333333333 0.06 0.21527777777777776
