39 0.542 0.33999999999999997 0.024 0.11466666666666667
0 0.14300000000000002 0.6053333333333333 0.28200000000000003 0.7893333333333333
0 0.506 0.48533333333333334 0.296 0.5386666666666666
0 0.869 0.584 0.262 0.6719999999999999
60 0.501 0.8653333333333333 0.998 0.2693333333333333
