0 0.231 0.7839999999999999 0.254 0.432
0 0.468 0.8053333333333333 0.216 0.384
0 0.608 0.7999999999999999 0.18 0.3733333333333333
0 0.851 0.7893333333333333 0.254 0.416
0 0.384 0.6346666666666666 0.20400000000000001 0.688
0 0.544 0.5733333333333334 0.164 0.4533333333333333
0 0.602 0.3973333333333333 0.1 0.21866666666666665
0 0.664 0.644 0.184 0.44
60 0.896 0.696 0.156 0.13866666666666666
