57 0.5020325203252033 0.6794478527607362 0.9959349593495936 0.450920245398773
0 0.5487804878048781 0.6932515337423313 0.902439024390244 0.2822085889570552
0 0.7418699186991871 0.5797546012269938 0.5162601626016261 0.4110429447852761
