6 0.49866666666666665 0.47400000000000003 0.21333333333333332 0.2
2 0.14133333333333334 0.524 0.09066666666666666 0.056
0 0.32666666666666666 0.542 0.056 0.096
0 0.25466666666666665 0.536 0.04533333333333333 0.088
