17 0.16 0.6226666666666666 0.292 0.4666666666666667
17 0.38 0.6386666666666666 0.256 0.49866666666666665
0 0.24 0.612 0.068 0.312
0 0.212 0.7093333333333333 0.124 0.5813333333333334
0 0.724 0.54 0.084 0.33866666666666667
