8 0.686 0.45495495495495497 0.148 0.08108108108108109
8 0.8130000000000001 0.6906906906906907 0.262 0.10810810810810811
8 0.449 0.34384384384384387 0.09 0.04504504504504504
8 0.891 0.2012012012012012 0.094 0.1981981981981982
8 0.162 0.3258258258258258 0.056 0.05105105105105105
8 0.717 0.28378378378378377 0.058 0.057057057057057055
8 0.095 0.3138138138138138 0.05 0.08708708708708708
8 0.398 0.32432432432432434 0.064 0.04804804804804805
8 0.7010000000000001 0.6651651651651651 0.306 0.09309309309309309
8 0.769 0.8543543543543544 0.214 0.1831831831831832
8 0.534 0.7747747747747747 0.3 0.13213213213213212
8 0.421 0.8033033033033034 0.502 0.2012012012012012
8 0.159 0.7462462462462462 0.314 0.19519519519519518
