2 0.089 0.43306010928961747 0.17400000000000002 0.1994535519125683
2 0.486 0.5191256830601093 0.864 0.7486338797814208
2 0.925 0.3620218579234973 0.126 0.13387978142076504
2 0.09 0.3592896174863388 0.176 0.09562841530054644
