56 0.86 0.2063253012048193 0.132 0.2680722891566265
56 0.972 0.41415662650602414 0.056 0.3102409638554217
56 0.054 0.24849397590361447 0.1 0.31626506024096385
56 0.05 0.4412650602409639 0.096 0.2801204819277109
