15 0.298 0.2912912912912913 0.096 0.12012012012012012
56 0.853 0.6231231231231231 0.294 0.7537537537537538
56 0.765 0.13063063063063063 0.162 0.2552552552552553
56 0.621 0.07357357357357357 0.146 0.14114114114114115
57 0.443 0.4069069069069069 0.77 0.6216216216216216
56 0.526 0.06606606606606606 0.168 0.12012012012012012
