2 0.10400000000000001 0.5786666666666667 0.20400000000000001 0.528
2 0.468 0.5866666666666667 0.548 0.4533333333333333
2 0.85 0.5146666666666666 0.3 0.32
0 0.521 0.6 0.13 0.5599999999999999
2 0.61 0.3426666666666667 0.196 0.13599999999999998
2 0.868 0.3933333333333333 0.264 0.12533333333333332
2 0.864 0.37866666666666665 0.272 0.13333333333333333
