6 0.521 0.7746666666666666 0.774 0.41866666666666663
6 0.10300000000000001 0.6906666666666667 0.202 0.20266666666666666
0 0.858 0.8453333333333333 0.08 0.2826666666666667
0 0.983 0.7866666666666666 0.034 0.144
