56 0.8300000000000001 0.7963483146067416 0.34 0.40730337078651685
62 0.5690000000000001 0.523876404494382 0.242 0.31741573033707865
0 0.201 0.5786516853932584 0.194 0.8426966292134831
0 0.779 0.7275280898876404 0.438 0.5449438202247191
