56 0.662 0.7537537537537538 0.136 0.3483483483483483
60 0.514 0.7672672672672672 0.38 0.2912912912912913
56 0.28400000000000003 0.6696696696696697 0.068 0.24024024024024024
56 0.355 0.7462462462462462 0.11800000000000001 0.3333333333333333
56 0.448 0.7792792792792793 0.128 0.32732732732732733
56 0.5660000000000001 0.7822822822822822 0.124 0.33933933933933935
56 0.47400000000000003 0.5945945945945946 0.088 0.05405405405405406
56 0.5640000000000001 0.5930930930930931 0.088 0.05105105105105105
