39 0.511 0.42533333333333334 0.066 0.17866666666666667
56 0.304 0.7919999999999999 0.23600000000000002 0.416
56 0.771 0.7893333333333333 0.23 0.42133333333333334
60 0.524 0.7839999999999999 0.436 0.42666666666666664
0 0.64 0.6493333333333333 0.3 0.6693333333333333
0 0.403 0.6493333333333333 0.374 0.6586666666666666
