56 0.5893333333333333 0.539 0.10666666666666666 0.194
56 0.6493333333333333 0.552 0.04533333333333333 0.192
56 0.5746666666666667 0.508 0.10933333333333332 0.164
56 0.12266666666666666 0.555 0.24 0.106
56 0.436 0.667 0.13599999999999998 0.234
56 0.39599999999999996 0.849 0.22666666666666666 0.302
60 0.20666666666666667 0.802 0.408 0.396
