14 0.874 0.27492447129909364 0.056 0.06646525679758308
14 0.28 0.5362537764350453 0.056 0.09365558912386707
8 0.835 0.6525679758308157 0.326 0.6525679758308157
8 0.383 0.5785498489425982 0.246 0.32326283987915405
8 0.68 0.540785498489426 0.524 0.7069486404833837
8 0.771 0.021148036253776436 0.138 0.03625377643504532
0 0.519 0.5211480362537765 0.106 0.28700906344410876
0 0.618 0.5317220543806647 0.092 0.3081570996978852
