4 0.488 0.4954954954954955 0.972 0.9309309309309309
4 0.653 0.2777777777777778 0.066 0.03903903903903904
4 0.712 0.27927927927927926 0.052000000000000005 0.018018018018018018
4 0.755 0.2807807807807808 0.034 0.02102102102102102
4 0.792 0.2807807807807808 0.044 0.02702702702702703
4 0.8290000000000001 0.2852852852852853 0.022 0.012012012012012012
4 0.858 0.2822822822822823 0.048 0.024024024024024024
