62 0.768 0.41333333333333333 0.264 0.26666666666666666
60 0.521 0.7999999999999999 0.9580000000000001 0.39999999999999997
0 0.274 0.6146666666666667 0.124 0.328
56 0.639 0.47866666666666663 0.17 0.24266666666666667
56 0.106 0.6426666666666666 0.2 0.528
56 0.049 0.7853333333333333 0.094 0.42933333333333334
39 0.549 0.352 0.014 0.048
