57 0.226 0.6933333333333334 0.448 0.512
0 0.363 0.4053333333333333 0.20600000000000002 0.39999999999999997
0 0.722 0.7919999999999999 0.556 0.416
0 0.6890000000000001 0.6693333333333333 0.35000000000000003 0.18133333333333332
0 0.312 0.5586666666666666 0.352 0.2853333333333333
