62 0.736 0.364 0.148 0.184
56 0.08 0.6386666666666666 0.152 0.36
56 0.199 0.6306666666666666 0.21 0.344
0 0.221 0.5506666666666666 0.25 0.5733333333333334
0 0.39 0.5146666666666666 0.2 0.5173333333333333
60 0.745 0.7293333333333333 0.51 0.5413333333333333
