58 0.048 0.196 0.09066666666666666 0.1
58 0.22533333333333333 0.123 0.13066666666666665 0.138
58 0.7146666666666667 0.228 0.08533333333333333 0.068
58 0.7546666666666666 0.177 0.224 0.162
0 0.4533333333333333 0.585 0.224 0.39
0 0.7773333333333333 0.094 0.06133333333333333 0.048
56 0.13866666666666666 0.099 0.08 0.11800000000000001
