8 0.501 0.45199999999999996 0.998 0.7653333333333333
0 0.34600000000000003 0.22266666666666665 0.1 0.34933333333333333
0 0.518 0.2853333333333333 0.12 0.256
0 0.678 0.2373333333333333 0.128 0.208
0 0.759 0.21066666666666667 0.11800000000000001 0.33599999999999997
0 0.799 0.12666666666666665 0.182 0.248
