5 0.7000000000000001 0.5557228915662651 0.312 0.5753012048192772
5 0.269 0.5256024096385542 0.406 0.569277108433735
0 0.9440000000000001 0.8132530120481928 0.096 0.355421686746988
0 0.386 0.6762048192771085 0.06 0.2801204819277109
2 0.559 0.30873493975903615 0.078 0.05120481927710844
