56 0.117 0.5453333333333333 0.23 0.49866666666666665
56 0.289 0.33066666666666666 0.066 0.192
57 0.631 0.5093333333333333 0.5660000000000001 0.5226666666666666
39 0.28200000000000003 0.2906666666666667 0.024 0.08
0 0.579 0.5813333333333334 0.17400000000000002 0.384
