2 0.5233160621761658 0.474609375 0.046632124352331605 0.05859375
3 0.6878238341968912 0.609375 0.17357512953367876 0.2890625
0 0.47020725388601037 0.537109375 0.044041450777202076 0.23828125
0 0.5634715025906736 0.44140625 0.02849740932642487 0.09375
0 0.5893782383419689 0.51953125 0.06994818652849741 0.21875
0 0.5582901554404145 0.55859375 0.11658031088082901 0.2265625
0 0.6709844559585493 0.53125 0.11398963730569948 0.3203125
