58 0.197 0.5133333333333333 0.11 0.16799999999999998
56 0.164 0.7506666666666666 0.17200000000000001 0.37066666666666664
60 0.226 0.736 0.316 0.36266666666666664
56 0.314 0.6626666666666666 0.10400000000000001 0.3173333333333333
