6 0.35000000000000003 0.6053333333333333 0.6960000000000001 0.46399999999999997
6 0.068 0.4973333333333333 0.132 0.11466666666666667
0 0.64 0.5439999999999999 0.04 0.11733333333333333
0 0.671 0.5466666666666666 0.03 0.12266666666666666
0 0.7030000000000001 0.6106666666666667 0.062 0.19733333333333333
0 0.9450000000000001 0.6186666666666667 0.058 0.224
