39 0.428 0.43066666666666664 0.036000000000000004 0.14666666666666667
60 0.517 0.7306666666666667 0.554 0.5386666666666666
0 0.652 0.416 0.17200000000000001 0.4106666666666667
0 0.28300000000000003 0.45866666666666667 0.178 0.4533333333333333
0 0.776 0.6173333333333333 0.448 0.7653333333333333
0 0.147 0.5693333333333334 0.266 0.6373333333333333
0 0.723 0.488 0.25 0.4693333333333333
