39 0.268 0.755 0.088 0.146
0 0.36266666666666664 0.937 0.576 0.126
0 0.46399999999999997 0.8270000000000001 0.352 0.262
0 0.6013333333333333 0.259 0.23199999999999998 0.226
0 0.7026666666666667 0.191 0.072 0.082
