18 0.732 0.7710674157303371 0.10400000000000001 0.09269662921348315
18 0.558 0.723314606741573 0.068 0.09831460674157302
18 0.52 0.7289325842696629 0.064 0.08707865168539325
18 0.438 0.7064606741573034 0.06 0.08707865168539325
18 0.399 0.6952247191011236 0.054 0.07584269662921347
18 0.353 0.6825842696629213 0.046 0.07865168539325842
18 0.27 0.6643258426966292 0.052000000000000005 0.047752808988764044
