1 0.176 0.5495495495495496 0.18 0.5765765765765766
0 0.854 0.3993993993993994 0.192 0.7927927927927928
0 0.603 0.5645645645645646 0.294 0.8708708708708709
0 0.342 0.5375375375375375 0.23600000000000002 0.8408408408408409
