56 0.669 0.5546666666666666 0.11800000000000001 0.144
56 0.8210000000000001 0.5493333333333333 0.114 0.13333333333333333
57 0.191 0.5559999999999999 0.37 0.30133333333333334
60 0.757 0.656 0.486 0.096
