6 0.5 0.42238805970149257 0.996 0.8388059701492537
0 0.381 0.6417910447761194 0.202 0.4
0 0.20600000000000002 0.5880597014925373 0.168 0.2865671641791045
0 0.073 0.6238805970149254 0.13 0.2746268656716418
