39 0.46 0.6759999999999999 0.056 0.24266666666666667
39 0.503 0.536 0.034 0.16533333333333333
60 0.493 0.764 0.558 0.472
0 0.872 0.6506666666666666 0.256 0.6986666666666667
0 0.785 0.5933333333333333 0.242 0.696
0 0.28 0.516 0.23600000000000002 0.39199999999999996
0 0.151 0.6546666666666666 0.294 0.6906666666666667
39 0.461 0.5333333333333333 0.034 0.15466666666666667
