39 0.492 0.8783783783783784 0.056 0.23723723723723725
39 0.396 0.6861861861861862 0.068 0.21921921921921922
39 0.317 0.6876876876876877 0.11800000000000001 0.16816816816816815
39 0.139 0.9099099099099099 0.062 0.17417417417417416
39 0.316 0.9039039039039038 0.044 0.1921921921921922
60 0.365 0.8783783783783784 0.726 0.23723723723723725
0 0.589 0.6771771771771772 0.442 0.6456456456456456
0 0.226 0.5465465465465466 0.292 0.5465465465465466
