56 0.507 0.5285285285285285 0.27 0.5525525525525525
56 0.053 0.3363363363363363 0.10200000000000001 0.25825825825825827
56 0.357 0.44894894894894893 0.218 0.5435435435435435
60 0.258 0.47597597597597596 0.504 0.5795795795795796
60 0.509 0.8828828828828829 0.722 0.23423423423423423
0 0.809 0.5720720720720721 0.382 0.8558558558558559
0 0.156 0.5975975975975976 0.308 0.8048048048048048
58 0.591 0.1996996996996997 0.21 0.3933933933933934
