39 0.298 0.7866666666666666 0.036000000000000004 0.16533333333333333
56 0.631 0.5853333333333333 0.082 0.06666666666666667
56 0.684 0.692 0.07200000000000001 0.2373333333333333
57 0.873 0.7933333333333333 0.254 0.41333333333333333
0 0.34400000000000003 0.5893333333333333 0.108 0.21333333333333332
60 0.382 0.8186666666666667 0.664 0.36266666666666664
