62 0.8986486486486487 0.458 0.20270270270270271 0.268
0 0.8283783783783785 0.186 0.2945945945945946 0.276
16 0.4918918918918919 0.536 0.7135135135135136 0.596
56 0.38648648648648654 0.759 0.572972972972973 0.314
56 0.47972972972972977 0.894 0.672972972972973 0.212
