17 0.6950000000000001 0.5173333333333333 0.322 0.432
17 0.518 0.5213333333333333 0.304 0.37066666666666664
0 0.543 0.324 0.082 0.20533333333333334
0 0.722 0.39066666666666666 0.116 0.2906666666666667
