8 0.6910000000000001 0.6146666666666667 0.262 0.11466666666666667
8 0.22 0.64 0.26 0.07466666666666666
8 0.886 0.372 0.16 0.056
8 0.717 0.39599999999999996 0.182 0.07733333333333334
8 0.5630000000000001 0.42 0.218 0.088
8 0.542 0.33466666666666667 0.112 0.034666666666666665
8 0.083 0.8466666666666667 0.162 0.08266666666666667
8 0.047 0.7733333333333333 0.09 0.05333333333333333
8 0.332 0.48666666666666664 0.20800000000000002 0.07733333333333334
8 0.378 0.492 0.18 0.050666666666666665
8 0.521 0.47333333333333333 0.17 0.06133333333333333
8 0.359 0.45199999999999996 0.198 0.06133333333333333
8 0.652 0.31866666666666665 0.12 0.04
8 0.747 0.308 0.10200000000000001 0.034666666666666665
8 0.8190000000000001 0.29466666666666663 0.10200000000000001 0.04
8 0.056 0.5173333333333333 0.108 0.042666666666666665
