19 0.406 0.476 0.152 0.14666666666666667
19 0.639 0.42933333333333334 0.062 0.112
19 0.5710000000000001 0.45866666666666667 0.05 0.10133333333333333
19 0.519 0.46266666666666667 0.054 0.10933333333333332
19 0.325 0.48933333333333334 0.054 0.104
