0 0.524 0.529 0.344 0.486
0 0.3133333333333333 0.45 0.6213333333333333 0.712
0 0.156 0.23900000000000002 0.30666666666666664 0.47400000000000003
39 0.5733333333333334 0.31 0.05333333333333333 0.036000000000000004
39 0.17466666666666666 0.5 0.06133333333333333 0.056
