2 0.889 0.476 0.222 0.216
0 0.318 0.64 0.356 0.72
0 0.74 0.6293333333333333 0.452 0.7413333333333333
0 0.545 0.6013333333333333 0.218 0.7973333333333333
0 0.834 0.3506666666666667 0.032 0.08266666666666667
0 0.89 0.344 0.036000000000000004 0.09066666666666666
