17 0.152 0.6573333333333333 0.124 0.264
17 0.332 0.6839999999999999 0.224 0.39199999999999996
17 0.417 0.6666666666666666 0.198 0.352
0 0.531 0.19866666666666666 0.10200000000000001 0.22133333333333333
0 0.594 0.14933333333333332 0.076 0.13866666666666666
