6 0.684 0.5794270833333333 0.628 0.8255208333333333
0 0.439 0.5690104166666666 0.49 0.7317708333333333
0 0.552 0.5416666666666666 0.132 0.5520833333333333
0 0.164 0.4036458333333333 0.156 0.22916666666666666
