14 0.372 0.663 0.4666666666666667 0.518
14 0.6693333333333333 0.519 0.5706666666666667 0.314
14 0.7693333333333333 0.392 0.12533333333333332 0.064
14 0.29466666666666663 0.497 0.27466666666666667 0.166
14 0.03733333333333333 0.281 0.06933333333333333 0.05
14 0.19733333333333333 0.101 0.128 0.054
