3 0.592 0.6074660633484164 0.724 0.6719457013574661
0 0.542 0.3269230769230769 0.304 0.5
0 0.243 0.24095022624434392 0.33 0.414027149321267
3 0.456 0.41855203619909503 0.64 0.502262443438914
3 0.223 0.4219457013574661 0.326 0.40950226244343896
