8 0.462 0.48 0.096 0.08533333333333333
8 0.918 0.48266666666666663 0.16 0.058666666666666666
0 0.893 0.424 0.082 0.10133333333333333
0 0.9550000000000001 0.44266666666666665 0.078 0.13866666666666666
0 0.457 0.41333333333333333 0.13 0.08533333333333333
