39 0.29429429429429427 0.38 0.3063063063063063 0.704
60 0.5 0.74 0.993993993993994 0.52
0 0.12912912912912913 0.162 0.25225225225225223 0.32
0 0.8393393393393394 0.192 0.3213213213213213 0.38
0 0.512012012012012 0.098 0.2852852852852853 0.188
