62 0.06684491978609625 0.647 0.1283422459893048 0.214
58 0.23262032085561496 0.631 0.2192513368983957 0.166
0 0.4959893048128342 0.749 0.43582887700534756 0.47400000000000003
56 0.7058823529411764 0.762 0.2192513368983957 0.3
