57 0.501 0.5373333333333333 0.994 0.9253333333333333
0 0.076 0.3733333333333333 0.148 0.6026666666666667
0 0.169 0.572 0.334 0.856
0 0.365 0.628 0.35000000000000003 0.744
0 0.6970000000000001 0.6333333333333333 0.606 0.7333333333333333
