8 0.7957957957957957 0.44 0.06006006006006006 0.028
8 0.6921921921921922 0.55 0.14114114114114115 0.116
8 0.28378378378378377 0.546 0.13513513513513514 0.112
0 0.45495495495495497 0.5730000000000001 0.22522522522522523 0.442
0 0.04954954954954955 0.588 0.09309309309309309 0.168
0 0.2987987987987988 0.5730000000000001 0.06906906906906907 0.11800000000000001
