56 0.296 0.528 0.252 0.25066666666666665
57 0.71 0.7 0.5760000000000001 0.6
0 0.733 0.6546666666666666 0.534 0.4666666666666667
0 0.619 0.6813333333333333 0.514 0.6373333333333333
0 0.255 0.44666666666666666 0.274 0.17866666666666667
