8 0.404 0.7773333333333333 0.308 0.2906666666666667
8 0.598 0.7986666666666666 0.1 0.056
8 0.044 0.688 0.084 0.2773333333333333
8 0.381 0.48266666666666663 0.646 0.3413333333333333
8 0.876 0.7826666666666666 0.10400000000000001 0.056
8 0.28500000000000003 0.7533333333333333 0.122 0.12533333333333332
8 0.5740000000000001 0.6746666666666666 0.096 0.13333333333333333
8 0.682 0.7053333333333333 0.096 0.056
8 0.657 0.6546666666666666 0.11 0.06133333333333333
8 0.782 0.772 0.108 0.056
8 0.962 0.7653333333333333 0.076 0.048
