39 0.862 0.9173333333333333 0.06 0.16533333333333333
57 0.486 0.516 0.968 0.968
1 0.758 0.27999999999999997 0.484 0.5546666666666666
39 0.606 0.47733333333333333 0.052000000000000005 0.12266666666666666
0 0.41300000000000003 0.5733333333333334 0.63 0.8533333333333333
0 0.596 0.5186666666666666 0.64 0.9626666666666667
0 0.752 0.324 0.496 0.6213333333333333
