58 0.17300000000000001 0.6373333333333333 0.23 0.24533333333333332
58 0.314 0.524 0.096 0.17333333333333334
58 0.485 0.5066666666666666 0.094 0.24533333333333332
57 0.8230000000000001 0.636 0.14200000000000002 0.296
56 0.41400000000000003 0.7173333333333333 0.28 0.256
