6 0.20600000000000002 0.5374251497005988 0.404 0.9251497005988024
0 0.393 0.7110778443113773 0.042 0.15868263473053892
0 0.444 0.6691616766467067 0.028 0.09281437125748504
0 0.47100000000000003 0.6736526946107785 0.026000000000000002 0.09580838323353294
