57 0.502 0.6081871345029239 0.976 0.7602339181286549
0 0.627 0.5204678362573099 0.37 0.9298245614035088
0 0.332 0.6198830409356725 0.232 0.7309941520467835
0 0.389 0.6096491228070176 0.17400000000000002 0.26023391812865493
0 0.727 0.5160818713450293 0.214 0.29532163742690054
