19 0.6980000000000001 0.48717948717948717 0.24 0.5567765567765568
19 0.528 0.5476190476190477 0.332 0.5824175824175825
19 0.381 0.48717948717948717 0.28600000000000003 0.5128205128205128
19 0.783 0.29853479853479853 0.078 0.3626373626373626
19 0.863 0.3131868131868132 0.11 0.38461538461538464
14 0.342 0.5934065934065934 0.056 0.1758241758241758
14 0.262 0.8040293040293041 0.068 0.19413919413919414
14 0.17400000000000002 0.6117216117216118 0.088 0.14652014652014653
