18 0.579 0.42792792792792794 0.11800000000000001 0.08708708708708708
18 0.226 0.509009009009009 0.116 0.12312312312312312
18 0.649 0.5945945945945946 0.05 0.17417417417417416
18 0.556 0.5480480480480481 0.124 0.26726726726726724
18 0.337 0.4954954954954955 0.134 0.21621621621621623
18 0.7010000000000001 0.5780780780780781 0.17400000000000002 0.2012012012012012
