16 0.6337792642140468 0.624 0.6053511705685619 0.396
0 0.5451505016722408 0.525 0.9096989966555183 0.9500000000000001
0 0.09364548494983277 0.171 0.1806020066889632 0.246
60 0.47157190635451507 0.6880000000000001 0.923076923076923 0.20400000000000001
