56 0.548 0.7786666666666666 0.34 0.44266666666666665
56 0.781 0.6733333333333333 0.28200000000000003 0.5573333333333333
60 0.47700000000000004 0.7013333333333334 0.834 0.5973333333333333
56 0.247 0.7746666666666666 0.278 0.45066666666666666
56 0.384 0.448 0.184 0.064
