58 0.891 0.5106666666666666 0.218 0.22666666666666666
56 0.465 0.6413333333333333 0.162 0.36533333333333334
56 0.599 0.5626666666666666 0.122 0.21866666666666665
56 0.629 0.7266666666666667 0.258 0.5146666666666666
57 0.052000000000000005 0.756 0.1 0.48266666666666663
57 0.848 0.7933333333333333 0.296 0.39199999999999996
