19 0.663 0.5227920227920229 0.674 0.9544159544159545
19 0.216 0.584045584045584 0.404 0.8262108262108262
19 0.878 0.5242165242165242 0.244 0.6894586894586895
19 0.365 0.16951566951566951 0.134 0.07122507122507123
