62 0.70625 0.28611111111111115 0.0875 0.12222222222222223
0 0.28541666666666665 0.6069444444444445 0.4166666666666667 0.7861111111111111
0 0.7708333333333334 0.6041666666666667 0.20416666666666666 0.7916666666666667
0 0.3927083333333333 0.5875 0.16458333333333333 0.8250000000000001
56 0.5333333333333333 0.5180555555555556 0.12083333333333333 0.19722222222222224
0 0.7052083333333333 0.28750000000000003 0.06041666666666667 0.06944444444444445
