3 0.7604790419161677 0.778 0.3592814371257485 0.152
0 0.8817365269461078 0.539 0.23652694610778444 0.394
0 0.9341317365269461 0.381 0.1317365269461078 0.198
0 0.20059880239520958 0.231 0.19161676646706588 0.306
0 0.3008982035928144 0.218 0.11077844311377247 0.304
3 0.9416167664670659 0.774 0.11676646706586827 0.272
