39 0.5650000000000001 0.17466666666666666 0.14200000000000002 0.344
60 0.329 0.46266666666666667 0.33 0.408
60 0.631 0.772 0.738 0.45599999999999996
0 0.75 0.444 0.5 0.6
0 0.227 0.688 0.45 0.624
0 0.146 0.30533333333333335 0.18 0.2373333333333333
56 0.4 0.46799999999999997 0.212 0.3813333333333333
56 0.371 0.27599999999999997 0.058 0.072
56 0.7000000000000001 0.296 0.06 0.10133333333333333
0 0.679 0.20533333333333334 0.146 0.304
0 0.9420000000000001 0.17333333333333334 0.116 0.18666666666666665
60 0.844 0.3413333333333333 0.312 0.25066666666666665
