8 0.91 0.17466666666666666 0.18 0.344
8 0.5710000000000001 0.5013333333333333 0.858 0.9973333333333333
0 0.47900000000000004 0.45866666666666667 0.162 0.5706666666666667
0 0.313 0.37066666666666664 0.17 0.6133333333333333
