5 0.499 0.5690690690690691 0.514 0.7597597597597597
0 0.836 0.6201201201201201 0.068 0.34534534534534533
0 0.934 0.6276276276276276 0.064 0.3303303303303303
0 0.974 0.6381381381381381 0.052000000000000005 0.5255255255255256
0 0.876 0.6366366366366366 0.052000000000000005 0.2882882882882883
0 0.801 0.6246246246246246 0.05 0.26426426426426425
0 0.752 0.6111111111111112 0.04 0.26726726726726724
0 0.676 0.42042042042042044 0.048 0.07207207207207207
2 0.775 0.6096096096096096 0.058 0.18618618618618618
