5 0.468 0.5666666666666667 0.66 0.696
5 0.033 0.6626666666666666 0.062 0.14666666666666667
2 0.866 0.7959999999999999 0.268 0.35466666666666663
2 0.023 0.7653333333333333 0.042 0.128
0 0.591 0.6466666666666666 0.054 0.088
