62 0.18303571428571427 0.5491071428571428 0.17410714285714285 0.2232142857142857
1 0.8872767857142857 0.6458333333333333 0.22544642857142855 0.3273809523809524
1 0.9107142857142857 0.6800595238095237 0.17857142857142855 0.33035714285714285
