58 0.76 0.5733333333333334 0.22 0.7786666666666666
58 0.963 0.25466666666666665 0.074 0.072
56 0.056 0.6933333333333334 0.088 0.176
56 0.094 0.8893333333333333 0.184 0.22133333333333333
58 0.326 0.5786666666666667 0.064 0.096
56 0.10400000000000001 0.6293333333333333 0.076 0.15466666666666667
