0 0.442 0.5881104033970276 0.12 0.2208067940552017
58 0.162 0.3917197452229299 0.128 0.16348195329087048
58 0.5630000000000001 0.416135881104034 0.15 0.14012738853503184
58 0.243 0.27388535031847133 0.13 0.10191082802547771
58 0.07100000000000001 0.19639065817409765 0.114 0.12951167728237792
