5 0.528 0.47590361445783136 0.644 0.7409638554216867
2 0.11900000000000001 0.6912650602409639 0.234 0.23192771084337352
0 0.899 0.7228915662650602 0.098 0.27108433734939763
0 0.782 0.5707831325301205 0.044 0.12349397590361447
0 0.652 0.5557228915662651 0.04 0.08734939759036145
0 0.687 0.5572289156626506 0.03 0.10240963855421688
0 0.6 0.5662650602409639 0.06 0.12650602409638556
