19 0.64 0.6908284023668639 0.18222222222222223 0.3875739644970414
19 0.24888888888888888 0.6405325443786982 0.29777777777777775 0.3757396449704142
19 0.5344444444444444 0.57396449704142 0.10888888888888888 0.21301775147928995
19 0.8088888888888889 0.6286982248520709 0.19111111111111112 0.28106508875739644
19 0.04 0.6183431952662721 0.07555555555555556 0.3076923076923077
19 0.39 0.5488165680473372 0.22 0.23372781065088757
