39 0.7275574112734864 0.5812324929971989 0.027139874739039664 0.08683473389355742
56 0.5991649269311065 0.8249299719887955 0.22129436325678495 0.3445378151260504
56 0.5083507306889352 0.8095238095238095 0.13569937369519833 0.38095238095238093
56 0.278705636743215 0.6134453781512605 0.10647181628392484 0.10644257703081232
60 0.44676409185803756 0.8179271708683473 0.5887265135699373 0.3641456582633053
56 0.30167014613778703 0.8571428571428571 0.23173277661795405 0.2857142857142857
56 0.16910229645093944 0.8319327731092437 0.050104384133611686 0.33613445378151263
58 0.10229645093945719 0.21008403361344538 0.17118997912317327 0.13445378151260504
