3 0.463 0.596096096096096 0.75 0.8078078078078078
0 0.20600000000000002 0.25675675675675674 0.112 0.44144144144144143
0 0.581 0.3078078078078078 0.066 0.44144144144144143
0 0.645 0.3048048048048048 0.11800000000000001 0.5075075075075075
