58 0.908 0.344 0.18 0.31466666666666665
39 0.487 0.30933333333333335 0.042 0.14933333333333332
57 0.493 0.6746666666666666 0.982 0.64
0 0.254 0.704 0.324 0.592
0 0.418 0.6813333333333333 0.228 0.6373333333333333
0 0.604 0.6573333333333333 0.332 0.6853333333333333
0 0.6990000000000001 0.616 0.446 0.768
