19 0.626 0.5674931129476584 0.092 0.03856749311294766
19 0.664 0.6707988980716254 0.20800000000000002 0.16804407713498623
19 0.419 0.6060606060606061 0.074 0.0881542699724518
19 0.278 0.6349862258953168 0.088 0.14049586776859505
19 0.154 0.8126721763085399 0.296 0.34710743801652894
19 0.455 0.6749311294765841 0.14200000000000002 0.18732782369146006
