56 0.397 0.36266666666666664 0.262 0.288
60 0.509 0.724 0.9580000000000001 0.5519999999999999
56 0.932 0.43466666666666665 0.136 0.224
56 0.177 0.7746666666666666 0.35000000000000003 0.45066666666666666
56 0.733 0.7706666666666666 0.534 0.45866666666666667
