56 0.109 0.7493333333333333 0.202 0.46399999999999997
56 0.396 0.8039999999999999 0.10400000000000001 0.25866666666666666
56 0.524 0.6746666666666666 0.132 0.21333333333333332
62 0.376 0.4573333333333333 0.07200000000000001 0.11466666666666667
