60 0.501 0.6453333333333333 0.99 0.7093333333333333
39 0.404 0.22266666666666665 0.048 0.16266666666666665
15 0.526 0.6386666666666666 0.5 0.504
56 0.8170000000000001 0.21733333333333332 0.366 0.42933333333333334
