1 0.656 0.6482035928143713 0.10400000000000001 0.3083832335329342
1 0.337 0.7050898203592815 0.11800000000000001 0.3263473053892216
0 0.334 0.5254491017964072 0.132 0.5299401197604791
0 0.665 0.49850299401197606 0.126 0.5119760479041916
