4 0.921 0.2072072072072072 0.154 0.15015015015015015
4 0.793 0.15615615615615616 0.322 0.15615615615615616
4 0.457 0.35435435435435436 0.91 0.4804804804804805
2 0.736 0.7132132132132132 0.528 0.5735735735735735
