8 0.8260000000000001 0.8666666666666666 0.244 0.13866666666666666
8 0.277 0.6826666666666666 0.546 0.13866666666666666
0 0.687 0.6719999999999999 0.306 0.39999999999999997
0 0.261 0.64 0.28200000000000003 0.22933333333333333
