39 0.31466666666666665 0.6950000000000001 0.11733333333333333 0.254
39 0.8173333333333334 0.806 0.12533333333333332 0.3
0 0.328 0.47200000000000003 0.48533333333333334 0.56
0 0.6853333333333333 0.55 0.528 0.508
