0 0.203 0.4839572192513369 0.326 0.9304812834224598
0 0.527 0.7874331550802138 0.662 0.42513368983957217
0 0.787 0.676470588235294 0.246 0.6042780748663101
56 0.339 0.4572192513368984 0.59 0.6417112299465241
