56 0.729 0.5213333333333333 0.10200000000000001 0.21066666666666667
56 0.637 0.592 0.11 0.27199999999999996
56 0.335 0.6 0.10200000000000001 0.27199999999999996
56 0.523 0.66 0.11800000000000001 0.296
60 0.488 0.6173333333333333 0.352 0.264
