57 0.6970000000000001 0.6606606606606606 0.454 0.37237237237237236
0 0.539 0.581081081081081 0.28600000000000003 0.22522522522522523
0 0.8 0.6171171171171171 0.20400000000000001 0.36336336336336333
0 0.231 0.7432432432432432 0.218 0.5135135135135135
0 0.10200000000000001 0.5690690690690691 0.088 0.14114114114114115
0 0.731 0.8693693693693694 0.27 0.26126126126126126
0 0.528 0.8183183183183184 0.272 0.34534534534534533
0 0.594 0.9474474474474475 0.108 0.10510510510510511
