62 0.30666666666666664 0.367 0.144 0.09
62 0.6 0.335 0.256 0.13
0 0.584 0.71 0.5813333333333334 0.58
0 0.24933333333333332 0.628 0.11466666666666667 0.168
0 0.39466666666666667 0.627 0.12266666666666666 0.158
