4 0.47900000000000004 0.46441281138790036 0.542 0.3736654804270462
4 0.33 0.3754448398576512 0.128 0.12455516014234874
0 0.40800000000000003 0.7277580071174377 0.036000000000000004 0.17437722419928825
0 0.07 0.7597864768683273 0.036000000000000004 0.17437722419928825
