56 0.098 0.3768768768768769 0.064 0.12312312312312312
56 0.191 0.3948948948948949 0.074 0.10510510510510511
56 0.321 0.41291291291291293 0.058 0.07507507507507508
56 0.775 0.4114114114114114 0.058 0.0960960960960961
56 0.9 0.3918918918918919 0.06 0.1111111111111111
