0 0.678 0.6066666666666667 0.06 0.30666666666666664
0 0.535 0.5426666666666666 0.098 0.12533333333333332
0 0.024 0.5813333333333334 0.04 0.256
0 0.073 0.5439999999999999 0.042 0.13866666666666666
0 0.227 0.4693333333333333 0.186 0.33066666666666666
17 0.277 0.6626666666666666 0.362 0.45599999999999996
