8 0.627 0.3973333333333333 0.098 0.22933333333333333
8 0.778 0.44266666666666665 0.056 0.11733333333333333
8 0.9380000000000001 0.45866666666666667 0.044 0.096
8 0.314 0.5013333333333333 0.62 0.9973333333333333
