0 0.078 0.2826666666666667 0.10400000000000001 0.45866666666666667
0 0.315 0.22133333333333333 0.07 0.26666666666666666
0 0.371 0.208 0.058 0.20266666666666666
0 0.979 0.16666666666666666 0.042 0.072
2 0.457 0.42666666666666664 0.91 0.8426666666666667
2 0.19 0.21466666666666667 0.108 0.09866666666666667
