0 0.789 0.5784313725490197 0.246 0.6775599128540306
0 0.273 0.34313725490196084 0.218 0.6252723311546842
1 0.767 0.7755991285403051 0.21 0.43137254901960786
1 0.27 0.5272331154684097 0.196 0.48801742919389984
