2 0.088 0.568 0.148 0.10666666666666666
2 0.214 0.572 0.132 0.10933333333333332
2 0.332 0.576 0.12 0.10666666666666666
2 0.467 0.5826666666666667 0.10200000000000001 0.104
2 0.611 0.584 0.098 0.10666666666666666
2 0.779 0.596 0.11800000000000001 0.11466666666666667
2 0.915 0.6 0.14200000000000002 0.11733333333333333
