39 0.397 0.8453333333333333 0.07 0.30933333333333335
0 0.525 0.488 0.666 0.5013333333333333
0 0.731 0.6213333333333333 0.538 0.7573333333333333
0 0.121 0.6226666666666666 0.23800000000000002 0.7546666666666666
