5 0.706 0.46439169139465875 0.16 0.25816023738872407
0 0.842 0.5103857566765578 0.036000000000000004 0.10682492581602374
2 0.883 0.7359050445103857 0.234 0.29080118694362017
2 0.505 0.5326409495548962 0.23800000000000002 0.2522255192878338
2 0.225 0.5385756676557863 0.258 0.19881305637982197
2 0.10300000000000001 0.8026706231454006 0.202 0.39465875370919884
