0 0.494 0.6377245508982037 0.136 0.6646706586826348
0 0.588 0.562874251497006 0.112 0.46107784431137727
0 0.641 0.4625748502994012 0.054 0.15868263473053892
3 0.483 0.6736526946107785 0.562 0.4850299401197605
