3 0.842 0.4516616314199396 0.20400000000000001 0.16012084592145015
3 0.64 0.5045317220543807 0.116 0.229607250755287
3 0.501 0.5694864048338368 0.134 0.24471299093655588
3 0.255 0.6132930513595166 0.162 0.37462235649546827
0 0.859 0.338368580060423 0.10200000000000001 0.2416918429003021
0 0.657 0.4033232628398791 0.134 0.31722054380664655
0 0.496 0.4395770392749245 0.16 0.3957703927492447
0 0.429 0.4199395770392749 0.122 0.36253776435045315
0 0.266 0.4788519637462236 0.176 0.4501510574018127
