5 0.031 0.35135135135135137 0.058 0.3183183183183183
5 0.091 0.36786786786786785 0.062 0.14114114114114115
0 0.23700000000000002 0.551051051051051 0.074 0.3213213213213213
0 0.332 0.566066066066066 0.06 0.34534534534534533
0 0.372 0.5105105105105106 0.028 0.2222222222222222
0 0.424 0.6336336336336337 0.076 0.45645645645645644
0 0.483 0.5945945945945946 0.05 0.36036036036036034
0 0.553 0.5990990990990991 0.08600000000000001 0.47147147147147145
0 0.602 0.6321321321321322 0.088 0.47147147147147145
0 0.64 0.6696696696696697 0.076 0.5585585585585585
0 0.68 0.6756756756756757 0.088 0.6486486486486487
0 0.732 0.6951951951951952 0.136 0.6036036036036035
0 0.8290000000000001 0.6876876876876877 0.138 0.6246246246246246
0 0.927 0.6876876876876877 0.146 0.6246246246246246
