60 0.586 0.7252252252252253 0.8280000000000001 0.5495495495495496
39 0.101 0.37987987987987987 0.03 0.12312312312312312
39 0.025 0.36786786786786785 0.026000000000000002 0.11711711711711711
56 0.845 0.7237237237237237 0.226 0.5525525525525525
56 0.623 0.7447447447447447 0.322 0.5105105105105106
56 0.163 0.7477477477477478 0.322 0.5045045045045045
