19 0.841 0.616504854368932 0.318 0.7378640776699028
0 0.115 0.19053398058252424 0.08600000000000001 0.21601941747572814
0 0.038 0.19902912621359223 0.068 0.1844660194174757
0 0.07 0.12864077669902912 0.024 0.05339805825242718
