0 0.27710843373493976 0.521 0.5481927710843374 0.59
0 0.5798192771084337 0.587 0.7921686746987953 0.73
0 0.5662650602409639 0.229 0.1746987951807229 0.214
57 0.5557228915662651 0.642 0.8885542168674699 0.6
