56 0.8973333333333333 0.667 0.12533333333333332 0.158
56 0.5053333333333333 0.656 0.14133333333333334 0.1
56 0.6866666666666666 0.644 0.14666666666666667 0.096
56 0.47866666666666663 0.5640000000000001 0.11466666666666667 0.12
56 0.8626666666666667 0.504 0.088 0.136
56 0.756 0.862 0.13066666666666665 0.176
56 0.6226666666666666 0.933 0.14133333333333334 0.114
56 0.46399999999999997 0.871 0.144 0.15
56 0.49066666666666664 0.749 0.128 0.14200000000000002
60 0.6213333333333333 0.808 0.26666666666666666 0.156
60 0.6013333333333333 0.559 0.21066666666666667 0.098
0 0.732 0.519 0.104 0.11
0 0.5826666666666667 0.481 0.104 0.09
56 0.8493333333333333 0.394 0.09333333333333332 0.10400000000000001
56 0.18533333333333332 0.666 0.11466666666666667 0.14400000000000002
56 0.13599999999999998 0.913 0.15466666666666667 0.154
0 0.06666666666666667 0.877 0.128 0.158
0 0.11866666666666666 0.784 0.104 0.12
0 0.13466666666666666 0.687 0.09866666666666667 0.11800000000000001
0 0.27199999999999996 0.405 0.10133333333333333 0.186
60 0.06666666666666667 0.763 0.128 0.34600000000000003
60 0.9346666666666666 0.378 0.13066666666666665 0.068
