0 0.725 0.5106666666666666 0.326 0.3973333333333333
0 0.537 0.5626666666666666 0.23800000000000002 0.30933333333333335
0 0.455 0.588 0.162 0.27999999999999997
0 0.23500000000000001 0.7013333333333334 0.378 0.5973333333333333
39 0.781 0.84 0.17 0.32
