16 0.366 0.7637795275590551 0.616 0.45144356955380577
16 0.468 0.505249343832021 0.528 0.868766404199475
16 0.781 0.6456692913385826 0.326 0.6089238845144357
56 0.501 0.5026246719160105 0.998 0.994750656167979
