2 0.791 0.6253333333333333 0.41400000000000003 0.2853333333333333
2 0.879 0.5386666666666666 0.242 0.144
2 0.427 0.5599999999999999 0.198 0.17066666666666666
2 0.178 0.5653333333333334 0.352 0.21333333333333332
0 0.6880000000000001 0.44266666666666665 0.092 0.14933333333333332
0 0.596 0.5426666666666666 0.10400000000000001 0.34933333333333333
0 0.555 0.5506666666666666 0.054 0.3173333333333333
0 0.485 0.5786666666666667 0.094 0.3413333333333333
0 0.25 0.604 0.084 0.36533333333333334
0 0.17200000000000001 0.588 0.1 0.3813333333333333
0 0.06 0.576 0.068 0.384
