60 0.644 0.7879999999999999 0.712 0.424
0 0.851 0.4533333333333333 0.298 0.528
0 0.432 0.444 0.26 0.35466666666666663
0 0.388 0.24666666666666665 0.064 0.13066666666666665
0 0.246 0.6346666666666666 0.388 0.7306666666666667
39 0.878 0.6746666666666666 0.068 0.24533333333333332
