2 0.932 0.2853333333333333 0.136 0.128
2 0.8310000000000001 0.2906666666666667 0.17 0.13866666666666666
2 0.719 0.3 0.194 0.14666666666666667
2 0.107 0.356 0.21 0.20533333333333334
2 0.446 0.5413333333333333 0.884 0.5813333333333334
