0 0.463 0.3607784431137725 0.51 0.5239520958083833
16 0.599 0.7859281437125749 0.6900000000000001 0.4161676646706587
58 0.442 0.14520958083832336 0.376 0.2784431137724551
56 0.498 0.502994011976048 0.992 0.9940119760479043
