60 0.468 0.6333333333333333 0.932 0.7333333333333333
56 0.6960000000000001 0.58 0.41600000000000004 0.8346666666666667
56 0.425 0.6386666666666666 0.626 0.7226666666666667
56 0.20400000000000001 0.6386666666666666 0.404 0.7226666666666667
