5 0.48266666666666663 0.759 0.49066666666666664 0.226
2 0.7933333333333333 0.757 0.13599999999999998 0.038
2 0.12133333333333333 0.8150000000000001 0.23199999999999998 0.11
0 0.9213333333333333 0.794 0.06666666666666667 0.164
0 0.88 0.781 0.058666666666666666 0.134
0 0.972 0.777 0.056 0.10200000000000001
2 0.364 0.302 0.12533333333333332 0.052000000000000005
