18 0.39 0.5253333333333333 0.148 0.18133333333333332
18 0.558 0.568 0.196 0.19733333333333333
18 0.62 0.5213333333333333 0.2 0.19999999999999998
18 0.726 0.35333333333333333 0.076 0.08266666666666667
