17 0.248 0.5943661971830986 0.444 0.7323943661971831
0 0.784 0.20422535211267606 0.16 0.28450704225352114
0 0.621 0.19014084507042253 0.162 0.29577464788732394
17 0.429 0.6098591549295775 0.49 0.7126760563380282
