57 0.37 0.49466666666666664 0.368 0.328
57 0.767 0.5533333333333333 0.41400000000000003 0.4453333333333333
0 0.68 0.7066666666666667 0.308 0.45866666666666667
0 0.73 0.46799999999999997 0.248 0.34933333333333333
0 0.631 0.48 0.198 0.4106666666666667
0 0.622 0.4026666666666667 0.148 0.29333333333333333
0 0.497 0.3933333333333333 0.126 0.2373333333333333
0 0.4 0.4013333333333333 0.152 0.23199999999999998
