4 0.28800000000000003 0.48125 0.084 0.0775
4 0.334 0.5700000000000001 0.08 0.075
4 0.387 0.64625 0.078 0.0725
4 0.42 0.5650000000000001 0.084 0.075
4 0.464 0.49125 0.076 0.0775
4 0.557 0.5 0.078 0.075
4 0.42 0.4175 0.08 0.075
4 0.331 0.39375 0.078 0.0775
4 0.374 0.29625 0.076 0.0775
