14 0.712 0.2802690582959641 0.428 0.452914798206278
14 0.727 0.5448430493273543 0.446 0.273542600896861
14 0.261 0.30493273542600896 0.43 0.4304932735426009
14 0.426 0.6367713004484304 0.396 0.6457399103139013
14 0.227 0.7152466367713004 0.398 0.4349775784753363
