19 0.673 0.27999999999999997 0.13 0.10666666666666666
19 0.11 0.3333333333333333 0.18 0.15466666666666667
19 0.246 0.39599999999999996 0.216 0.13599999999999998
0 0.488 0.8266666666666667 0.584 0.3466666666666667
