0 0.589 0.4697986577181208 0.382 0.854586129753915
0 0.487 0.19239373601789708 0.106 0.3176733780760626
0 0.8250000000000001 0.20134228187919462 0.078 0.3221476510067114
3 0.47700000000000004 0.6017897091722595 0.878 0.7785234899328859
