4 0.646 0.1092814371257485 0.096 0.15868263473053892
4 0.678 0.3907185628742515 0.1 0.15269461077844312
4 0.712 0.5224550898203593 0.088 0.15269461077844312
4 0.5660000000000001 0.6916167664670659 0.088 0.1377245508982036
4 0.356 0.9071856287425151 0.092 0.15568862275449102
