62 0.28400000000000003 0.41733333333333333 0.16 0.17333333333333334
57 0.604 0.7613333333333333 0.624 0.47733333333333333
58 0.805 0.18666666666666665 0.39 0.36266666666666664
58 0.081 0.3506666666666667 0.10200000000000001 0.32266666666666666
62 0.875 0.568 0.138 0.2613333333333333
58 0.40900000000000003 0.13999999999999999 0.062 0.09866666666666667
