6 0.562 0.5690690690690691 0.876 0.45345345345345345
6 0.076 0.49099099099099097 0.148 0.1831831831831832
0 0.48 0.6711711711711712 0.096 0.2132132132132132
0 0.68 0.4024024024024024 0.052000000000000005 0.08408408408408408
