16 0.673 0.7506666666666666 0.234 0.49866666666666665
16 0.487 0.8293333333333333 0.374 0.30933333333333335
0 0.445 0.6213333333333333 0.546 0.7573333333333333
56 0.5 0.6853333333333333 0.604 0.6293333333333333
