60 0.5147058823529411 0.6880000000000001 0.4572192513368984 0.312
56 0.7941176470588235 0.682 0.24064171122994651 0.316
56 0.7794117647058824 0.64 0.17379679144385027 0.272
56 0.7286096256684491 0.604 0.13636363636363635 0.216
56 0.5200534759358288 0.739 0.27540106951871657 0.382
56 0.24866310160427807 0.5740000000000001 0.1764705882352941 0.152
56 0.23128342245989303 0.673 0.22727272727272727 0.314
