56 0.342 0.6493333333333333 0.276 0.4453333333333333
56 0.684 0.636 0.188 0.42933333333333334
56 0.804 0.716 0.252 0.504
56 0.808 0.5426666666666666 0.164 0.2906666666666667
60 0.837 0.6639999999999999 0.326 0.3733333333333333
