60 0.337 0.7919999999999999 0.666 0.416
0 0.626 0.616 0.44 0.7626666666666666
0 0.9430000000000001 0.5559999999999999 0.114 0.888
39 0.266 0.5533333333333333 0.036000000000000004 0.16799999999999998
39 0.196 0.5893333333333333 0.06 0.176
