57 0.551 0.5866666666666667 0.51 0.4373333333333333
62 0.221 0.3173333333333333 0.14200000000000002 0.18133333333333332
58 0.14300000000000002 0.5093333333333333 0.28200000000000003 0.9813333333333333
