3 0.47800000000000004 0.8368580060422961 0.332 0.32628398791540786
0 0.07 0.4561933534743202 0.124 0.5558912386706949
0 0.373 0.5075528700906344 0.17 0.5015105740181269
0 0.769 0.5996978851963746 0.378 0.8006042296072508
