1 0.45945945945945943 0.659 0.22822822822822822 0.074
1 0.6876876876876877 0.675 0.2222222222222222 0.082
0 0.8813813813813813 0.607 0.11711711711711711 0.20600000000000002
0 0.8018018018018018 0.595 0.09009009009009009 0.218
