8 0.759 0.26 0.098 0.06666666666666667
8 0.673 0.72 0.302 0.5226666666666666
0 0.459 0.436 0.05 0.24266666666666667
0 0.368 0.42533333333333334 0.052000000000000005 0.18933333333333333
0 0.322 0.44 0.06 0.25066666666666665
0 0.15 0.6666666666666666 0.096 0.30933333333333335
0 0.065 0.6733333333333333 0.082 0.312
58 0.464 0.08533333333333333 0.052000000000000005 0.048
