8 0.606 0.292 0.06 0.07733333333333334
8 0.721 0.19999999999999998 0.066 0.064
8 0.684 0.29333333333333333 0.068 0.06933333333333333
8 0.784 0.29466666666666663 0.064 0.07733333333333334
8 0.849 0.19999999999999998 0.082 0.058666666666666666
8 0.428 0.5986666666666667 0.136 0.19999999999999998
8 0.194 0.35733333333333334 0.156 0.128
8 0.308 0.308 0.088 0.104
8 0.9510000000000001 0.4053333333333333 0.098 0.112
