16 0.255 0.6293333333333333 0.386 0.5013333333333333
16 0.737 0.39199999999999996 0.526 0.2826666666666667
16 0.749 0.8453333333333333 0.402 0.30933333333333335
16 0.7010000000000001 0.648 0.598 0.44266666666666665
