1 0.35135135135135137 0.717 0.43843843843843844 0.5660000000000001
1 0.7507507507507507 0.659 0.3063063063063063 0.538
0 0.36486486486486486 0.502 0.5975975975975976 0.812
0 0.7912912912912913 0.47700000000000004 0.40540540540540543 0.726
