56 0.125 0.7453333333333333 0.246 0.5093333333333333
0 0.375 0.652 0.306 0.696
0 0.601 0.7026666666666667 0.222 0.5946666666666667
0 0.769 0.648 0.31 0.688
0 0.503 0.6906666666666667 0.334 0.6186666666666667
