1 0.897 0.47648902821316613 0.066 0.21316614420062696
1 0.714 0.5454545454545454 0.092 0.2884012539184953
1 0.481 0.7946708463949843 0.254 0.4106583072100313
1 0.193 0.7523510971786833 0.338 0.4952978056426332
0 0.9580000000000001 0.3463949843260188 0.064 0.2727272727272727
0 0.899 0.3855799373040752 0.074 0.30094043887147337
0 0.72 0.43887147335423193 0.108 0.3824451410658307
0 0.47800000000000004 0.6253918495297806 0.20800000000000002 0.5862068965517241
0 0.19 0.5344827586206896 0.272 0.6865203761755485
