60 0.386 0.7586666666666666 0.528 0.48266666666666663
56 0.08 0.7573333333333333 0.152 0.48
0 0.769 0.6866666666666666 0.382 0.6266666666666666
0 0.6910000000000001 0.6466666666666666 0.218 0.6
0 0.482 0.43066666666666664 0.176 0.19999999999999998
0 0.148 0.6746666666666666 0.23600000000000002 0.6506666666666666
39 0.54 0.5026666666666666 0.04 0.13066666666666665
39 0.443 0.4973333333333333 0.034 0.12
39 0.427 0.5226666666666666 0.03 0.10666666666666666
0 0.384 0.74 0.232 0.52
