1 0.573170731707317 0.54 0.3170731707317073 0.28400000000000003
1 0.7872628726287263 0.434 0.22493224932249323 0.232
0 0.7425474254742548 0.324 0.24390243902439024 0.41600000000000004
0 0.5772357723577236 0.41100000000000003 0.2926829268292683 0.366
