3 0.526 0.6178247734138973 0.256 0.3716012084592145
0 0.502 0.4123867069486405 0.20400000000000001 0.486404833836858
0 0.9430000000000001 0.4033232628398791 0.042 0.16012084592145015
2 0.729 0.3474320241691843 0.158 0.09667673716012085
0 0.076 0.36253776435045315 0.036000000000000004 0.1268882175226586
3 0.217 0.39274924471299094 0.082 0.09063444108761329
3 0.792 0.4093655589123867 0.06 0.05740181268882175
