58 0.091 0.49534883720930234 0.058 0.14418604651162792
58 0.148 0.5 0.052000000000000005 0.14418604651162792
58 0.21 0.5 0.064 0.14418604651162792
58 0.19 0.2813953488372093 0.08 0.3023255813953488
58 0.27 0.49534883720930234 0.06 0.14418604651162792
58 0.328 0.49534883720930234 0.056 0.14418604651162792
58 0.608 0.3767441860465116 0.064 0.21395348837209302
58 0.662 0.3581395348837209 0.064 0.16744186046511628
58 0.718 0.3186046511627907 0.068 0.17209302325581394
58 0.762 0.28837209302325584 0.052000000000000005 0.17674418604651163
58 0.806 0.2534883720930233 0.048 0.16279069767441862
58 0.846 0.19534883720930232 0.044 0.21395348837209302
58 0.727 0.6534883720930232 0.05 0.13488372093023254
58 0.482 0.5651162790697675 0.068 0.17209302325581394
58 0.391 0.555813953488372 0.106 0.2
58 0.298 0.6232558139534884 0.088 0.13023255813953488
58 0.195 0.6488372093023256 0.11 0.19069767441860463
58 0.677 0.7813953488372093 0.062 0.16744186046511628
58 0.615 0.8093023255813954 0.062 0.14883720930232558
58 0.5640000000000001 0.7395348837209302 0.052000000000000005 0.17674418604651163
58 0.493 0.7511627906976744 0.078 0.20930232558139533
58 0.44 0.7604651162790698 0.036000000000000004 0.11627906976744186
58 0.39 0.7906976744186046 0.076 0.16744186046511628
58 0.321 0.7790697674418604 0.062 0.19069767441860463
58 0.219 0.8511627906976744 0.158 0.27906976744186046
