1 0.859 0.5165165165165165 0.258 0.37237237237237236
1 0.5630000000000001 0.596096096096096 0.254 0.3933933933933934
1 0.28500000000000003 0.7237237237237237 0.242 0.3783783783783784
1 0.448 0.3138138138138138 0.244 0.3333333333333333
0 0.876 0.3708708708708709 0.232 0.5075075075075075
0 0.58 0.43843843843843844 0.244 0.5525525525525525
0 0.295 0.5855855855855856 0.234 0.5225225225225225
0 0.457 0.21621621621621623 0.246 0.4144144144144144
