58 0.047 0.5135135135135135 0.082 0.5585585585585585
58 0.203 0.44744744744744747 0.234 0.5525525525525525
58 0.116 0.566066066066066 0.156 0.5315315315315315
0 0.537 0.25975975975975973 0.502 0.2552552552552553
