57 0.418 0.8493333333333333 0.47200000000000003 0.30133333333333334
56 0.613 0.6973333333333334 0.322 0.34933333333333333
58 0.796 0.5693333333333334 0.12 0.14666666666666667
39 0.08700000000000001 0.6226666666666666 0.058 0.13599999999999998
58 0.383 0.5546666666666666 0.11 0.36266666666666664
62 0.319 0.4573333333333333 0.066 0.104
