5 0.5690000000000001 0.496 0.682 0.432
0 0.988 0.5026666666666666 0.024 0.152
0 0.9490000000000001 0.508 0.038 0.14133333333333334
2 0.196 0.5013333333333333 0.07200000000000001 0.096
2 0.221 0.7226666666666667 0.438 0.35733333333333334
