0 0.911 0.9006024096385543 0.042 0.16867469879518074
0 0.876 0.8915662650602411 0.044 0.16867469879518074
5 0.654 0.8117469879518072 0.336 0.20180722891566266
5 0.332 0.802710843373494 0.276 0.2680722891566265
