18 0.581 0.8603603603603603 0.08600000000000001 0.14714714714714713
18 0.46900000000000003 0.8243243243243243 0.05 0.13513513513513514
18 0.366 0.8243243243243243 0.06 0.0990990990990991
18 0.323 0.7657657657657657 0.046 0.07207207207207207
18 0.735 0.7237237237237237 0.05 0.04204204204204204
