1 0.598 0.7454068241469816 0.244 0.5091863517060368
1 0.8170000000000001 0.7296587926509186 0.138 0.5406824146981627
0 0.599 0.505249343832021 0.28200000000000003 0.979002624671916
0 0.8230000000000001 0.5524934383202099 0.21 0.89501312335958
0 0.138 0.4986876640419947 0.272 0.9921259842519685
1 0.157 0.7139107611548556 0.31 0.5721784776902887
