0 0.10666666666666666 0.128 0.07466666666666666 0.2
0 0.6106666666666667 0.241 0.208 0.374
0 0.36533333333333334 0.453 0.33599999999999997 0.526
0 0.6639999999999999 0.6960000000000001 0.5013333333333333 0.608
0 0.9413333333333334 0.28700000000000003 0.10666666666666666 0.446
1 0.38 0.659 0.30666666666666664 0.394
1 0.652 0.858 0.5093333333333333 0.28400000000000003
