0 0.7030000000000001 0.48648648648648646 0.126 0.2222222222222222
0 0.793 0.22972972972972971 0.10200000000000001 0.1891891891891892
1 0.812 0.2732732732732733 0.176 0.12012012012012012
1 0.726 0.5615615615615616 0.20400000000000001 0.16216216216216217
