56 0.767 0.6546666666666666 0.078 0.20533333333333334
56 0.685 0.648 0.078 0.19733333333333333
56 0.608 0.6573333333333333 0.076 0.216
56 0.532 0.6626666666666666 0.088 0.216
60 0.654 0.656 0.41200000000000003 0.176
56 0.8230000000000001 0.6386666666666666 0.078 0.21066666666666667
