2 0.605 0.12533333333333332 0.374 0.144
3 0.71 0.18266666666666667 0.18 0.152
2 0.328 0.2693333333333333 0.184 0.224
2 0.582 0.5266666666666666 0.636 0.6693333333333333
2 0.878 0.288 0.244 0.3466666666666667
