0 0.8160000000000001 0.16799999999999998 0.056 0.18666666666666665
0 0.742 0.132 0.04 0.22133333333333333
0 0.704 0.124 0.04 0.20533333333333334
0 0.586 0.096 0.06 0.18133333333333332
0 0.305 0.33199999999999996 0.14200000000000002 0.27999999999999997
0 0.492 0.3426666666666667 0.096 0.2373333333333333
0 0.126 0.7586666666666666 0.14400000000000002 0.2373333333333333
0 0.182 0.9119999999999999 0.14 0.176
17 0.518 0.5186666666666666 0.312 0.49866666666666665
17 0.324 0.4613333333333333 0.20400000000000001 0.45866666666666667
17 0.217 0.8186666666666667 0.43 0.36266666666666664
17 0.34800000000000003 0.9 0.212 0.19999999999999998
