58 0.336 0.15015015015015015 0.196 0.27627627627627627
0 0.6950000000000001 0.581081081081081 0.254 0.5195195195195195
0 0.383 0.5525525525525525 0.262 0.6066066066066066
0 0.169 0.7507507507507507 0.302 0.4984984984984985
56 0.871 0.5930930930930931 0.258 0.8078078078078078
