39 0.23500000000000001 0.6804812834224598 0.05 0.21657754010695185
39 0.353 0.6804812834224598 0.05 0.21657754010695185
0 0.18 0.6898395721925134 0.34 0.6203208556149732
0 0.318 0.5053475935828877 0.17200000000000001 0.2834224598930481
0 0.536 0.4532085561497326 0.192 0.19518716577540104
0 0.6920000000000001 0.5133689839572192 0.192 0.2887700534759358
0 0.75 0.7005347593582887 0.444 0.5989304812834224
60 0.367 0.7486631016042781 0.686 0.4385026737967914
