8 0.151 0.5963855421686747 0.17 0.16265060240963855
8 0.41400000000000003 0.5 0.14 0.13855421686746988
8 0.707 0.4246987951807229 0.106 0.10843373493975904
8 0.811 0.5210843373493976 0.146 0.13855421686746988
8 0.792 0.7228915662650602 0.192 0.29518072289156627
