2 0.875 0.6596385542168675 0.162 0.14457831325301207
2 0.633 0.6355421686746988 0.074 0.0963855421686747
2 0.255 0.677710843373494 0.078 0.0783132530120482
2 0.07 0.6551204819277109 0.052000000000000005 0.05120481927710844
3 0.392 0.7454819277108434 0.116 0.25
0 0.399 0.6686746987951807 0.10200000000000001 0.27108433734939763
