2 0.496 0.564 0.864 0.824
2 0.773 0.4493333333333333 0.454 0.5733333333333334
0 0.591 0.264 0.154 0.224
0 0.523 0.22799999999999998 0.07 0.152
0 0.036000000000000004 0.41733333333333333 0.068 0.4613333333333333
