62 0.631 0.6239067055393586 0.158 0.1749271137026239
58 0.161 0.4606413994169096 0.318 0.6647230320699709
58 0.33 0.4518950437317784 0.092 0.18658892128279883
58 0.43 0.4679300291545189 0.084 0.14285714285714285
