2 0.555 0.496996996996997 0.738 0.8438438438438438
0 0.379 0.12012012012012012 0.074 0.16816816816816815
2 0.839 0.11561561561561562 0.322 0.21921921921921922
56 0.047 0.45795795795795796 0.09 0.16516516516516516
