56 0.6133333333333333 0.8150000000000001 0.45866666666666667 0.358
56 0.844 0.809 0.30666666666666664 0.382
56 0.2653333333333333 0.759 0.27466666666666667 0.482
60 0.5426666666666666 0.776 0.8986666666666666 0.448
