5 0.837 0.5293333333333333 0.326 0.3973333333333333
5 0.447 0.5186666666666666 0.47800000000000004 0.568
5 0.07200000000000001 0.5413333333333333 0.14 0.5013333333333333
0 0.381 0.47866666666666663 0.066 0.104
