4 0.592 0.21466666666666667 0.064 0.050666666666666665
4 0.376 0.3173333333333333 0.07200000000000001 0.048
4 0.399 0.5253333333333333 0.066 0.03733333333333333
4 0.41200000000000003 0.5693333333333334 0.068 0.04
4 0.532 0.5253333333333333 0.068 0.03733333333333333
