0 0.20600000000000002 0.4774096385542169 0.124 0.2560240963855422
0 0.459 0.42018072289156627 0.098 0.38253012048192775
0 0.599 0.46385542168674704 0.074 0.30120481927710846
17 0.20500000000000002 0.5557228915662651 0.07 0.3102409638554217
17 0.463 0.6054216867469879 0.342 0.46987951807228917
17 0.742 0.5843373493975904 0.128 0.13253012048192772
17 0.596 0.5828313253012049 0.28800000000000003 0.33433734939759036
