16 0.4519519519519519 0.684 0.7297297297297297 0.396
56 0.8243243243243243 0.387 0.12912912912912913 0.106
2 0.3228228228228228 0.312 0.23723723723723725 0.1
2 0.07057057057057058 0.325 0.13513513513513514 0.08600000000000001
2 0.8258258258258259 0.3 0.26426426426426425 0.096
0 0.5975975975975976 0.47300000000000003 0.36036036036036034 0.714
