14 0.313 0.46266666666666667 0.622 0.3173333333333333
14 0.8240000000000001 0.7493333333333333 0.084 0.144
14 0.324 0.11599999999999999 0.036000000000000004 0.07733333333333334
14 0.12 0.8746666666666666 0.07200000000000001 0.144
