2 0.39 0.7395209580838323 0.776 0.5209580838323353
2 0.459 0.6811377245508983 0.914 0.5
2 0.427 0.5134730538922156 0.8180000000000001 0.37425149700598803
2 0.462 0.5119760479041916 0.92 0.39520958083832336
2 0.7020000000000001 0.47904191616766467 0.544 0.30538922155688625
