0 0.184 0.5 0.252 0.38666666666666666
0 0.386 0.476 0.20800000000000002 0.344
0 0.63 0.46799999999999997 0.14400000000000002 0.248
0 0.746 0.46266666666666667 0.14400000000000002 0.22666666666666666
60 0.501 0.7666666666666666 0.998 0.4666666666666667
58 0.5680000000000001 0.756 0.088 0.11466666666666667
58 0.676 0.7573333333333333 0.076 0.12266666666666666
58 0.72 0.7186666666666667 0.068 0.11466666666666667
