2 0.782 0.7612612612612613 0.296 0.23123123123123124
2 0.252 0.7297297297297297 0.076 0.0960960960960961
2 0.34500000000000003 0.7492492492492493 0.114 0.0990990990990991
0 0.45 0.7342342342342342 0.044 0.14714714714714713
0 0.9520000000000001 0.7402402402402403 0.032 0.13513513513513514
