15 0.85 0.5191570881226053 0.28800000000000003 0.7011494252873562
15 0.621 0.5019157088122606 0.23800000000000002 0.6743295019157087
15 0.401 0.40996168582375475 0.266 0.7586206896551724
15 0.153 0.3122605363984674 0.194 0.5402298850574713
15 0.187 0.5996168582375478 0.322 0.7777777777777778
