5 0.611 0.3773333333333333 0.778 0.7386666666666667
0 0.499 0.7186666666666667 0.114 0.5413333333333333
0 0.391 0.756 0.114 0.488
0 0.356 0.7106666666666667 0.112 0.5733333333333334
0 0.10200000000000001 0.524 0.1 0.4026666666666667
0 0.021 0.5306666666666666 0.038 0.4053333333333333
