19 0.8 0.364 0.096 0.11466666666666667
19 0.638 0.408 0.1 0.13333333333333333
19 0.397 0.43066666666666664 0.08600000000000001 0.14133333333333334
19 0.516 0.5586666666666666 0.08 0.20533333333333334
0 0.765 0.608 0.074 0.26666666666666666
