19 0.588 0.5519999999999999 0.192 0.19733333333333333
0 0.47000000000000003 0.54 0.06 0.264
0 0.40800000000000003 0.39199999999999996 0.04 0.10133333333333333
0 0.34800000000000003 0.39599999999999996 0.056 0.09866666666666667
