60 0.514 0.6133333333333333 0.6880000000000001 0.26666666666666666
0 0.933 0.744 0.134 0.512
0 0.905 0.5546666666666666 0.178 0.512
0 0.8170000000000001 0.46399999999999997 0.114 0.35733333333333334
0 0.729 0.4653333333333333 0.11800000000000001 0.2693333333333333
0 0.513 0.40399999999999997 0.178 0.15733333333333333
0 0.28700000000000003 0.4373333333333333 0.094 0.2613333333333333
0 0.203 0.45199999999999996 0.134 0.296
0 0.122 0.46399999999999997 0.24 0.35733333333333334
0 0.099 0.724 0.194 0.48266666666666663
