1 0.707 0.8236074270557029 0.434 0.35278514588859416
1 0.259 0.8633952254641909 0.514 0.27320954907161804
1 0.399 0.8222811671087533 0.298 0.35543766578249336
0 0.629 0.6830238726790451 0.186 0.6339522546419097
0 0.25 0.7506631299734747 0.328 0.47745358090185674
0 0.333 0.5079575596816975 0.11800000000000001 0.16180371352785144
