0 0.8290000000000001 0.43866666666666665 0.134 0.23199999999999998
0 0.915 0.576 0.17 0.6613333333333333
0 0.798 0.328 0.132 0.304
0 0.711 0.3293333333333333 0.106 0.30666666666666664
0 0.5760000000000001 0.29333333333333333 0.124 0.21866666666666665
0 0.4 0.26666666666666666 0.136 0.20266666666666666
0 0.084 0.3293333333333333 0.092 0.19466666666666665
0 0.321 0.636 0.41000000000000003 0.728
0 0.111 0.532 0.218 0.5786666666666667
0 0.299 0.23866666666666667 0.078 0.09866666666666667
60 0.593 0.6933333333333334 0.518 0.6133333333333333
