19 0.6681681681681682 0.277 0.6636636636636637 0.55
19 0.43993993993993996 0.22 0.6516516516516516 0.432
19 0.06906906906906907 0.136 0.13213213213213212 0.07200000000000001
0 0.5285285285285285 0.77 0.7327327327327328 0.46
