17 0.426 0.6306306306306306 0.3 0.7387387387387387
0 0.423 0.4159159159159159 0.39 0.7597597597597597
0 0.7010000000000001 0.581081081081081 0.514 0.8378378378378378
2 0.055 0.23873873873873874 0.10200000000000001 0.14114114114114115
2 0.19 0.22972972972972971 0.1 0.14714714714714713
2 0.516 0.23423423423423423 0.136 0.12612612612612611
2 0.662 0.22672672672672672 0.156 0.12912912912912913
