56 0.709 0.6386666666666666 0.254 0.22133333333333333
56 0.628 0.8386666666666667 0.41600000000000004 0.32266666666666666
57 0.532 0.496 0.364 0.16
58 0.746 0.29733333333333334 0.2 0.5893333333333333
58 0.794 0.3213333333333333 0.096 0.33866666666666667
58 0.29 0.328 0.128 0.44266666666666665
0 0.5700000000000001 0.224 0.06 0.18133333333333332
0 0.514 0.23333333333333334 0.048 0.152
