14 0.107 0.4537313432835821 0.074 0.13134328358208955
14 0.22 0.5477611940298508 0.112 0.1582089552238806
14 0.40700000000000003 0.6149253731343284 0.182 0.21492537313432836
14 0.5670000000000001 0.5567164179104478 0.166 0.1582089552238806
14 0.384 0.47313432835820896 0.128 0.14626865671641792
