2 0.218 0.18712574850299402 0.212 0.1347305389221557
2 0.438 0.2035928143712575 0.332 0.2095808383233533
2 0.9490000000000001 0.19011976047904192 0.10200000000000001 0.17065868263473055
2 0.611 0.5538922155688623 0.778 0.81437125748503
