0 0.683 0.09608540925266904 0.038 0.1708185053380783
0 0.527 0.12455516014234874 0.054 0.13523131672597863
0 0.268 0.1690391459074733 0.048 0.18149466192170818
2 0.899 0.13345195729537365 0.202 0.2597864768683274
2 0.519 0.5160142348754448 0.8180000000000001 0.6761565836298932
