2 0.47600000000000003 0.5173333333333333 0.20400000000000001 0.23466666666666666
0 0.23900000000000002 0.5013333333333333 0.078 0.26666666666666666
0 0.609 0.504 0.074 0.2613333333333333
0 0.896 0.4933333333333333 0.076 0.2826666666666667
2 0.164 0.516 0.268 0.216
2 0.752 0.52 0.23600000000000002 0.20266666666666666
