2 0.196 0.7408963585434174 0.064 0.06442577030812326
2 0.255 0.7394957983193278 0.046 0.06722689075630252
2 0.315 0.7366946778711485 0.07 0.0784313725490196
2 0.462 0.7619047619047619 0.128 0.11204481792717087
2 0.669 0.7633053221288515 0.162 0.1092436974789916
