57 0.449 0.5636132315521629 0.874 0.27226463104325704
0 0.28500000000000003 0.5152671755725191 0.258 0.3536895674300255
0 0.49 0.5139949109414759 0.17200000000000001 0.3155216284987278
0 0.704 0.4770992366412214 0.268 0.3893129770992367
