8 0.613 0.596 0.126 0.056
56 0.671 0.892 0.354 0.216
56 0.385 0.7493333333333333 0.126 0.13866666666666666
60 0.808 0.8546666666666667 0.384 0.2853333333333333
60 0.184 0.764 0.364 0.17333333333333334
