4 0.522 0.6693333333333333 0.032 0.042666666666666665
4 0.51 0.6266666666666666 0.032 0.042666666666666665
4 0.466 0.572 0.032 0.04533333333333333
4 0.453 0.5293333333333333 0.03 0.04
4 0.43 0.6093333333333333 0.032 0.050666666666666665
4 0.44 0.6586666666666666 0.032 0.048
4 0.391 0.6386666666666666 0.03 0.056
