39 0.851 0.8368421052631578 0.042 0.19473684210526315
39 0.893 0.9092105263157895 0.05 0.18157894736842106
39 0.68 0.9131578947368421 0.096 0.17368421052631577
56 0.085 0.7802631578947368 0.11800000000000001 0.2710526315789474
0 0.6960000000000001 0.5986842105263158 0.28800000000000003 0.5236842105263158
0 0.436 0.6434210526315789 0.156 0.5815789473684211
0 0.545 0.6618421052631579 0.202 0.5552631578947368
