2 0.5740000000000001 0.9369369369369369 0.096 0.10810810810810811
2 0.493 0.9429429429429429 0.094 0.0960960960960961
2 0.41600000000000004 0.9474474474474475 0.08 0.08708708708708708
2 0.34600000000000003 0.9579579579579579 0.068 0.06606606606606606
2 0.085 0.9654654654654654 0.13 0.06906906906906907
