57 0.811 0.7413333333333333 0.378 0.29333333333333333
0 0.332 0.5573333333333333 0.052000000000000005 0.176
56 0.304 0.5973333333333333 0.088 0.19733333333333333
56 0.505 0.6026666666666667 0.078 0.20266666666666666
56 0.542 0.5786666666666667 0.08 0.176
56 0.389 0.6226666666666666 0.082 0.20533333333333334
60 0.41200000000000003 0.6066666666666667 0.14 0.20533333333333334
