0 0.32732732732732733 0.562 0.5885885885885885 0.592
0 0.5825825825825826 0.397 0.5825825825825826 0.454
1 0.5705705705705706 0.633 0.7147147147147147 0.45
1 0.7597597597597597 0.46900000000000003 0.4804804804804805 0.426
