14 0.245 0.5940298507462687 0.094 0.11343283582089553
14 0.418 0.41940298507462687 0.24 0.19402985074626866
14 0.685 0.5805970149253732 0.094 0.11641791044776119
14 0.961 0.7238805970149254 0.078 0.14029850746268657
14 0.448 0.5850746268656717 0.152 0.1253731343283582
