2 0.608 0.5333333333333333 0.10400000000000001 0.16
2 0.709 0.5253333333333333 0.106 0.13866666666666666
2 0.869 0.7626666666666666 0.262 0.4746666666666666
2 0.443 0.5479999999999999 0.17 0.17333333333333334
2 0.193 0.5533333333333333 0.28600000000000003 0.2373333333333333
