1 0.432 0.8773333333333333 0.41600000000000004 0.24533333333333332
0 0.396 0.7773333333333333 0.132 0.43466666666666665
0 0.714 0.7866666666666666 0.164 0.42666666666666664
0 0.9 0.7839999999999999 0.1 0.39466666666666667
