3 0.448 0.6906666666666667 0.44 0.4053333333333333
3 0.757 0.6546666666666666 0.374 0.37066666666666664
3 0.911 0.6719999999999999 0.178 0.4373333333333333
3 0.222 0.628 0.116 0.27466666666666667
0 0.329 0.5213333333333333 0.126 0.2373333333333333
