56 0.588 0.6226666666666666 0.096 0.21066666666666667
56 0.8210000000000001 0.7879999999999999 0.358 0.424
56 0.357 0.6946666666666667 0.14200000000000002 0.216
56 0.49 0.7373333333333333 0.156 0.2853333333333333
