0 0.803 0.5573248407643312 0.10200000000000001 0.29936305732484075
19 0.224 0.5557324840764332 0.248 0.28343949044585987
2 0.9440000000000001 0.5700636942675159 0.052000000000000005 0.03184713375796178
