62 0.548 0.5973333333333333 0.112 0.18666666666666665
62 0.188 0.5173333333333333 0.076 0.144
0 0.363 0.728 0.27 0.5439999999999999
0 0.13 0.5946666666666667 0.184 0.27199999999999996
56 0.095 0.7186666666666667 0.146 0.33866666666666667
56 0.29 0.8266666666666667 0.212 0.3466666666666667
