18 0.8133333333333334 0.41200000000000003 0.112 0.04
18 0.252 0.612 0.42933333333333334 0.164
18 0.43466666666666665 0.434 0.12266666666666666 0.07200000000000001
18 0.624 0.439 0.07466666666666666 0.038
18 0.7106666666666667 0.431 0.06666666666666667 0.046
18 0.648 0.421 0.06933333333333333 0.038
