60 0.488 0.5795795795795796 0.9 0.8408408408408409
0 0.6920000000000001 0.12312312312312312 0.3 0.24024024024024024
0 0.215 0.16216216216216217 0.28600000000000003 0.3183183183183183
0 0.922 0.24474474474474475 0.156 0.48348348348348347
