19 0.8270000000000001 0.624 0.094 0.13333333333333333
19 0.044 0.6306666666666666 0.076 0.11466666666666667
19 0.056 0.604 0.1 0.10933333333333332
19 0.2 0.6493333333333333 0.084 0.14666666666666667
19 0.279 0.6226666666666666 0.058 0.12
19 0.335 0.6586666666666666 0.058 0.13866666666666666
