56 0.28800000000000003 0.7546875000000001 0.164 0.40937500000000004
56 0.429 0.7328125000000001 0.134 0.42812500000000003
56 0.738 0.759375 0.192 0.41875
56 0.596 0.48750000000000004 0.17200000000000001 0.30625
56 0.333 0.49062500000000003 0.146 0.16875
56 0.56 0.7406250000000001 0.168 0.43125
56 0.706 0.6859375000000001 0.136 0.37812500000000004
