39 0.851 0.2853333333333333 0.054 0.27199999999999996
39 0.936 0.3426666666666667 0.1 0.30666666666666664
39 0.8190000000000001 0.33599999999999997 0.106 0.30933333333333335
39 0.725 0.30533333333333335 0.094 0.296
