62 0.62 0.53003003003003 0.116 0.16516516516516516
56 0.936 0.6816816816816816 0.128 0.3843843843843844
56 0.278 0.6651651651651651 0.232 0.26126126126126126
57 0.503 0.551051051051051 0.13 0.12312312312312312
