39 0.11800000000000001 0.577027027027027 0.136 0.6027027027027028
39 0.26 0.595945945945946 0.14400000000000002 0.6297297297297297
39 0.41200000000000003 0.6081081081081081 0.164 0.6594594594594595
62 0.632 0.4810810810810811 0.4 0.6810810810810811
