0 0.48 0.628 0.33066666666666666 0.304
0 0.31466666666666665 0.384 0.14933333333333332 0.112
0 0.952 0.326 0.096 0.156
0 0.8306666666666667 0.382 0.152 0.156
0 0.6933333333333334 0.537 0.5546666666666666 0.5700000000000001
56 0.30533333333333335 0.561 0.19466666666666665 0.23
60 0.13599999999999998 0.549 0.26666666666666666 0.25
56 0.152 0.522 0.176 0.212
