58 0.849 0.6 0.078 0.10666666666666666
58 0.865 0.7933333333333333 0.07 0.14666666666666667
0 0.244 0.6626666666666666 0.2 0.6746666666666666
0 0.452 0.656 0.22 0.688
0 0.593 0.6586666666666666 0.162 0.5599999999999999
0 0.735 0.6293333333333333 0.15 0.5653333333333334
