39 0.81 0.4592391304347826 0.124 0.5489130434782609
39 0.676 0.4497282608695652 0.148 0.5570652173913043
39 0.507 0.4578804347826087 0.14200000000000002 0.5407608695652174
39 0.331 0.452445652173913 0.154 0.5679347826086957
39 0.197 0.46739130434782605 0.114 0.5380434782608695
