58 0.148 0.372 0.052000000000000005 0.056
58 0.305 0.3453333333333333 0.054 0.06666666666666667
58 0.442 0.33199999999999996 0.068 0.072
58 0.621 0.32266666666666666 0.062 0.08
58 0.803 0.3173333333333333 0.058 0.064
