2 0.49583333333333335 0.470125786163522 0.4458333333333333 0.35534591194968557
17 0.5572916666666666 0.60062893081761 0.5395833333333333 0.6163522012578617
0 0.4510416666666667 0.3977987421383648 0.14375 0.4371069182389937
