18 0.8200000000000001 0.7733333333333333 0.36 0.4533333333333333
18 0.617 0.732 0.378 0.536
18 0.309 0.6653333333333333 0.514 0.48266666666666663
18 0.217 0.5066666666666666 0.41400000000000003 0.352
0 0.527 0.35733333333333334 0.202 0.23466666666666666
