18 0.387 0.5635593220338984 0.254 0.18926553672316385
18 0.372 0.4830508474576271 0.18 0.11299435028248588
18 0.644 0.268361581920904 0.048 0.05649717514124294
14 0.926 0.8432203389830508 0.148 0.2288135593220339
