0 0.481 0.4789156626506024 0.074 0.28915662650602414
0 0.304 0.5632530120481928 0.052000000000000005 0.19879518072289157
0 0.20400000000000001 0.5512048192771085 0.032 0.18674698795180725
0 0.154 0.5466867469879518 0.036000000000000004 0.14759036144578314
0 0.746 0.5873493975903614 0.048 0.1746987951807229
0 0.846 0.5873493975903614 0.04 0.18072289156626506
0 0.9440000000000001 0.5993975903614458 0.056 0.1566265060240964
17 0.522 0.608433734939759 0.292 0.28915662650602414
