0 0.244 0.926 0.06133333333333333 0.148
0 0.284 0.924 0.056 0.14
58 0.06799999999999999 0.913 0.11466666666666667 0.074
58 0.32 0.894 0.12266666666666666 0.124
58 0.7426666666666667 0.879 0.104 0.098
