0 0.395 0.6533333333333333 0.11 0.2773333333333333
16 0.28 0.7906666666666666 0.315 0.17866666666666667
16 0.6425 0.7773333333333333 0.185 0.14666666666666667
16 0.60375 0.7053333333333333 0.1375 0.11466666666666667
16 0.47625 0.7999999999999999 0.1875 0.11733333333333333
