39 0.614 0.5506666666666666 0.084 0.344
39 0.771 0.6133333333333333 0.11800000000000001 0.3893333333333333
0 0.272 0.48666666666666664 0.536 0.8026666666666666
0 0.066 0.10933333333333332 0.128 0.20266666666666666
