17 0.48689956331877726 0.504 0.2096069868995633 0.328
0 0.49344978165938863 0.338 0.27510917030567683 0.46
58 0.48580786026200873 0.805 0.19868995633187772 0.298
58 0.25 0.628 0.10698689956331878 0.18
