57 0.215 0.6882530120481928 0.426 0.35843373493975905
56 0.642 0.5737951807228916 0.10400000000000001 0.1957831325301205
56 0.483 0.585843373493976 0.08600000000000001 0.15963855421686748
58 0.5650000000000001 0.4548192771084338 0.078 0.09036144578313253
