57 0.654 0.6306666666666666 0.504 0.4666666666666667
56 0.448 0.47866666666666663 0.112 0.248
56 0.361 0.4653333333333333 0.098 0.24266666666666667
0 0.748 0.6226666666666666 0.34400000000000003 0.7173333333333333
0 0.151 0.428 0.158 0.5893333333333333
