0 0.246 0.31866666666666665 0.12 0.216
0 0.34600000000000003 0.348 0.108 0.17333333333333334
0 0.42 0.352 0.092 0.176
0 0.53 0.3933333333333333 0.128 0.2853333333333333
0 0.649 0.42933333333333334 0.11800000000000001 0.24533333333333332
0 0.727 0.36533333333333334 0.106 0.16
0 0.809 0.45199999999999996 0.14200000000000002 0.344
0 0.109 0.5479999999999999 0.138 0.5626666666666666
0 0.227 0.44266666666666665 0.10200000000000001 0.21333333333333332
0 0.268 0.58 0.136 0.27466666666666667
0 0.395 0.5413333333333333 0.094 0.22933333333333333
0 0.484 0.536 0.12 0.22933333333333333
0 0.598 0.5559999999999999 0.112 0.22666666666666666
0 0.6940000000000001 0.5653333333333334 0.132 0.26666666666666666
60 0.525 0.8266666666666667 0.77 0.3466666666666667
