39 0.121 0.8066666666666666 0.222 0.19999999999999998
39 0.849 0.7626666666666666 0.05 0.17066666666666666
0 0.225 0.604 0.318 0.7919999999999999
0 0.528 0.6133333333333333 0.352 0.7733333333333333
0 0.809 0.5906666666666667 0.382 0.8186666666666667
