56 0.134 0.7259036144578314 0.136 0.30120481927710846
56 0.374 0.7605421686746988 0.14 0.32228915662650603
56 0.717 0.7424698795180723 0.126 0.3102409638554217
0 0.842 0.6159638554216867 0.116 0.641566265060241
0 0.535 0.6129518072289157 0.11800000000000001 0.677710843373494
0 0.241 0.5677710843373495 0.126 0.6536144578313253
