2 0.6990000000000001 0.43093093093093093 0.178 0.23723723723723725
0 0.935 0.43093093093093093 0.058 0.1891891891891892
16 0.091 0.8288288288288288 0.138 0.29429429429429427
5 0.219 0.35585585585585583 0.43 0.4894894894894895
5 0.5 0.36936936936936937 0.18 0.23423423423423423
