5 0.649 0.5693333333333334 0.342 0.14133333333333334
2 0.126 0.6146666666666667 0.148 0.072
2 0.836 0.6106666666666667 0.136 0.10666666666666666
0 0.28400000000000003 0.648 0.032 0.144
0 0.11 0.6373333333333333 0.032 0.096
