17 0.641 0.5436746987951807 0.33 0.6295180722891567
17 0.369 0.5647590361445783 0.254 0.35240963855421686
0 0.41100000000000003 0.43975903614457834 0.098 0.3373493975903615
0 0.716 0.36445783132530124 0.184 0.5843373493975904
0 0.6 0.2801204819277109 0.056 0.0783132530120482
