2 0.506 0.536 0.928 0.8426666666666667
0 0.6900000000000001 0.32 0.1 0.27199999999999996
0 0.289 0.27066666666666667 0.066 0.10933333333333332
0 0.34700000000000003 0.26 0.058 0.10933333333333332
0 0.222 0.2773333333333333 0.056 0.128
0 0.92 0.3466666666666667 0.108 0.4373333333333333
0 0.971 0.4066666666666667 0.058 0.48266666666666663
0 0.86 0.2773333333333333 0.052000000000000005 0.192
