2 0.385 0.33433734939759036 0.17 0.20481927710843376
2 0.798 0.338855421686747 0.196 0.14759036144578314
2 0.784 0.694277108433735 0.432 0.6114457831325302
2 0.191 0.6295180722891567 0.378 0.7349397590361446
0 0.491 0.6039156626506025 0.426 0.786144578313253
