56 0.812 0.716 0.136 0.3173333333333333
56 0.675 0.7693333333333333 0.14200000000000002 0.3333333333333333
60 0.47100000000000003 0.7333333333333333 0.662 0.27199999999999996
56 0.107 0.7066666666666667 0.126 0.33066666666666666
