2 0.47400000000000003 0.5495495495495496 0.304 0.25825825825825827
2 0.9380000000000001 0.46996996996997 0.124 0.13513513513513514
2 0.291 0.4894894894894895 0.178 0.10810810810810811
2 0.631 0.46546546546546547 0.14200000000000002 0.0960960960960961
2 0.902 0.4114114114114114 0.116 0.0960960960960961
