0 0.039 0.5693333333333334 0.074 0.21066666666666667
3 0.126 0.6866666666666666 0.192 0.2373333333333333
58 0.743 0.5786666666666667 0.07 0.26666666666666666
58 0.805 0.39999999999999997 0.062 0.10666666666666666
58 0.869 0.39866666666666667 0.05 0.11466666666666667
58 0.972 0.42 0.04 0.08266666666666667
