5 0.55 0.4668674698795181 0.784 0.5963855421686747
0 0.586 0.6716867469879518 0.092 0.3734939759036145
0 0.483 0.5933734939759037 0.078 0.1927710843373494
0 0.054 0.8493975903614458 0.10400000000000001 0.30120481927710846
