0 0.5730000000000001 0.6516516516516516 0.314 0.6786786786786787
0 0.11 0.6126126126126126 0.096 0.13813813813813813
0 0.019 0.6171171171171171 0.034 0.17717717717717718
2 0.5 0.7567567567567568 0.996 0.48648648648648646
