56 0.887 0.7226666666666667 0.226 0.3413333333333333
60 0.507 0.748 0.558 0.504
0 0.884 0.5773333333333334 0.20800000000000002 0.5466666666666666
0 0.704 0.5106666666666666 0.14 0.2693333333333333
0 0.14100000000000001 0.7133333333333333 0.278 0.5733333333333334
0 0.308 0.352 0.088 0.17066666666666666
0 0.292 0.27466666666666667 0.056 0.192
39 0.629 0.6506666666666666 0.054 0.21333333333333332
