2 0.188 0.7237237237237237 0.34400000000000003 0.2042042042042042
2 0.164 0.9144144144144144 0.324 0.17117117117117117
2 0.49 0.8108108108108109 0.156 0.3783783783783784
2 0.669 0.8078078078078078 0.21 0.3843843843843844
2 0.901 0.7222222222222222 0.17 0.48348348348348347
2 0.871 0.27177177177177175 0.162 0.43543543543543545
2 0.7010000000000001 0.3738738738738739 0.154 0.47147147147147145
2 0.6890000000000001 0.07057057057057058 0.11800000000000001 0.13513513513513514
2 0.543 0.18618618618618618 0.138 0.3663663663663664
2 0.304 0.0960960960960961 0.28800000000000003 0.18618618618618618
2 0.295 0.24474474474474475 0.334 0.3333333333333333
56 0.281 0.8273273273273273 0.066 0.13513513513513514
2 0.081 0.25075075075075076 0.122 0.24324324324324323
