2 0.54 0.6621621621621622 0.792 0.5735735735735735
2 0.215 0.46096096096096095 0.17 0.12312312312312312
2 0.34400000000000003 0.466966966966967 0.272 0.16516516516516516
0 0.082 0.4294294294294294 0.036000000000000004 0.12012012012012012
0 0.056 0.4339339339339339 0.036000000000000004 0.11711711711711711
0 0.179 0.35285285285285284 0.042 0.06306306306306306
