18 0.382 0.29429429429429427 0.176 0.26426426426426425
18 0.776 0.2747747747747748 0.32 0.26126126126126126
18 0.742 0.6156156156156156 0.516 0.7687687687687688
18 0.442 0.7027027027027027 0.492 0.5945945945945946
18 0.234 0.3843843843843844 0.42 0.18018018018018017
18 0.636 0.2897897897897898 0.41200000000000003 0.26726726726726724
