60 0.515015015015015 0.771 0.5135135135135135 0.342
56 0.7477477477477478 0.8280000000000001 0.45645645645645644 0.34400000000000003
56 0.38288288288288286 0.776 0.34534534534534533 0.34800000000000003
