39 0.221 0.768 0.07 0.27199999999999996
39 0.274 0.7506666666666666 0.064 0.27466666666666667
39 0.369 0.6986666666666667 0.054 0.224
0 0.589 0.44666666666666666 0.182 0.27999999999999997
0 0.789 0.48933333333333334 0.202 0.408
0 0.8200000000000001 0.64 0.36 0.72
0 0.316 0.49466666666666664 0.164 0.296
0 0.151 0.5506666666666666 0.294 0.424
60 0.421 0.7746666666666666 0.838 0.45066666666666666
