56 0.495 0.7013333333333334 0.41400000000000003 0.5973333333333333
56 0.796 0.516 0.164 0.45599999999999996
0 0.8300000000000001 0.6466666666666666 0.34 0.7066666666666667
0 0.47500000000000003 0.6799999999999999 0.362 0.64
0 0.113 0.5026666666666666 0.222 0.9946666666666666
