60 0.5 0.6681681681681682 0.756 0.4114114114114114
56 0.845 0.6291291291291291 0.222 0.46546546546546547
56 0.113 0.6246246246246246 0.218 0.45645645645645644
56 0.633 0.7042042042042042 0.186 0.48348348348348347
56 0.439 0.6951951951951952 0.17 0.45945945945945943
56 0.252 0.6981981981981982 0.22 0.4774774774774775
