18 0.9430000000000001 0.7226666666666667 0.114 0.35733333333333334
18 0.8300000000000001 0.7386666666666667 0.14 0.3413333333333333
18 0.705 0.7133333333333333 0.146 0.4026666666666667
18 0.586 0.732 0.216 0.344
18 0.359 0.772 0.17 0.36
0 0.097 0.5386666666666666 0.178 0.656
0 0.221 0.47333333333333333 0.198 0.3973333333333333
0 0.494 0.3733333333333333 0.22 0.368
0 0.616 0.35466666666666663 0.20800000000000002 0.368
0 0.756 0.356 0.18 0.33866666666666667
0 0.851 0.34933333333333333 0.08600000000000001 0.3733333333333333
