5 0.7000000000000001 0.5660377358490566 0.6 0.6113207547169811
3 0.866 0.7132075471698113 0.268 0.39245283018867927
0 0.887 0.6018867924528302 0.146 0.4490566037735849
0 0.28300000000000003 0.5754716981132075 0.062 0.30566037735849055
0 0.374 0.5735849056603773 0.064 0.3018867924528302
0 0.516 0.47924528301886793 0.052000000000000005 0.12075471698113208
