16 0.55625 0.71875 0.51875 0.2
16 0.596875 0.6072916666666667 0.36875 0.11041666666666666
16 0.8265625000000001 0.740625 0.19687500000000002 0.21458333333333332
0 0.9281250000000001 0.3885416666666667 0.05 0.08541666666666667
0 0.203125 0.5739583333333333 0.29375 0.6854166666666667
