56 0.295 0.872 0.126 0.25066666666666665
60 0.115 0.8613333333333333 0.226 0.26666666666666666
0 0.713 0.568 0.066 0.208
0 0.467 0.6679999999999999 0.11 0.5306666666666666
0 0.5640000000000001 0.6693333333333333 0.316 0.6453333333333333
0 0.8230000000000001 0.7146666666666667 0.354 0.5706666666666667
