39 0.5680000000000001 0.7222222222222222 0.044 0.23123123123123124
0 0.176 0.7027027027027027 0.184 0.4924924924924925
0 0.308 0.6021021021021021 0.1 0.24324324324324323
0 0.359 0.5465465465465466 0.08600000000000001 0.17417417417417416
0 0.516 0.5255255255255256 0.136 0.15615615615615616
0 0.634 0.521021021021021 0.088 0.14714714714714713
0 0.6960000000000001 0.6231231231231231 0.152 0.36936936936936937
0 0.866 0.6876876876876877 0.268 0.5225225225225225
0 0.902 0.7237237237237237 0.196 0.5525525525525525
60 0.47100000000000003 0.7987987987987988 0.682 0.4024024024024024
58 0.303 0.3843843843843844 0.074 0.1921921921921922
