56 0.47600000000000003 0.5773333333333334 0.616 0.8453333333333333
56 0.893 0.704 0.214 0.592
0 0.47400000000000003 0.5786666666666667 0.41200000000000003 0.8426666666666667
39 0.35000000000000003 0.6066666666666667 0.12 0.248
