1 0.876 0.6776155717761557 0.248 0.5085158150851582
1 0.304 0.7445255474452555 0.40800000000000003 0.5109489051094891
1 0.596 0.6861313868613139 0.244 0.559610705596107
0 0.588 0.4172749391727494 0.188 0.8150851581508516
0 0.88 0.43552311435523117 0.24 0.7347931873479319
0 0.327 0.4720194647201947 0.438 0.8175182481751825
