0 0.331 0.6719999999999999 0.242 0.656
0 0.481 0.6893333333333334 0.154 0.6213333333333333
0 0.68 0.6813333333333333 0.34400000000000003 0.6373333333333333
62 0.867 0.6386666666666666 0.162 0.2693333333333333
