1 0.447 0.7999999999999999 0.266 0.39999999999999997
0 0.601 0.5933333333333333 0.23 0.8133333333333334
0 0.419 0.6066666666666667 0.178 0.7866666666666666
39 0.518 0.5453333333333333 0.036000000000000004 0.152
