1 0.7031662269129287 0.8180000000000001 0.5672823218997362 0.356
1 0.08443271767810026 0.851 0.14775725593667546 0.19
1 0.40897097625329815 0.8230000000000001 0.11609498680738786 0.14200000000000002
0 0.08839050131926121 0.775 0.13984168865435356 0.242
0 0.6662269129287599 0.674 0.36675461741424803 0.496
0 0.420844327176781 0.723 0.13456464379947228 0.146
