3 0.438 0.5845921450151057 0.5680000000000001 0.48036253776435045
3 0.926 0.2552870090634441 0.148 0.1903323262839879
3 0.277 0.28700906344410876 0.182 0.2175226586102719
0 0.521 0.5060422960725075 0.41400000000000003 0.6314199395770392
0 0.789 0.2190332326283988 0.046 0.2930513595166163
0 0.852 0.19939577039274925 0.076 0.32628398791540786
0 0.543 0.14954682779456194 0.082 0.1782477341389728
0 0.434 0.270392749244713 0.084 0.19637462235649547
2 0.6910000000000001 0.13897280966767372 0.326 0.23564954682779457
2 0.398 0.13444108761329304 0.34 0.1903323262839879
0 0.975 0.1042296072507553 0.05 0.10574018126888217
0 0.14100000000000001 0.26435045317220546 0.094 0.3474320241691843
3 0.145 0.31268882175226587 0.098 0.25075528700906347
3 0.28200000000000003 0.29607250755287007 0.152 0.19939577039274925
