3 0.632 0.49066666666666664 0.292 0.24
0 0.595 0.41866666666666663 0.134 0.2773333333333333
0 0.129 0.428 0.13 0.264
0 0.377 0.44266666666666665 0.13 0.25066666666666665
1 0.365 0.5186666666666666 0.21 0.16266666666666665
1 0.12 0.496 0.176 0.17066666666666666
