8 0.29 0.4026315789473684 0.5760000000000001 0.5578947368421052
0 0.553 0.631578947368421 0.08600000000000001 0.39999999999999997
0 0.617 0.5960526315789474 0.098 0.45
0 0.6960000000000001 0.6026315789473684 0.10400000000000001 0.43684210526315786
0 0.778 0.6131578947368421 0.088 0.4263157894736842
0 0.801 0.6210526315789473 0.058 0.4421052631578947
0 0.855 0.6171052631578947 0.078 0.4921052631578947
