17 0.73 0.7213333333333333 0.38 0.504
17 0.399 0.776 0.29 0.448
0 0.24 0.6639999999999999 0.10400000000000001 0.39999999999999997
0 0.139 0.6893333333333334 0.11800000000000001 0.5093333333333333
0 0.468 0.5826666666666667 0.116 0.32266666666666666
