2 0.37 0.496996996996997 0.04 0.06306306306306306
2 0.388 0.5780780780780781 0.064 0.09309309309309309
2 0.5650000000000001 0.4159159159159159 0.08600000000000001 0.05105105105105105
2 0.508 0.3663663663663664 0.068 0.04804804804804805
2 0.761 0.6546546546546547 0.074 0.1021021021021021
2 0.10300000000000001 0.47297297297297297 0.058 0.08108108108108109
