17 0.458 0.7196969696969697 0.47200000000000003 0.5606060606060607
17 0.735 0.696969696969697 0.366 0.595959595959596
0 0.642 0.4090909090909091 0.184 0.36363636363636365
0 0.428 0.5757575757575758 0.188 0.6262626262626263
