39 0.654 0.6826666666666666 0.084 0.384
39 0.5750000000000001 0.5506666666666666 0.07 0.184
0 0.6900000000000001 0.36933333333333335 0.34 0.6426666666666666
56 0.281 0.23066666666666666 0.218 0.344
56 0.113 0.23466666666666666 0.222 0.26666666666666666
