0 0.391 0.3738738738738739 0.126 0.42342342342342343
17 0.367 0.581081081081081 0.458 0.5435435435435435
17 0.637 0.33183183183183185 0.17 0.2012012012012012
0 0.633 0.2627627627627628 0.042 0.17117117117117117
0 0.759 0.33183183183183185 0.03 0.13513513513513514
0 0.839 0.34384384384384387 0.046 0.1111111111111111
0 0.793 0.3483483483483483 0.042 0.0960960960960961
0 0.147 0.3738738738738739 0.046 0.11711711711711711
0 0.109 0.3768768768768769 0.042 0.0990990990990991
0 0.07200000000000001 0.38738738738738737 0.04 0.1021021021021021
0 0.02 0.36936936936936937 0.036000000000000004 0.13213213213213212
