0 0.425 0.5866666666666667 0.11 0.5866666666666667
0 0.459 0.536 0.17 0.5813333333333334
0 0.5740000000000001 0.5466666666666666 0.088 0.5066666666666666
0 0.652 0.5773333333333334 0.10400000000000001 0.5093333333333333
0 0.671 0.33999999999999997 0.05 0.09866666666666667
0 0.731 0.524 0.078 0.504
0 0.794 0.524 0.076 0.536
0 0.86 0.54 0.10400000000000001 0.5466666666666666
2 0.198 0.6906666666666667 0.392 0.6186666666666667
