2 0.868 0.9013333333333333 0.16 0.11733333333333333
2 0.244 0.9079999999999999 0.152 0.09333333333333332
2 0.105 0.8986666666666666 0.13 0.08533333333333333
0 0.747 0.9106666666666666 0.038 0.13599999999999998
0 0.483 0.888 0.03 0.12266666666666666
2 0.974 0.9053333333333333 0.052000000000000005 0.08266666666666667
