3 0.4427710843373494 0.668 0.8734939759036146 0.664
0 0.7063253012048193 0.491 0.20783132530120482 0.482
0 0.6234939759036144 0.577 0.3614457831325301 0.6980000000000001
0 0.04819277108433735 0.363 0.08433734939759037 0.098
