16 0.127 0.5893536121673004 0.15 0.19011406844106463
16 0.269 0.6121673003802282 0.098 0.1596958174904943
16 0.5720000000000001 0.5684410646387833 0.136 0.1634980988593156
0 0.034 0.4790874524714829 0.064 0.33460076045627374
