8 0.34400000000000003 0.2786666666666667 0.684 0.5466666666666666
0 0.559 0.21733333333333332 0.11 0.18933333333333333
0 0.214 0.12666666666666665 0.064 0.08266666666666667
0 0.662 0.23333333333333334 0.088 0.16266666666666665
0 0.73 0.204 0.056 0.184
0 0.11900000000000001 0.14933333333333332 0.066 0.288
0 0.179 0.10266666666666667 0.058 0.18933333333333333
0 0.864 0.18933333333333333 0.084 0.13333333333333333
