2 0.842 0.27999999999999997 0.316 0.16
2 0.52 0.37066666666666664 0.86 0.30933333333333335
2 0.597 0.7373333333333333 0.806 0.5146666666666666
0 0.617 0.5706666666666667 0.226 0.2773333333333333
0 0.211 0.5746666666666667 0.34600000000000003 0.6053333333333333
0 0.156 0.648 0.308 0.704
