14 0.834 0.524 0.32 0.19999999999999998
14 0.776 0.6333333333333333 0.20400000000000001 0.17333333333333334
14 0.422 0.5506666666666666 0.444 0.17333333333333334
14 0.35000000000000003 0.692 0.224 0.22133333333333333
14 0.125 0.7906666666666666 0.222 0.23199999999999998
