39 0.524 0.37223340040241454 0.036000000000000004 0.07645875251509054
39 0.555 0.3621730382293763 0.026000000000000002 0.08853118712273643
58 0.636 0.312877263581489 0.148 0.16297786720321933
0 0.292 0.53420523138833 0.3 0.8913480885311872
