5 0.306 0.5053380782918149 0.608 0.98932384341637
2 0.892 0.50355871886121 0.14400000000000002 0.0889679715302491
2 0.705 0.5320284697508897 0.23 0.1387900355871886
2 0.8240000000000001 0.48398576512455516 0.092 0.06405693950177936
