16 0.5701754385964912 0.85 0.8538011695906432 0.3
0 0.5570175438596491 0.487 0.39473684210526316 0.662
0 0.38888888888888884 0.233 0.2046783625730994 0.15
58 0.7485380116959064 0.13 0.19883040935672514 0.2
