0 0.6530303030303031 0.271 0.13636363636363635 0.114
0 0.11212121212121212 0.297 0.048484848484848485 0.09
0 0.9636363636363636 0.227 0.05454545454545454 0.11800000000000001
0 0.4863636363636364 0.5 0.21515151515151515 0.16
1 0.6484848484848484 0.305 0.18787878787878787 0.08600000000000001
1 0.4803030303030303 0.561 0.20909090909090908 0.17
