0 0.798 0.5079787234042553 0.248 0.9095744680851063
0 0.512 0.6023936170212766 0.224 0.5771276595744681
0 0.134 0.7898936170212766 0.248 0.4148936170212766
0 0.198 0.6595744680851063 0.116 0.3776595744680851
57 0.634 0.6090425531914894 0.732 0.48936170212765956
