16 0.40900000000000003 0.7635542168674699 0.442 0.38253012048192775
0 0.845 0.27259036144578314 0.15 0.5391566265060241
0 0.28300000000000003 0.32981927710843373 0.166 0.3042168674698795
56 0.714 0.4743975903614458 0.128 0.23192771084337352
