39 0.098 0.2724550898203593 0.048 0.22754491017964074
39 0.759 0.7095808383233534 0.026000000000000002 0.16766467065868265
39 0.777 0.7230538922155689 0.034 0.15868263473053892
0 0.301 0.6422155688622755 0.526 0.6976047904191617
0 0.9430000000000001 0.502994011976048 0.114 0.9880239520958084
