3 0.481 0.5386666666666666 0.5700000000000001 0.6346666666666666
0 0.433 0.4666666666666667 0.28600000000000003 0.752
0 0.839 0.33866666666666667 0.066 0.22933333333333333
2 0.9420000000000001 0.348 0.116 0.16266666666666665
