2 0.041 0.3893333333333333 0.078 0.09066666666666666
0 0.898 0.2786666666666667 0.036000000000000004 0.09866666666666667
0 0.5630000000000001 0.3413333333333333 0.262 0.208
2 0.502 0.5893333333333333 0.992 0.704
