1 0.632 0.6376623376623377 0.228 0.2883116883116883
1 0.126 0.6246753246753247 0.192 0.3038961038961039
0 0.628 0.4883116883116883 0.16 0.36883116883116884
0 0.128 0.44415584415584414 0.18 0.43116883116883115
