17 0.279 0.5947204968944099 0.326 0.531055900621118
17 0.48 0.5947204968944099 0.276 0.48136645962732916
17 0.768 0.6180124223602484 0.20800000000000002 0.40993788819875776
0 0.243 0.42857142857142855 0.122 0.48447204968944096
0 0.461 0.4440993788819875 0.106 0.4658385093167702
0 0.717 0.35403726708074534 0.106 0.21118012422360247
0 0.652 0.6024844720496894 0.088 0.4658385093167702
0 0.718 0.6133540372670807 0.092 0.46894409937888193
