1 0.7000000000000001 0.7373333333333333 0.6 0.5253333333333333
0 0.23900000000000002 0.5559999999999999 0.20600000000000002 0.8346666666666667
0 0.84 0.7066666666666667 0.076 0.128
0 0.767 0.7333333333333333 0.11800000000000001 0.20266666666666666
0 0.391 0.476 0.03 0.06133333333333333
