4 0.261 0.732 0.41400000000000003 0.3173333333333333
4 0.595 0.7053333333333333 0.13 0.06133333333333333
2 0.798 0.8546666666666667 0.092 0.06133333333333333
2 0.751 0.9106666666666666 0.11800000000000001 0.08266666666666667
