0 0.481 0.6413333333333333 0.558 0.7173333333333333
39 0.058 0.4933333333333333 0.056 0.15466666666666667
39 0.034 0.47333333333333333 0.06 0.16799999999999998
56 0.393 0.45066666666666666 0.13 0.29333333333333333
58 0.906 0.4413333333333333 0.188 0.5519999999999999
