56 0.305 0.645 0.24 0.6366666666666667
0 0.48625 0.5800000000000001 0.3775 0.8333333333333334
0 0.615 0.1716666666666667 0.13 0.29000000000000004
0 0.8025 0.4083333333333334 0.24 0.8033333333333333
0 0.18125 0.33166666666666667 0.1875 0.6566666666666667
