18 0.8230000000000001 0.6336336336336337 0.354 0.7147147147147147
18 0.4 0.6606606606606606 0.484 0.6786786786786787
18 0.399 0.28378378378378377 0.28600000000000003 0.36936936936936937
18 0.6960000000000001 0.21021021021021022 0.296 0.4144144144144144
18 0.109 0.3138138138138138 0.214 0.6216216216216216
