60 0.656 0.706 0.688 0.588
0 0.19466666666666665 0.721 0.384 0.558
0 0.2653333333333333 0.582 0.37066666666666664 0.452
0 0.27199999999999996 0.378 0.128 0.184
0 0.36933333333333335 0.375 0.25866666666666666 0.23
0 0.5253333333333333 0.34600000000000003 0.19733333333333333 0.188
0 0.732 0.387 0.17866666666666667 0.27
0 0.868 0.44 0.17333333333333334 0.34
0 0.9226666666666666 0.537 0.15466666666666667 0.354
39 0.512 0.634 0.06933333333333333 0.152
39 0.6773333333333333 0.7000000000000001 0.064 0.152
