17 0.7665662650602411 0.468 0.3283132530120482 0.272
0 0.7379518072289157 0.39 0.12048192771084337 0.22
17 0.5135542168674699 0.604 0.3885542168674699 0.352
0 0.5798192771084337 0.498 0.20783132530120482 0.324
