19 0.847 0.6906906906906907 0.17 0.13213213213213212
19 0.223 0.6456456456456456 0.082 0.08408408408408408
19 0.094 0.6516516516516516 0.1 0.0960960960960961
19 0.749 0.6381381381381381 0.062 0.08108108108108109
