5 0.494 0.5454545454545454 0.876 0.4147727272727273
0 0.9590000000000001 0.5965909090909091 0.074 0.26136363636363635
0 0.854 0.6150568181818182 0.07200000000000001 0.24147727272727273
0 0.376 0.6392045454545455 0.084 0.38636363636363635
