19 0.738 0.6573333333333333 0.068 0.15733333333333333
0 0.252 0.636 0.06 0.09866666666666667
0 0.306 0.64 0.056 0.10133333333333333
0 0.398 0.6426666666666666 0.056 0.112
0 0.357 0.6306666666666666 0.05 0.104
0 0.199 0.5893333333333333 0.03 0.12266666666666666
0 0.426 0.5986666666666667 0.028 0.088
