18 0.805 0.24666666666666665 0.098 0.09866666666666667
18 0.514 0.472 0.18 0.18133333333333332
18 0.28600000000000003 0.4373333333333333 0.16 0.16533333333333333
18 0.052000000000000005 0.424 0.096 0.14933333333333332
18 0.463 0.39466666666666667 0.114 0.12266666666666666
18 0.5730000000000001 0.37466666666666665 0.074 0.088
