0 0.715 0.3773291925465838 0.186 0.4192546583850931
17 0.713 0.5357142857142857 0.126 0.43167701863354035
19 0.9510000000000001 0.5450310559006211 0.098 0.27018633540372666
19 0.188 0.610248447204969 0.152 0.37577639751552794
