56 0.421 0.7173333333333333 0.834 0.5653333333333334
0 0.504 0.6679999999999999 0.512 0.6639999999999999
56 0.603 0.18666666666666665 0.14200000000000002 0.3253333333333333
56 0.486 0.184 0.12 0.23466666666666666
56 0.41200000000000003 0.13466666666666666 0.068 0.264
