56 0.7253333333333333 0.877 0.5493333333333333 0.246
56 0.09866666666666667 0.724 0.192 0.244
58 0.376 0.708 0.256 0.26
58 0.292 0.5690000000000001 0.13599999999999998 0.138
58 0.15466666666666667 0.5730000000000001 0.192 0.162
