3 0.91 0.5589123867069486 0.18 0.36253776435045315
3 0.677 0.5362537764350453 0.226 0.35347432024169184
3 0.456 0.5770392749244713 0.34800000000000003 0.3806646525679758
0 0.7030000000000001 0.5090634441087614 0.198 0.43202416918429004
0 0.497 0.5664652567975831 0.334 0.5105740181268882
0 0.916 0.5332326283987915 0.168 0.4199395770392749
0 0.789 0.34441087613293053 0.058 0.283987915407855
3 0.461 0.3580060422960725 0.10200000000000001 0.20241691842900303
0 0.65 0.2824773413897281 0.092 0.11178247734138973
0 0.052000000000000005 0.18731117824773413 0.044 0.1148036253776435
