39 0.158 0.8108108108108109 0.056 0.21021021021021022
0 0.862 0.6231231231231231 0.248 0.5735735735735735
0 0.559 0.4624624624624625 0.21 0.3303303303303303
0 0.131 0.536036036036036 0.258 0.44144144144144143
60 0.428 0.7987987987987988 0.808 0.4024024024024024
