3 0.24 0.5570934256055363 0.428 0.6505190311418685
3 0.777 0.5674740484429066 0.41400000000000003 0.6920415224913495
0 0.6880000000000001 0.5207612456747405 0.456 0.7301038062283737
0 0.209 0.4826989619377163 0.35000000000000003 0.7439446366782008
0 0.866 0.26124567474048443 0.108 0.4740484429065744
0 0.326 0.26124567474048443 0.128 0.3633217993079585
0 0.5730000000000001 0.1384083044982699 0.10200000000000001 0.18685121107266436
0 0.626 0.12110726643598617 0.124 0.23529411764705882
0 0.225 0.1453287197231834 0.10200000000000001 0.16608996539792387
0 0.037 0.18685121107266436 0.07 0.35294117647058826
