58 0.769 0.596 0.106 0.24266666666666667
56 0.713 0.7453333333333333 0.158 0.296
56 0.47500000000000003 0.9013333333333333 0.234 0.19733333333333333
56 0.442 0.8493333333333333 0.216 0.30133333333333334
0 0.605 0.7106666666666667 0.182 0.47733333333333333
0 0.652 0.5853333333333333 0.128 0.4933333333333333
0 0.518 0.7373333333333333 0.312 0.5253333333333333
