56 0.138 0.48533333333333334 0.1 0.18666666666666665
56 0.392 0.7879999999999999 0.368 0.424
56 0.328 0.7133333333333333 0.28 0.48266666666666663
62 0.357 0.372 0.08600000000000001 0.13066666666666665
62 0.417 0.38266666666666665 0.106 0.184
62 0.55 0.39866666666666667 0.26 0.2906666666666667
62 0.809 0.4453333333333333 0.382 0.5333333333333333
