2 0.467 0.24666666666666665 0.602 0.3173333333333333
2 0.866 0.3173333333333333 0.112 0.12266666666666666
2 0.135 0.5933333333333333 0.262 0.344
2 0.315 0.5439999999999999 0.126 0.14933333333333332
2 0.386 0.5373333333333333 0.052000000000000005 0.08266666666666667
