17 0.596875 0.5361635220125787 0.6770833333333334 0.9276729559748428
17 0.2989583333333333 0.5628930817610063 0.59375 0.8742138364779874
0 0.39479166666666665 0.07547169811320756 0.13958333333333334 0.14465408805031446
