58 0.8170000000000001 0.4906417112299465 0.342 0.9385026737967914
58 0.446 0.7473262032085561 0.364 0.48930481283422456
58 0.16 0.5815508021390374 0.312 0.7994652406417112
58 0.46900000000000003 0.42513368983957217 0.326 0.5828877005347594
