0 0.314 0.4946524064171123 0.176 0.3957219251336898
0 0.656 0.5040106951871658 0.156 0.32887700534759357
0 0.036000000000000004 0.5147058823529411 0.068 0.13101604278074866
0 0.062 0.5213903743315508 0.04 0.1229946524064171
0 0.111 0.5360962566844919 0.066 0.13101604278074866
1 0.329 0.6149732620320856 0.198 0.29411764705882354
1 0.661 0.6283422459893048 0.17 0.2620320855614973
