0 0.725 0.524 0.178 0.2693333333333333
0 0.866 0.6053333333333333 0.26 0.5599999999999999
0 0.127 0.696 0.25 0.5386666666666666
0 0.178 0.5 0.312 0.2906666666666667
0 0.396 0.36 0.088 0.15466666666666667
56 0.875 0.7946666666666666 0.242 0.39999999999999997
39 0.59 0.6546666666666666 0.044 0.216
39 0.43 0.48666666666666664 0.032 0.13066666666666665
39 0.482 0.5013333333333333 0.032 0.12266666666666666
60 0.47100000000000003 0.756 0.55 0.4666666666666667
