0 0.44 0.47333333333333333 0.16 0.43466666666666665
0 0.264 0.656 0.296 0.688
0 0.311 0.8026666666666666 0.17400000000000002 0.39466666666666667
0 0.683 0.648 0.214 0.704
17 0.504 0.7786666666666666 0.34 0.44266666666666665
