57 0.51 0.6 0.644 0.35733333333333334
0 0.44 0.592 0.17200000000000001 0.5386666666666666
0 0.66 0.5773333333333334 0.184 0.472
2 0.547 0.352 0.074 0.08
2 0.75 0.36933333333333335 0.06 0.07733333333333334
2 0.704 0.36666666666666664 0.056 0.06133333333333333
