56 0.758 0.3033033033033033 0.304 0.43843843843843844
0 0.293 0.5405405405405406 0.51 0.9129129129129129
0 0.771 0.5015015015015015 0.446 0.8468468468468469
39 0.352 0.8153153153153153 0.056 0.2012012012012012
