14 0.927 0.428 0.05 0.06133333333333333
14 0.445 0.5066666666666666 0.078 0.08
14 0.34800000000000003 0.5546666666666666 0.07200000000000001 0.064
14 0.088 0.524 0.044 0.072
14 0.266 0.5186666666666666 0.06 0.056
14 0.299 0.4493333333333333 0.066 0.04533333333333333
0 0.363 0.7213333333333333 0.082 0.2906666666666667
0 0.47400000000000003 0.7426666666666667 0.096 0.23199999999999998
0 0.5 0.6373333333333333 0.052000000000000005 0.10133333333333333
0 0.546 0.7506666666666666 0.1 0.216
0 0.518 0.7186666666666667 0.056 0.09333333333333332
