39 0.675 0.8653333333333333 0.14200000000000002 0.17866666666666667
0 0.08 0.584 0.148 0.832
0 0.16 0.372 0.076 0.264
0 0.232 0.6453333333333333 0.248 0.6933333333333334
0 0.419 0.5946666666666667 0.178 0.8053333333333333
0 0.615 0.5826666666666667 0.19 0.8346666666666667
0 0.833 0.23866666666666667 0.134 0.14666666666666667
0 0.777 0.624 0.334 0.752
