17 0.596 0.652 0.608 0.3973333333333333
17 0.272 0.6 0.356 0.21866666666666665
0 0.515 0.5599999999999999 0.122 0.4693333333333333
0 0.34600000000000003 0.47866666666666663 0.04 0.050666666666666665
0 0.2 0.6839999999999999 0.116 0.6106666666666667
0 0.044 0.5093333333333333 0.068 0.13866666666666666
