1 0.743 0.6621621621621622 0.222 0.3813813813813814
1 0.548 0.7432432432432432 0.268 0.45945945945945943
1 0.234 0.7402402402402403 0.372 0.5015015015015015
0 0.296 0.5615615615615616 0.34800000000000003 0.6906906906906907
0 0.58 0.5525525525525525 0.26 0.5585585585585585
0 0.788 0.5540540540540541 0.20400000000000001 0.5915915915915916
0 0.8260000000000001 0.07207207207207207 0.06 0.10810810810810811
