3 0.457 0.552870090634441 0.526 0.525679758308157
0 0.517 0.4652567975830816 0.358 0.6283987915407855
0 0.647 0.2190332326283988 0.19 0.4199395770392749
3 0.26 0.1419939577039275 0.148 0.1933534743202417
