1 0.7017291066282421 0.581 0.3717579250720461 0.578
1 0.32708933717579247 0.579 0.38904899135446686 0.47400000000000003
0 0.6743515850144092 0.396 0.4841498559077809 0.684
0 0.3126801152737752 0.41300000000000003 0.47550432276657056 0.678
