2 0.4505988023952096 0.466 0.8892215568862276 0.804
2 0.8952095808383234 0.023 0.11377245508982037 0.042
2 0.7425149700598803 0.023 0.1317365269461078 0.042
2 0.47904191616766467 0.026000000000000002 0.1377245508982036 0.04
2 0.6137724550898204 0.024 0.1377245508982036 0.044
2 0.34281437125748504 0.028 0.1347305389221557 0.044
2 0.22754491017964074 0.032 0.125748502994012 0.04
2 0.11377245508982037 0.037 0.10778443113772455 0.042
