39 0.145 0.6426666666666666 0.28600000000000003 0.7146666666666667
39 0.321 0.7466666666666666 0.154 0.5066666666666666
39 0.496 0.76 0.252 0.48
39 0.311 0.4013333333333333 0.202 0.37066666666666664
39 0.504 0.4453333333333333 0.20400000000000001 0.5706666666666667
39 0.646 0.436 0.156 0.5626666666666666
