5 0.531 0.5173333333333333 0.794 0.5866666666666667
0 0.07100000000000001 0.6426666666666666 0.094 0.20266666666666666
8 0.161 0.6586666666666666 0.146 0.144
8 0.337 0.6226666666666666 0.222 0.17333333333333334
8 0.873 0.7173333333333333 0.254 0.14933333333333332
