2 0.595 0.53003003003003 0.17400000000000002 0.15315315315315314
5 0.909 0.5015015015015015 0.182 0.1921921921921922
0 0.354 0.46096096096096095 0.068 0.3993993993993994
0 0.155 0.5 0.306 0.993993993993994
