56 0.552 0.7462462462462462 0.164 0.33933933933933935
56 0.244 0.6306306306306306 0.188 0.3483483483483483
56 0.154 0.44594594594594594 0.14 0.2972972972972973
56 0.254 0.3183183183183183 0.124 0.24624624624624625
56 0.457 0.2777777777777778 0.09 0.22522522522522523
56 0.856 0.6606606606606606 0.20400000000000001 0.34234234234234234
56 0.895 0.46846846846846846 0.154 0.2822822822822823
56 0.788 0.17867867867867868 0.07200000000000001 0.17717717717717718
56 0.705 0.16666666666666666 0.074 0.15915915915915915
56 0.613 0.2072072072072072 0.074 0.16816816816816815
56 0.913 0.19369369369369369 0.11 0.1891891891891892
56 0.507 0.15915915915915915 0.078 0.14414414414414414
56 0.705 0.3228228228228228 0.11800000000000001 0.23723723723723725
