1 0.279 0.7027027027027027 0.13 0.4024024024024024
1 0.467 0.6891891891891891 0.078 0.24924924924924924
0 0.28600000000000003 0.5330330330330331 0.14 0.6156156156156156
0 0.462 0.5765765765765766 0.084 0.3663663663663664
