0 0.442 0.39199999999999996 0.124 0.29333333333333333
0 0.76 0.3466666666666667 0.096 0.22933333333333333
0 0.8140000000000001 0.41333333333333333 0.228 0.3253333333333333
56 0.116 0.5346666666666666 0.176 0.32266666666666666
56 0.9590000000000001 0.5293333333333333 0.082 0.32266666666666666
56 0.849 0.5426666666666666 0.15 0.30666666666666664
