57 0.146 0.724 0.28800000000000003 0.45599999999999996
56 0.364 0.6626666666666666 0.396 0.43466666666666665
60 0.607 0.48 0.162 0.14933333333333332
56 0.679 0.48133333333333334 0.074 0.184
56 0.601 0.49466666666666664 0.09 0.19466666666666665
58 0.15 0.23199999999999998 0.2 0.21866666666666665
58 0.912 0.27066666666666667 0.176 0.248
