5 0.513 0.48533333333333334 0.914 0.35733333333333334
0 0.052000000000000005 0.516 0.028 0.10933333333333332
0 0.014 0.5133333333333333 0.024 0.09866666666666667
0 0.745 0.4746666666666666 0.122 0.22933333333333333
