56 0.292 0.5053333333333333 0.28 0.6533333333333333
56 0.38 0.536 0.352 0.7946666666666666
56 0.519 0.5013333333333333 0.242 0.5546666666666666
56 0.628 0.54 0.328 0.6746666666666666
60 0.547 0.628 0.466 0.6693333333333333
