14 0.8346666666666667 0.162 0.21866666666666665 0.188
14 0.30666666666666664 0.295 0.2773333333333333 0.23
14 0.5 0.736 0.584 0.328
14 0.19599999999999998 0.607 0.3813333333333333 0.218
14 0.412 0.406 0.14133333333333334 0.212
14 0.828 0.387 0.33866666666666667 0.218
14 0.508 0.47100000000000003 0.30666666666666664 0.43
