62 0.20700000000000002 0.42933333333333334 0.14200000000000002 0.16533333333333333
57 0.585 0.6053333333333333 0.418 0.32
0 0.591 0.52 0.34600000000000003 0.21333333333333332
56 0.877 0.42133333333333334 0.134 0.19733333333333333
56 0.899 0.45066666666666666 0.11800000000000001 0.24
56 0.526 0.388 0.076 0.13066666666666665
56 0.41200000000000003 0.43066666666666664 0.084 0.14666666666666667
60 0.754 0.444 0.188 0.19999999999999998
