58 0.265 0.816 0.246 0.3253333333333333
58 0.5700000000000001 0.8053333333333333 0.23600000000000002 0.26666666666666666
58 0.075 0.7986666666666666 0.14200000000000002 0.264
0 0.894 0.5373333333333333 0.212 0.9253333333333333
