3 0.6980000000000001 0.7333333333333333 0.188 0.18133333333333332
0 0.681 0.6613333333333333 0.074 0.20266666666666666
0 0.28800000000000003 0.7266666666666667 0.064 0.264
0 0.424 0.8413333333333333 0.076 0.248
0 0.516 0.8266666666666667 0.064 0.26666666666666666
0 0.84 0.9039999999999999 0.076 0.18666666666666665
0 0.9440000000000001 0.9 0.068 0.19999999999999998
