0 0.29 0.6226666666666666 0.544 0.7546666666666666
0 0.807 0.2693333333333333 0.10200000000000001 0.20266666666666666
0 0.907 0.2693333333333333 0.10200000000000001 0.208
62 0.854 0.27599999999999997 0.292 0.34933333333333333
0 0.738 0.7133333333333333 0.524 0.5733333333333334
