2 0.498 0.4973333333333333 0.988 0.984
0 0.961 0.21333333333333332 0.062 0.27199999999999996
0 0.554 0.18 0.1 0.24266666666666667
0 0.625 0.11466666666666667 0.062 0.10666666666666666
0 0.266 0.11599999999999999 0.068 0.104
