15 0.713 0.27599999999999997 0.5740000000000001 0.5146666666666666
15 0.487 0.7453333333333333 0.146 0.504
39 0.38 0.08266666666666667 0.08 0.16
39 0.263 0.076 0.10200000000000001 0.14666666666666667
