60 0.503 0.6636636636636637 0.994 0.6726726726726726
39 0.603 0.41291291291291293 0.054 0.2912912912912913
39 0.384 0.3948948948948949 0.068 0.2732732732732733
56 0.122 0.2747747747747748 0.184 0.47147147147147145
