5 0.906 0.6711309523809523 0.188 0.45535714285714285
2 0.373 0.6086309523809523 0.098 0.22916666666666666
1 0.792 0.8110119047619048 0.092 0.19345238095238093
0 0.784 0.7261904761904762 0.10400000000000001 0.3333333333333333
