2 0.509 0.5435435435435435 0.67 0.6126126126126126
2 0.158 0.4249249249249249 0.312 0.23723723723723725
0 0.065 0.4174174174174174 0.122 0.34234234234234234
0 0.9400000000000001 0.40540540540540543 0.06 0.23423423423423423
