2 0.069 0.9053333333333333 0.13 0.16799999999999998
0 0.168 0.8613333333333333 0.048 0.14933333333333332
0 0.426 0.8426666666666667 0.04 0.13333333333333333
0 0.716 0.836 0.032 0.104
0 0.796 0.8253333333333333 0.032 0.088
