3 0.23 0.6946666666666667 0.456 0.408
3 0.907 0.4333333333333333 0.138 0.248
3 0.544 0.5906666666666667 0.364 0.38666666666666666
3 0.72 0.48533333333333334 0.36 0.32
0 0.148 0.348 0.124 0.4026666666666667
