57 0.8170000000000001 0.6546666666666666 0.366 0.5413333333333333
58 0.275 0.208 0.126 0.13333333333333333
58 0.541 0.35333333333333333 0.082 0.13599999999999998
56 0.421 0.45466666666666666 0.11 0.22666666666666666
16 0.339 0.484 0.114 0.09866666666666667
