2 0.889 0.524 0.20600000000000002 0.12
2 0.769 0.5133333333333333 0.17400000000000002 0.104
2 0.659 0.49866666666666665 0.154 0.096
2 0.5670000000000001 0.5 0.154 0.09866666666666667
2 0.428 0.49066666666666664 0.14400000000000002 0.07466666666666666
2 0.353 0.48533333333333334 0.134 0.06933333333333333
2 0.28700000000000003 0.47733333333333333 0.10200000000000001 0.06933333333333333
2 0.262 0.472 0.132 0.048
