60 0.195 0.5133333333333333 0.378 0.3333333333333333
60 0.216 0.33066666666666666 0.388 0.17066666666666666
56 0.158 0.5306666666666666 0.28400000000000003 0.3413333333333333
0 0.793 0.5293333333333333 0.41400000000000003 0.9413333333333334
0 0.47400000000000003 0.19999999999999998 0.076 0.37866666666666665
0 0.528 0.17466666666666666 0.056 0.25866666666666666
