0 0.5740000000000001 0.364 0.196 0.536
0 0.065 0.416 0.126 0.6613333333333333
16 0.5630000000000001 0.5853333333333333 0.138 0.4666666666666667
16 0.8310000000000001 0.592 0.182 0.23466666666666666
16 0.35100000000000003 0.524 0.23 0.312
