19 0.785 0.4866310160427807 0.366 0.8288770053475936
19 0.639 0.30213903743315507 0.27 0.5935828877005347
19 0.405 0.2981283422459893 0.41000000000000003 0.5802139037433155
19 0.213 0.2981283422459893 0.23800000000000002 0.5320855614973262
