0 0.485 0.6173333333333333 0.65 0.7653333333333333
0 0.911 0.4746666666666666 0.078 0.16533333333333333
0 0.809 0.448 0.094 0.12266666666666666
60 0.313 0.6186666666666667 0.21 0.25066666666666665
56 0.908 0.8213333333333334 0.184 0.35733333333333334
56 0.184 0.6093333333333333 0.17200000000000001 0.2693333333333333
56 0.383 0.632 0.166 0.2826666666666667
56 0.084 0.5306666666666666 0.092 0.17066666666666666
