0 0.497 0.5346938775510205 0.53 0.9306122448979592
0 0.657 0.34693877551020413 0.066 0.2122448979591837
0 0.627 0.28163265306122454 0.038 0.13877551020408163
0 0.395 0.25510204081632654 0.038 0.14285714285714288
56 0.787 0.3959183673469388 0.094 0.2285714285714286
56 0.7030000000000001 0.45510204081632655 0.08600000000000001 0.35510204081632657
