3 0.367 0.7373333333333333 0.73 0.5253333333333333
3 0.538 0.5613333333333334 0.924 0.6053333333333333
0 0.213 0.4026666666666667 0.126 0.528
0 0.451 0.28933333333333333 0.082 0.216
0 0.58 0.30533333333333335 0.096 0.41333333333333333
0 0.732 0.30933333333333335 0.076 0.42133333333333334
0 0.879 0.32666666666666666 0.094 0.424
0 0.302 0.2786666666666667 0.076 0.2906666666666667
0 0.662 0.30266666666666664 0.07200000000000001 0.36
