39 0.678 0.12 0.07200000000000001 0.23466666666666666
39 0.6 0.176 0.064 0.30933333333333335
58 0.222 0.17066666666666666 0.20400000000000001 0.33599999999999997
58 0.801 0.092 0.198 0.17866666666666667
