2 0.442 0.6171171171171171 0.812 0.5735735735735735
0 0.881 0.34984984984984985 0.022 0.08708708708708708
2 0.9500000000000001 0.3813813813813814 0.1 0.11411411411411411
0 0.979 0.3783783783783784 0.042 0.18018018018018017
2 0.714 0.32432432432432434 0.092 0.07807807807807808
0 0.768 0.35585585585585583 0.068 0.1111111111111111
0 0.8250000000000001 0.43843843843843844 0.05 0.12612612612612611
2 0.41400000000000003 0.11561561561561562 0.112 0.15315315315315314
