6 0.402 0.5253731343283582 0.8 0.817910447761194
0 0.833 0.5492537313432836 0.09 0.3283582089552239
0 0.9570000000000001 0.5985074626865672 0.074 0.28955223880597014
0 0.9390000000000001 0.46119402985074626 0.082 0.13432835820895522
