0 0.313 0.616 0.274 0.768
0 0.676 0.8506666666666667 0.256 0.29333333333333333
0 0.6960000000000001 0.608 0.256 0.352
0 0.639 0.508 0.198 0.2373333333333333
62 0.089 0.47866666666666663 0.17400000000000002 0.312
