1 0.10400000000000001 0.46799999999999997 0.1 0.152
1 0.23900000000000002 0.596 0.218 0.248
1 0.681 0.7346666666666667 0.638 0.5306666666666666
0 0.105 0.39999999999999997 0.078 0.20266666666666666
0 0.278 0.47866666666666663 0.156 0.4666666666666667
0 0.711 0.5493333333333333 0.294 0.9013333333333333
