2 0.272 0.8147058823529412 0.14 0.3352941176470588
2 0.806 0.6705882352941176 0.20400000000000001 0.22352941176470587
2 0.585 0.7 0.23 0.21176470588235294
2 0.682 0.6294117647058823 0.128 0.1411764705882353
2 0.454 0.6823529411764706 0.176 0.27058823529411763
2 0.34500000000000003 0.6058823529411764 0.05 0.07058823529411765
2 0.028 0.6617647058823529 0.052000000000000005 0.1588235294117647
