62 0.302 0.43582887700534756 0.088 0.20855614973262032
62 0.46 0.3903743315508021 0.064 0.1497326203208556
58 0.445 0.21657754010695185 0.05 0.1764705882352941
57 0.715 0.4839572192513369 0.274 0.2727272727272727
56 0.438 0.7433155080213903 0.276 0.3636363636363636
