14 0.35130111524163565 0.8952513966480448 0.10780669144981413 0.06424581005586592
0 0.5799256505576208 0.5768156424581006 0.0966542750929368 0.23184357541899442
8 0.8903345724907062 0.10614525139664804 0.21933085501858735 0.16201117318435754
8 0.7397769516728624 0.12849162011173185 0.2007434944237918 0.10614525139664804
