17 0.872 0.5733333333333334 0.14 0.12266666666666666
17 0.722 0.5613333333333334 0.124 0.12533333333333332
17 0.34600000000000003 0.5093333333333333 0.064 0.06933333333333333
17 0.147 0.49466666666666664 0.078 0.08266666666666667
