4 0.664 0.3669467787114846 0.168 0.10644257703081232
4 0.426 0.42016806722689076 0.156 0.09523809523809523
4 0.25 0.4677871148459384 0.156 0.0896358543417367
4 0.258 0.5378151260504201 0.16 0.0784313725490196
4 0.23800000000000002 0.6120448179271709 0.164 0.09803921568627451
