56 0.08 0.7687687687687688 0.06 0.32432432432432434
56 0.171 0.7942942942942943 0.158 0.35735735735735735
56 0.337 0.8048048048048048 0.166 0.35435435435435436
60 0.23900000000000002 0.8183183183183184 0.366 0.3333333333333333
