17 0.384 0.6253333333333333 0.56 0.6373333333333333
0 0.429 0.36666666666666664 0.162 0.38666666666666666
0 0.651 0.6226666666666666 0.17 0.616
0 0.884 0.4653333333333333 0.06 0.21066666666666667
0 0.96 0.5093333333333333 0.076 0.33599999999999997
0 0.043000000000000003 0.5266666666666666 0.082 0.2693333333333333
2 0.808 0.424 0.116 0.09066666666666666
