39 0.618 0.8288288288288288 0.084 0.3123123123123123
39 0.503 0.7957957957957957 0.074 0.29429429429429427
39 0.41000000000000003 0.7567567567567568 0.076 0.2702702702702703
39 0.329 0.7282282282282282 0.074 0.2552552552552553
39 0.255 0.7027027027027027 0.066 0.23423423423423423
39 0.177 0.6411411411411412 0.078 0.3153153153153153
39 0.106 0.6201201201201201 0.076 0.3033033033033033
39 0.051000000000000004 0.6081081081081081 0.058 0.2852852852852853
39 0.02 0.5885885885885885 0.036000000000000004 0.2702702702702703
39 0.786 0.46846846846846846 0.088 0.3663663663663664
39 0.6930000000000001 0.46096096096096095 0.082 0.35735735735735735
39 0.616 0.44594594594594594 0.076 0.32732732732732733
39 0.542 0.44144144144144143 0.076 0.3303303303303303
39 0.482 0.4249249249249249 0.064 0.27927927927927926
39 0.41500000000000004 0.4264264264264264 0.07 0.29429429429429427
39 0.362 0.4219219219219219 0.056 0.26726726726726724
39 0.31 0.42042042042042044 0.056 0.27627627627627627
39 0.249 0.4159159159159159 0.07 0.24324324324324323
39 0.622 0.6036036036036035 0.084 0.18018018018018017
39 0.457 0.6651651651651651 0.074 0.36336336336336333
39 0.35100000000000003 0.5855855855855856 0.08600000000000001 0.2222222222222222
39 0.259 0.566066066066066 0.078 0.2132132132132132
39 0.2 0.4174174174174174 0.056 0.23423423423423423
39 0.157 0.4114114114114114 0.062 0.23423423423423423
39 0.115 0.37537537537537535 0.046 0.15615615615615616
39 0.8130000000000001 0.19369369369369369 0.09 0.3813813813813814
39 0.72 0.19369369369369369 0.088 0.3813813813813814
39 0.639 0.1996996996996997 0.098 0.3933933933933934
39 0.54 0.19369369369369369 0.07200000000000001 0.3813813813813814
39 0.462 0.1891891891891892 0.07200000000000001 0.37237237237237236
39 0.39 0.1891891891891892 0.07200000000000001 0.36036036036036034
39 0.328 0.19519519519519518 0.06 0.35435435435435436
39 0.28300000000000003 0.2012012012012012 0.058 0.3483483483483483
39 0.23800000000000002 0.1981981981981982 0.052000000000000005 0.3303303303303303
39 0.192 0.19519519519519518 0.06 0.32432432432432434
39 0.149 0.1966966966966967 0.054 0.32732732732732733
39 0.053 0.17567567567567569 0.054 0.23723723723723725
