14 0.648 0.7746666666666666 0.6 0.42933333333333334
14 0.655 0.48 0.114 0.21866666666666665
14 0.444 0.42 0.136 0.22133333333333333
14 0.317 0.4373333333333333 0.058 0.128
14 0.094 0.5093333333333333 0.184 0.31466666666666665
