56 0.26941176470588235 0.8824451410658307 0.12 0.23510971786833854
56 0.40352941176470586 0.9153605015673981 0.12470588235294117 0.16927899686520376
56 0.06823529411764705 0.8793103448275862 0.12235294117647058 0.21630094043887146
60 0.3458823529411764 0.8432601880877743 0.2164705882352941 0.26332288401253917
60 0.4729411764705882 0.8840125391849529 0.268235294117647 0.23197492163009403
60 0.668235294117647 0.9184952978056427 0.3105882352941176 0.16300940438871472
60 0.07176470588235294 0.8213166144200627 0.1388235294117647 0.225705329153605
