60 0.504 0.6986666666666667 0.92 0.6026666666666667
0 0.878 0.5693333333333334 0.244 0.47733333333333333
0 0.719 0.4106666666666667 0.278 0.368
0 0.715 0.3453333333333333 0.10200000000000001 0.24266666666666667
0 0.506 0.256 0.132 0.26666666666666666
0 0.166 0.5826666666666667 0.324 0.5519999999999999
0 0.274 0.42666666666666664 0.14400000000000002 0.2826666666666667
0 0.35100000000000003 0.33466666666666667 0.122 0.216
0 0.224 0.248 0.088 0.25066666666666665
