56 0.177 0.3773333333333333 0.098 0.072
56 0.34700000000000003 0.3933333333333333 0.066 0.12533333333333332
56 0.381 0.42533333333333334 0.074 0.12
56 0.465 0.45199999999999996 0.078 0.13599999999999998
56 0.54 0.5026666666666666 0.084 0.14666666666666667
56 0.404 0.776 0.276 0.448
56 0.169 0.736 0.27 0.5173333333333333
60 0.264 0.7 0.336 0.6
62 0.8150000000000001 0.3253333333333333 0.08600000000000001 0.096
