0 0.9430000000000001 0.480421686746988 0.114 0.32228915662650603
0 0.649 0.5993975903614458 0.19 0.5180722891566265
0 0.54 0.608433734939759 0.34 0.608433734939759
0 0.26 0.6159638554216867 0.512 0.7680722891566265
39 0.834 0.7153614457831325 0.036000000000000004 0.18373493975903615
39 0.906 0.6430722891566265 0.044 0.1536144578313253
