56 0.748 0.8074866310160428 0.296 0.3850267379679144
56 0.42 0.6457219251336898 0.128 0.30213903743315507
56 0.232 0.8061497326203209 0.432 0.3877005347593583
56 0.53 0.6029411764705882 0.064 0.23262032085561496
60 0.397 0.6203208556149732 0.218 0.2459893048128342
