2 0.09009009009009009 0.559 0.17417417417417416 0.21
2 0.3663663663663664 0.495 0.2702702702702703 0.11
2 0.5075075075075075 0.47500000000000003 0.15015015015015015 0.066
0 0.2222222222222222 0.461 0.06006006006006006 0.078
