0 0.196 0.6216216216216216 0.38 0.7567567567567568
0 0.51 0.39039039039039036 0.17200000000000001 0.37237237237237236
0 0.779 0.3813813813813814 0.146 0.34234234234234234
0 0.874 0.6651651651651651 0.252 0.6636636636636637
0 0.919 0.22822822822822822 0.154 0.4444444444444444
0 0.328 0.42042042042042044 0.196 0.43843843843843844
60 0.543 0.7402402402402403 0.63 0.5015015015015015
62 0.611 0.2552552552552553 0.106 0.1921921921921922
