58 0.8297872340425532 0.808 0.2553191489361702 0.264
58 0.0678191489361702 0.515 0.13031914893617022 0.218
58 0.37101063829787234 0.34700000000000003 0.23138297872340424 0.11
58 0.6835106382978723 0.361 0.09042553191489361 0.058
