57 0.524 0.5479999999999999 0.8320000000000001 0.43466666666666665
39 0.324 0.6293333333333333 0.048 0.16
39 0.10300000000000001 0.6293333333333333 0.082 0.23466666666666666
0 0.275 0.5066666666666666 0.25 0.39466666666666667
0 0.6990000000000001 0.48666666666666664 0.34600000000000003 0.38666666666666666
