4 0.4984984984984985 0.439 0.990990990990991 0.20600000000000002
0 0.5705705705705706 0.511 0.2882882882882883 0.51
0 0.5795795795795796 0.715 0.3783783783783784 0.5700000000000001
0 0.22072072072072071 0.759 0.37537537537537535 0.482
