17 0.443 0.52 0.426 0.96
0 0.751 0.564 0.046 0.216
0 0.715 0.528 0.054 0.15466666666666667
0 0.632 0.6986666666666667 0.07200000000000001 0.46399999999999997
0 0.47400000000000003 0.652 0.06 0.21066666666666667
0 0.076 0.6386666666666666 0.12 0.49866666666666665
