1 0.38 0.8194029850746268 0.756 0.3611940298507463
0 0.842 0.5029850746268657 0.316 0.9940298507462687
58 0.589 0.691044776119403 0.126 0.2537313432835821
58 0.438 0.6313432835820896 0.192 0.3850746268656716
