0 0.575 0.3341836734693877 0.22916666666666666 0.4438775510204081
17 0.46875 0.548469387755102 0.7583333333333333 0.8112244897959183
0 0.23229166666666667 0.3915816326530612 0.07291666666666667 0.11989795918367346
