56 0.28500000000000003 0.632 0.114 0.4746666666666666
56 0.516 0.5266666666666666 0.12 0.2906666666666667
56 0.453 0.504 0.13 0.27199999999999996
60 0.375 0.5573333333333333 0.358 0.304
57 0.781 0.5439999999999999 0.438 0.30933333333333335
56 0.797 0.7613333333333333 0.406 0.47733333333333333
