1 0.646 0.5439999999999999 0.524 0.6506666666666666
0 0.8200000000000001 0.7213333333333333 0.34 0.5519999999999999
0 0.15 0.716 0.292 0.5519999999999999
0 0.369 0.2786666666666667 0.214 0.52
0 0.549 0.32266666666666666 0.266 0.18666666666666665
0 0.28200000000000003 0.5853333333333333 0.232 0.4026666666666667
