1 0.61 0.5186666666666666 0.112 0.09866666666666667
1 0.34500000000000003 0.524 0.078 0.06666666666666667
0 0.606 0.46399999999999997 0.068 0.11733333333333333
0 0.34600000000000003 0.4933333333333333 0.048 0.08
0 0.281 0.44666666666666666 0.038 0.050666666666666665
