3 0.34400000000000003 0.6362229102167183 0.46 0.38699690402476783
3 0.8150000000000001 0.6176470588235294 0.33 0.33746130030959753
0 0.677 0.5356037151702787 0.222 0.43343653250773995
0 0.183 0.5835913312693499 0.20600000000000002 0.44891640866873067
0 0.461 0.42879256965944273 0.146 0.33746130030959753
