5 0.8693693693693694 0.14100000000000001 0.26126126126126126 0.17
5 0.4519519519519519 0.157 0.3813813813813814 0.14200000000000002
0 0.6996996996996997 0.516 0.27627627627627627 0.904
0 0.3993993993993994 0.482 0.37237237237237236 0.8200000000000001
