39 0.866 0.4706666666666667 0.032 0.13599999999999998
0 0.804 0.18666666666666665 0.176 0.18133333333333332
0 0.769 0.25066666666666665 0.258 0.256
0 0.677 0.4413333333333333 0.29 0.5093333333333333
0 0.515 0.44666666666666666 0.402 0.5626666666666666
0 0.5650000000000001 0.6773333333333333 0.382 0.6133333333333333
0 0.296 0.7346666666666667 0.332 0.5306666666666666
39 0.34900000000000003 0.7839999999999999 0.046 0.14933333333333332
