60 0.43 0.7706666666666666 0.5760000000000001 0.45866666666666667
0 0.8200000000000001 0.7266666666666667 0.36 0.5466666666666666
0 0.866 0.5786666666666667 0.268 0.4106666666666667
0 0.739 0.48266666666666663 0.146 0.192
0 0.963 0.35466666666666663 0.074 0.30933333333333335
0 0.431 0.5133333333333333 0.194 0.2533333333333333
0 0.28600000000000003 0.6346666666666666 0.244 0.48533333333333334
0 0.159 0.716 0.31 0.568
0 0.324 0.39999999999999997 0.112 0.144
