57 0.458 0.6653333333333333 0.392 0.25866666666666666
60 0.786 0.7973333333333333 0.424 0.39999999999999997
56 0.674 0.7786666666666666 0.292 0.44266666666666665
56 0.907 0.8053333333333333 0.182 0.3893333333333333
56 0.721 0.7293333333333333 0.11800000000000001 0.41866666666666663
