2 0.397 0.44894894894894893 0.106 0.0990990990990991
0 0.188 0.5855855855855856 0.372 0.8288288288288288
0 0.548 0.6186186186186187 0.46 0.7627627627627628
0 0.886 0.6561561561561562 0.228 0.6876876876876877
