60 0.529 0.9093333333333333 0.686 0.176
39 0.149 0.492 0.026000000000000002 0.07733333333333334
39 0.55 0.8133333333333334 0.06 0.256
39 0.615 0.9293333333333333 0.034 0.14133333333333334
39 0.5660000000000001 0.9199999999999999 0.036000000000000004 0.16
60 0.198 0.6266666666666666 0.216 0.23466666666666666
56 0.23900000000000002 0.6373333333333333 0.122 0.25066666666666665
56 0.097 0.648 0.146 0.24533333333333332
56 0.039 0.7586666666666666 0.062 0.344
