62 0.029 0.6653333333333333 0.054 0.2373333333333333
56 0.849 0.744 0.27 0.368
56 0.843 0.7853333333333333 0.29 0.42933333333333334
60 0.374 0.8173333333333334 0.744 0.36533333333333334
0 0.963 0.6613333333333333 0.074 0.6773333333333333
