0 0.20700000000000002 0.44385026737967914 0.33 0.5614973262032085
56 0.549 0.43181818181818177 0.15 0.28609625668449196
56 0.609 0.43983957219251335 0.21 0.2647058823529412
60 0.526 0.7754010695187166 0.9480000000000001 0.4491978609625668
60 0.447 0.47058823529411764 0.318 0.2620320855614973
