60 0.56 0.7853333333333333 0.42 0.42933333333333334
0 0.081 0.8266666666666667 0.154 0.3466666666666667
0 0.275 0.7226666666666667 0.434 0.5546666666666666
0 0.341 0.632 0.306 0.5173333333333333
0 0.659 0.48 0.13 0.2613333333333333
0 0.71 0.708 0.324 0.584
0 0.928 0.7879999999999999 0.14400000000000002 0.424
0 0.47300000000000003 0.204 0.078 0.12533333333333332
0 0.334 0.36666666666666664 0.10400000000000001 0.17333333333333334
0 0.449 0.4413333333333333 0.13 0.248
