39 0.256 0.7026666666666667 0.036000000000000004 0.12533333333333332
0 0.31 0.48133333333333334 0.224 0.43466666666666665
0 0.47800000000000004 0.48933333333333334 0.196 0.6053333333333333
0 0.674 0.6679999999999999 0.296 0.6639999999999999
0 0.752 0.412 0.192 0.47733333333333333
0 0.865 0.7266666666666667 0.27 0.5466666666666666
58 0.655 0.06799999999999999 0.098 0.13066666666666665
60 0.259 0.8106666666666666 0.514 0.37866666666666665
