5 0.506 0.46536144578313254 0.28800000000000003 0.6837349397590362
0 0.397 0.6460843373493976 0.078 0.29819277108433734
0 0.9470000000000001 0.4548192771084338 0.034 0.12048192771084337
0 0.883 0.4171686746987952 0.034 0.09337349397590362
0 0.315 0.3704819277108434 0.026000000000000002 0.08433734939759037
0 0.171 0.4412650602409639 0.042 0.12349397590361447
