5 0.335 0.3426666666666667 0.666 0.6799999999999999
0 0.96 0.5253333333333333 0.08 0.384
0 0.883 0.4973333333333333 0.09 0.27999999999999997
0 0.803 0.48933333333333334 0.078 0.2853333333333333
0 0.6960000000000001 0.47733333333333333 0.044 0.18133333333333332
0 0.63 0.46799999999999997 0.056 0.20533333333333334
