2 0.457 0.5524861878453038 0.622 0.6077348066298343
2 0.649 0.26104972375690605 0.314 0.32320441988950277
0 0.369 0.36049723756906077 0.058 0.1022099447513812
0 0.5660000000000001 0.4088397790055248 0.064 0.07734806629834254
