3 0.551 0.5866666666666667 0.218 0.576
3 0.6990000000000001 0.4746666666666666 0.08600000000000001 0.2613333333333333
0 0.9550000000000001 0.4613333333333333 0.082 0.2773333333333333
0 0.221 0.648 0.27 0.6133333333333333
0 0.34800000000000003 0.47866666666666663 0.116 0.5093333333333333
0 0.788 0.5533333333333333 0.212 0.8186666666666667
0 0.445 0.4666666666666667 0.098 0.5066666666666666
0 0.537 0.5133333333333333 0.20600000000000002 0.5413333333333333
