19 0.188 0.49554896142433236 0.308 0.6231454005934718
19 0.37 0.5222551928783383 0.252 0.599406528189911
19 0.562 0.5356083086053413 0.20800000000000002 0.6795252225519288
19 0.709 0.6454005934718101 0.15 0.48961424332344217
19 0.8210000000000001 0.6305637982195846 0.11 0.5014836795252225
19 0.894 0.6023738872403561 0.212 0.5756676557863502
