56 0.6241610738255033 0.7291666666666667 0.174496644295302 0.33712121212121215
56 0.3825503355704698 0.7329545454545455 0.2058165548098434 0.3143939393939394
58 0.23825503355704697 0.7670454545454546 0.12304250559284116 0.26136363636363635
58 0.40268456375838924 0.38257575757575757 0.06263982102908278 0.19696969696969696
58 0.2046979865771812 0.6079545454545455 0.05592841163310962 0.10984848484848485
