1 0.348 0.741 0.4666666666666667 0.518
0 0.3413333333333333 0.389 0.39999999999999997 0.742
2 0.7173333333333333 0.309 0.4106666666666667 0.11800000000000001
2 0.058666666666666666 0.268 0.112 0.052000000000000005
