2 0.40399999999999997 0.423 0.37066666666666664 0.114
19 0.39066666666666666 0.484 0.23199999999999998 0.176
19 0.22933333333333333 0.517 0.35733333333333334 0.266
19 0.6773333333333333 0.634 0.31466666666666665 0.452
