39 0.261 0.308 0.15 0.27999999999999997
39 0.308 0.3 0.124 0.30666666666666664
39 0.608 0.20133333333333334 0.108 0.248
39 0.511 0.28933333333333333 0.13 0.27466666666666667
39 0.394 0.5053333333333333 0.176 0.52
39 0.755 0.4453333333333333 0.222 0.6613333333333333
