39 0.589 0.7222222222222222 0.046 0.26726726726726724
39 0.523 0.7117117117117117 0.046 0.25225225225225223
39 0.55 0.6036036036036035 0.036000000000000004 0.1921921921921922
0 0.618 0.4339339339339339 0.20400000000000001 0.30930930930930933
0 0.8260000000000001 0.5735735735735735 0.34400000000000003 0.8528528528528528
0 0.399 0.539039039039039 0.202 0.5255255255255256
0 0.176 0.5765765765765766 0.324 0.6906906906906907
