5 0.461 0.6026666666666667 0.41400000000000003 0.6026666666666667
5 0.212 0.5666666666666667 0.108 0.22666666666666666
0 0.87 0.728 0.092 0.368
0 0.074 0.6293333333333333 0.028 0.14933333333333332
0 0.047 0.628 0.03 0.14133333333333334
