19 0.89 0.5840840840840841 0.1 0.11711711711711711
19 0.082 0.6396396396396397 0.096 0.10810810810810811
0 0.509 0.6801801801801802 0.134 0.35135135135135137
0 0.653 0.7057057057057057 0.114 0.4144144144144144
