17 0.593 0.7546666666666666 0.742 0.49066666666666664
0 0.252 0.5626666666666666 0.256 0.7466666666666666
0 0.375 0.43466666666666665 0.15 0.2773333333333333
0 0.536 0.5893333333333333 0.332 0.7839999999999999
