0 0.667 0.536 0.666 0.9279999999999999
0 0.23900000000000002 0.508 0.47400000000000003 0.984
0 0.526 0.13333333333333333 0.084 0.15466666666666667
0 0.524 0.37466666666666665 0.188 0.312
0 0.9590000000000001 0.344 0.082 0.39999999999999997
39 0.641 0.45066666666666666 0.074 0.24
