62 0.635 0.33466666666666667 0.094 0.088
56 0.8220000000000001 0.632 0.28400000000000003 0.39466666666666667
56 0.464 0.7093333333333333 0.168 0.416
56 0.316 0.716 0.136 0.41866666666666663
56 0.186 0.7706666666666666 0.156 0.44266666666666665
60 0.227 0.6826666666666666 0.446 0.29333333333333333
