0 0.624 0.5253333333333333 0.256 0.5546666666666666
0 0.299 0.5133333333333333 0.218 0.4666666666666667
0 0.48 0.43866666666666665 0.20400000000000001 0.2693333333333333
0 0.108 0.428 0.212 0.11466666666666667
57 0.11800000000000001 0.48666666666666664 0.232 0.216
56 0.6950000000000001 0.5559999999999999 0.222 0.47733333333333333
56 0.919 0.752 0.162 0.496
56 0.317 0.5013333333333333 0.15 0.3733333333333333
