14 0.249 0.25866666666666666 0.278 0.144
14 0.429 0.28933333333333333 0.226 0.48266666666666663
14 0.541 0.204 0.178 0.17866666666666667
14 0.603 0.732 0.122 0.536
14 0.149 0.7186666666666667 0.214 0.5626666666666666
