19 0.377 0.236 0.75 0.4666666666666667
19 0.679 0.19066666666666665 0.522 0.36533333333333334
19 0.544 0.6266666666666666 0.912 0.6666666666666666
19 0.764 0.6839999999999999 0.47200000000000003 0.632
