2 0.502 0.5666666666666667 0.996 0.8666666666666666
0 0.5740000000000001 0.10933333333333332 0.068 0.12266666666666666
0 0.226 0.24133333333333332 0.12 0.15733333333333333
0 0.441 0.17466666666666666 0.054 0.13599999999999998
0 0.266 0.17066666666666666 0.056 0.16533333333333333
0 0.084 0.27599999999999997 0.064 0.216
