56 0.179 0.3973333333333333 0.066 0.13333333333333333
2 0.356 0.08266666666666667 0.128 0.16
2 0.455 0.072 0.158 0.13866666666666666
39 0.148 0.6546666666666666 0.20400000000000001 0.6213333333333333
