0 0.08229166666666667 0.40408805031446543 0.15625 0.39308176100628933
0 0.48020833333333335 0.35220125786163525 0.21041666666666667 0.5723270440251572
17 0.475 0.619496855345912 0.21666666666666667 0.5911949685534591
17 0.09479166666666666 0.589622641509434 0.16041666666666665 0.5566037735849056
