3 0.63 0.7005988023952097 0.74 0.5988023952095809
0 0.517 0.38922155688622756 0.254 0.4850299401197605
0 0.791 0.5089820359281437 0.14200000000000002 0.281437125748503
0 0.729 0.33982035928143717 0.08600000000000001 0.19461077844311378
3 0.969 0.407185628742515 0.062 0.19760479041916168
