14 0.112 0.724 0.044 0.09333333333333332
14 0.20600000000000002 0.368 0.064 0.07466666666666666
14 0.166 0.30533333333333335 0.068 0.034666666666666665
14 0.537 0.23866666666666667 0.106 0.12533333333333332
14 0.342 0.448 0.084 0.128
14 0.537 0.54 0.19 0.13066666666666665
14 0.732 0.6013333333333333 0.2 0.14666666666666667
14 0.744 0.43066666666666664 0.07200000000000001 0.06666666666666667
14 0.552 0.4973333333333333 0.092 0.06666666666666667
14 0.65 0.22133333333333333 0.052000000000000005 0.042666666666666665
14 0.442 0.23066666666666666 0.056 0.04533333333333333
