60 0.598 0.836 0.592 0.328
0 0.47500000000000003 0.5439999999999999 0.202 0.33066666666666666
0 0.64 0.5479999999999999 0.17200000000000001 0.2853333333333333
0 0.553 0.3466666666666667 0.09 0.14933333333333332
