0 0.559 0.43827160493827155 0.454 0.4444444444444444
3 0.635 0.6574074074074073 0.602 0.5740740740740741
0 0.869 0.5030864197530864 0.062 0.20987654320987653
0 0.804 0.42592592592592593 0.068 0.14814814814814814
0 0.858 0.375 0.06 0.10802469135802469
0 0.167 0.45370370370370366 0.066 0.19135802469135801
0 0.043000000000000003 0.529320987654321 0.066 0.3734567901234568
0 0.21 0.6527777777777778 0.132 0.16975308641975306
