1 0.229 0.6986666666666667 0.45 0.4053333333333333
1 0.8280000000000001 0.6986666666666667 0.34400000000000003 0.3733333333333333
0 0.855 0.5733333333333334 0.29 0.5226666666666666
0 0.146 0.6053333333333333 0.28400000000000003 0.5493333333333333
0 0.491 0.20266666666666666 0.07 0.24
0 0.5680000000000001 0.208 0.044 0.20266666666666666
