0 0.709 0.28827361563517917 0.20600000000000002 0.3550488599348534
0 0.317 0.3436482084690554 0.20600000000000002 0.2964169381107492
17 0.6980000000000001 0.49185667752442996 0.492 0.6644951140065147
17 0.292 0.5472312703583062 0.5680000000000001 0.6970684039087948
