2 0.761 0.524024024024024 0.242 0.14714714714714713
2 0.183 0.566066066066066 0.17400000000000002 0.17717717717717718
2 0.6930000000000001 0.7987987987987988 0.614 0.4024024024024024
2 0.896 0.6681681681681682 0.20800000000000002 0.2732732732732733
2 0.266 0.6306306306306306 0.184 0.25225225225225223
0 0.4 0.6846846846846847 0.17200000000000001 0.6306306306306306
