2 0.057 0.8866666666666666 0.11 0.09333333333333332
2 0.281 0.8653333333333333 0.122 0.072
2 0.20400000000000001 0.8626666666666667 0.07200000000000001 0.06133333333333333
2 0.11900000000000001 0.8613333333333333 0.09 0.06933333333333333
