16 0.6173333333333333 0.754 0.13599999999999998 0.196
16 0.36933333333333335 0.6970000000000001 0.152 0.186
0 0.224 0.601 0.19733333333333333 0.47800000000000004
0 0.7133333333333333 0.506 0.27466666666666667 0.516
0 0.4613333333333333 0.487 0.21333333333333332 0.498
0 0.944 0.34900000000000003 0.064 0.114
0 0.8293333333333333 0.34500000000000003 0.05333333333333333 0.08600000000000001
0 0.604 0.323 0.034666666666666665 0.062
