2 0.47900000000000004 0.5133689839572192 0.9540000000000001 0.6791443850267379
0 0.9510000000000001 0.391711229946524 0.098 0.15775401069518716
0 0.987 0.3850267379679144 0.026000000000000002 0.18716577540106952
