3 0.278 0.43655589123867067 0.356 0.3957703927492447
3 0.639 0.4788519637462236 0.382 0.46827794561933533
0 0.66 0.40483383685800606 0.34 0.5740181268882175
0 0.313 0.3640483383685801 0.29 0.5105740181268882
