15 0.4013333333333333 0.498 0.32266666666666666 0.156
56 0.41466666666666663 0.509 0.584 0.518
0 0.408 0.599 0.4693333333333333 0.642
56 0.9079999999999999 0.371 0.184 0.28600000000000003
56 0.8653333333333333 0.368 0.16266666666666665 0.264
