8 0.152 0.25076452599388377 0.296 0.10397553516819572
8 0.321 0.2018348623853211 0.158 0.07951070336391437
8 0.5630000000000001 0.3119266055045872 0.29 0.1651376146788991
8 0.726 0.25688073394495414 0.224 0.1345565749235474
8 0.421 0.6834862385321101 0.682 0.25382262996941896
0 0.257 0.5657492354740061 0.19 0.23853211009174313
0 0.122 0.5825688073394496 0.08 0.18654434250764526
