0 0.5660000000000001 0.5586666666666666 0.244 0.8773333333333333
0 0.88 0.33599999999999997 0.06 0.18133333333333332
0 0.062 0.3973333333333333 0.08 0.3253333333333333
2 0.522 0.5506666666666666 0.752 0.6106666666666667
2 0.073 0.376 0.138 0.2613333333333333
