56 0.14 0.7173333333333333 0.108 0.256
56 0.217 0.6866666666666666 0.09 0.22133333333333333
60 0.091 0.7266666666666667 0.178 0.21066666666666667
58 0.875 0.6106666666666667 0.23 0.7093333333333333
58 0.665 0.52 0.134 0.30933333333333335
0 0.456 0.6493333333333333 0.44 0.7013333333333334
