3 0.447 0.8306666666666667 0.882 0.33866666666666667
0 0.341 0.7253333333333333 0.246 0.5439999999999999
0 0.392 0.6839999999999999 0.352 0.632
0 0.632 0.7466666666666666 0.128 0.32
0 0.596 0.716 0.252 0.568
0 0.7020000000000001 0.6946666666666667 0.28 0.6053333333333333
