0 0.27666666666666667 0.5650000000000001 0.5488888888888889 0.8700000000000001
62 0.46 0.32833333333333337 0.16444444444444445 0.33
62 0.6177777777777778 0.35833333333333334 0.17777777777777778 0.3566666666666667
