0 0.9039039039039038 0.458 0.14414414414414414 0.248
0 0.481981981981982 0.47100000000000003 0.04504504504504504 0.10200000000000001
0 0.5225225225225225 0.47100000000000003 0.04204204204204204 0.09
0 0.5705705705705706 0.468 0.05405405405405406 0.1
0 0.3588588588588589 0.489 0.06306306306306306 0.10200000000000001
0 0.25225225225225223 0.462 0.06606606606606606 0.148
2 0.1006006006006006 0.514 0.19519519519519518 0.156
58 0.7072072072072072 0.455 0.17717717717717718 0.37
58 0.4339339339339339 0.468 0.05105105105105105 0.1
58 0.6171171171171171 0.463 0.04504504504504504 0.14200000000000002
