0 0.523 0.4766233766233766 0.078 0.24675324675324675
0 0.301 0.6896103896103896 0.154 0.33506493506493507
2 0.246 0.45324675324675323 0.268 0.24155844155844156
2 0.377 0.5662337662337662 0.242 0.15064935064935064
