62 0.41000000000000003 0.2906666666666667 0.20400000000000001 0.2826666666666667
62 0.627 0.2826666666666667 0.19 0.26666666666666666
56 0.5740000000000001 0.8786666666666666 0.332 0.24266666666666667
