8 0.391 0.4894894894894895 0.046 0.06006006006006006
8 0.643 0.47147147147147145 0.122 0.06006006006006006
8 0.367 0.4249249249249249 0.162 0.14114114114114115
8 0.225 0.46996996996997 0.10200000000000001 0.04504504504504504
