62 0.8280000000000001 0.6276276276276276 0.108 0.13813813813813813
57 0.20600000000000002 0.7132132132132132 0.40800000000000003 0.4114114114114114
56 0.625 0.6306306306306306 0.114 0.2042042042042042
