1 0.8150000000000001 0.688 0.154 0.26666666666666666
1 0.62 0.756 0.232 0.33866666666666667
1 0.166 0.8133333333333334 0.328 0.368
0 0.189 0.732 0.158 0.536
0 0.712 0.6839999999999999 0.124 0.4666666666666667
