62 0.276 0.608 0.26 0.2826666666666667
62 0.746 0.5013333333333333 0.096 0.16
56 0.839 0.84 0.278 0.32
56 0.785 0.7026666666666667 0.17400000000000002 0.2853333333333333
0 0.496 0.6746666666666666 0.40800000000000003 0.6506666666666666
