2 0.5720000000000001 0.5226666666666666 0.47200000000000003 0.23466666666666666
0 0.126 0.42666666666666664 0.068 0.22933333333333333
0 0.794 0.44 0.048 0.176
0 0.856 0.436 0.044 0.17866666666666667
0 0.896 0.4333333333333333 0.06 0.19999999999999998
0 0.982 0.43866666666666665 0.036000000000000004 0.17866666666666667
0 0.967 0.43066666666666664 0.03 0.19466666666666665
2 0.233 0.408 0.158 0.09066666666666666
0 0.232 0.39066666666666666 0.044 0.13066666666666665
0 0.309 0.3933333333333333 0.046 0.14133333333333334
2 0.049 0.3733333333333333 0.09 0.10133333333333333
