17 0.5426666666666666 0.674 0.376 0.34800000000000003
17 0.7613333333333333 0.631 0.16266666666666665 0.278
0 0.19066666666666665 0.47600000000000003 0.07733333333333334 0.08
0 0.244 0.445 0.050666666666666665 0.078
0 0.3413333333333333 0.456 0.14933333333333332 0.20800000000000002
