3 0.775 0.6946666666666667 0.362 0.2533333333333333
3 0.276 0.6573333333333333 0.364 0.328
0 0.547 0.6906666666666667 0.10200000000000001 0.416
0 0.447 0.6733333333333333 0.08600000000000001 0.3813333333333333
0 0.406 0.47733333333333333 0.032 0.10133333333333333
0 0.334 0.476 0.04 0.09333333333333332
0 0.202 0.47333333333333333 0.04 0.072
0 0.163 0.5146666666666666 0.034 0.16
0 0.133 0.5093333333333333 0.034 0.15466666666666667
