1 0.293 0.4369369369369369 0.126 0.3813813813813814
1 0.397 0.5780780780780781 0.14200000000000002 0.4114114114114114
1 0.597 0.6141141141141141 0.154 0.36936936936936937
1 0.73 0.39039039039039036 0.112 0.3303303303303303
0 0.756 0.2702702702702703 0.176 0.45045045045045046
0 0.862 0.18018018018018017 0.12 0.35435435435435436
0 0.61 0.4744744744744745 0.196 0.4984984984984985
0 0.421 0.43993993993993996 0.182 0.5795795795795796
0 0.533 0.2927927927927928 0.114 0.45345345345345345
0 0.614 0.15465465465465467 0.10400000000000001 0.26726726726726724
0 0.34700000000000003 0.25075075075075076 0.186 0.36336336336336333
