5 0.221 0.5066666666666666 0.43 0.9866666666666666
2 0.934 0.8746666666666666 0.132 0.25066666666666665
2 0.812 0.6933333333333334 0.22 0.20266666666666666
2 0.622 0.8066666666666666 0.22 0.30666666666666664
2 0.585 0.6426666666666666 0.154 0.15466666666666667
2 0.686 0.5413333333333333 0.092 0.10133333333333333
