0 0.879 0.8507462686567164 0.194 0.2985074626865672
2 0.933 0.7522388059701492 0.134 0.31044776119402984
2 0.851 0.6328358208955224 0.114 0.17313432835820897
0 0.542 0.4373134328358209 0.048 0.1044776119402985
