18 0.804 0.7042042042042042 0.324 0.4954954954954955
18 0.757 0.466966966966967 0.366 0.15915915915915915
18 0.428 0.6216216216216216 0.188 0.4924924924924925
18 0.321 0.6156156156156156 0.182 0.4264264264264264
