2 0.884 0.6351351351351351 0.232 0.17717717717717718
3 0.426 0.5255255255255256 0.128 0.13813813813813813
0 0.429 0.45495495495495497 0.066 0.14114114114114115
0 0.098 0.7672672672672672 0.048 0.2072072072072072
