8 0.47200000000000003 0.6533333333333333 0.9400000000000001 0.6933333333333334
0 0.245 0.384 0.146 0.6613333333333333
0 0.377 0.496 0.166 0.48
0 0.398 0.6906666666666667 0.228 0.368
0 0.604 0.628 0.20400000000000001 0.48266666666666663
0 0.717 0.40399999999999997 0.15 0.2693333333333333
0 0.727 0.352 0.11 0.25066666666666665
0 0.8260000000000001 0.33999999999999997 0.136 0.24266666666666667
