56 0.093 0.20933333333333332 0.13 0.19999999999999998
0 0.136 0.11733333333333333 0.056 0.14933333333333332
2 0.54 0.5586666666666666 0.92 0.8826666666666666
2 0.863 0.27599999999999997 0.274 0.344
2 0.393 0.10933333333333332 0.306 0.16
0 0.559 0.04666666666666666 0.034 0.06133333333333333
0 0.9 0.058666666666666666 0.092 0.112
