0 0.047 0.48133333333333334 0.09 0.39199999999999996
0 0.138 0.532 0.112 0.2693333333333333
0 0.295 0.42 0.09 0.07733333333333334
0 0.392 0.40399999999999997 0.048 0.07733333333333334
0 0.47300000000000003 0.29466666666666663 0.05 0.072
0 0.738 0.39599999999999996 0.056 0.09333333333333332
0 0.867 0.284 0.054 0.152
2 0.581 0.5439999999999999 0.838 0.576
0 0.582 0.22933333333333333 0.076 0.11733333333333333
0 0.512 0.24 0.056 0.12266666666666666
0 0.443 0.284 0.074 0.22666666666666666
