58 0.682 0.6053333333333333 0.056 0.39466666666666667
58 0.628 0.6466666666666666 0.092 0.42933333333333334
58 0.498 0.644 0.08 0.408
56 0.079 0.6946666666666667 0.14200000000000002 0.248
56 0.278 0.6053333333333333 0.128 0.18666666666666665
56 0.269 0.564 0.098 0.15733333333333333
60 0.148 0.608 0.14400000000000002 0.24
