0 0.039 0.2032085561497326 0.074 0.2834224598930481
0 0.87 0.6216577540106951 0.188 0.622994652406417
0 0.6950000000000001 0.6002673796791443 0.198 0.37700534759358284
0 0.331 0.40909090909090906 0.08600000000000001 0.1818181818181818
0 0.41300000000000003 0.5213903743315508 0.14200000000000002 0.45454545454545453
0 0.489 0.5868983957219251 0.19 0.49999999999999994
1 0.716 0.7580213903743315 0.368 0.32887700534759357
1 0.48 0.677807486631016 0.32 0.2647058823529412
1 0.321 0.6149732620320856 0.182 0.23529411764705882
