14 0.812 0.5165165165165165 0.07200000000000001 0.2882882882882883
0 0.41300000000000003 0.5675675675675675 0.214 0.5585585585585585
0 0.403 0.6366366366366366 0.798 0.7267267267267267
0 0.934 0.7972972972972973 0.132 0.40540540540540543
