2 0.913 0.5858778625954199 0.11 0.11068702290076335
2 0.435 0.5916030534351144 0.07 0.11450381679389313
2 0.34400000000000003 0.5896946564885496 0.088 0.11068702290076335
2 0.137 0.5973282442748091 0.098 0.11832061068702289
2 0.706 0.5744274809160305 0.116 0.14885496183206107
