19 0.44 0.8108108108108109 0.096 0.16816816816816815
19 0.542 0.7102102102102102 0.07200000000000001 0.15315315315315314
19 0.274 0.6621621621621622 0.07200000000000001 0.08108108108108109
19 0.19 0.8033033033033034 0.12 0.17717717717717718
19 0.661 0.7117117117117117 0.094 0.14414414414414414
19 0.735 0.7087087087087087 0.094 0.16216216216216217
19 0.915 0.7222222222222222 0.08600000000000001 0.16516516516516516
