58 0.21 0.16266666666666665 0.252 0.29866666666666664
58 0.464 0.18933333333333333 0.232 0.35733333333333334
58 0.683 0.18 0.158 0.264
58 0.874 0.27466666666666667 0.16 0.2613333333333333
58 0.756 0.4666666666666667 0.188 0.24533333333333332
58 0.611 0.5946666666666667 0.21 0.288
58 0.398 0.43866666666666665 0.18 0.2533333333333333
