56 0.20600000000000002 0.6426666666666666 0.40800000000000003 0.7146666666666667
62 0.101 0.23199999999999998 0.198 0.27199999999999996
62 0.491 0.19733333333333333 0.262 0.304
62 0.731 0.27599999999999997 0.254 0.37066666666666664
62 0.919 0.4333333333333333 0.162 0.5253333333333333
62 0.279 0.216 0.226 0.26666666666666666
