60 0.262 0.8191011235955057 0.52 0.3617977528089888
56 0.926 0.7460674157303372 0.148 0.19325842696629214
58 0.343 0.5696629213483146 0.134 0.352808988764045
58 0.253 0.5101123595505619 0.066 0.08988764044943821
