56 0.302 0.74 0.23600000000000002 0.33866666666666667
56 0.15 0.6733333333333333 0.184 0.2853333333333333
56 0.463 0.5493333333333333 0.10200000000000001 0.17066666666666666
56 0.5670000000000001 0.6333333333333333 0.146 0.216
56 0.791 0.5293333333333333 0.094 0.13066666666666665
