56 0.738 0.7199017199017199 0.44 0.5601965601965602
0 0.719 0.6093366093366093 0.45 0.7813267813267813
0 0.27 0.5958230958230958 0.536 0.8083538083538083
0 0.10400000000000001 0.20515970515970516 0.084 0.12039312039312039
