8 0.864 0.6951871657754011 0.08 0.1550802139037433
8 0.504 0.6991978609625668 0.056 0.10427807486631016
8 0.268 0.7032085561497325 0.064 0.1229946524064171
8 0.162 0.6617647058823529 0.064 0.14705882352941177
8 0.038 0.6818181818181818 0.044 0.0855614973262032
