3 0.356 0.8119999999999999 0.47600000000000003 0.376
0 0.395 0.6759999999999999 0.23800000000000002 0.5946666666666667
0 0.48 0.45199999999999996 0.092 0.23199999999999998
0 0.65 0.6706666666666666 0.28800000000000003 0.6586666666666666
