2 0.8386666666666667 0.6910000000000001 0.23199999999999998 0.078
2 0.7773333333333333 0.708 0.21066666666666667 0.068
2 0.6799999999999999 0.712 0.256 0.084
2 0.5093333333333333 0.709 0.36266666666666664 0.11
2 0.4533333333333333 0.727 0.384 0.08600000000000001
2 0.2906666666666667 0.738 0.416 0.112
2 0.18666666666666665 0.747 0.36266666666666664 0.13
2 0.09066666666666666 0.786 0.176 0.10400000000000001
