5 0.663 0.5555555555555556 0.398 0.34234234234234234
2 0.055 0.8168168168168168 0.106 0.3663663663663664
2 0.267 0.6246246246246246 0.078 0.07207207207207207
2 0.446 0.6456456456456456 0.04 0.07807807807807808
2 0.185 0.6306306306306306 0.082 0.06606606606606606
