3 0.723 0.4828080229226361 0.314 0.5358166189111747
3 0.41000000000000003 0.5816618911174785 0.616 0.7106017191977078
0 0.5720000000000001 0.19054441260744986 0.23600000000000002 0.31805157593123207
0 0.34800000000000003 0.4083094555873925 0.296 0.7249283667621776
