0 0.463 0.38266666666666665 0.11 0.19999999999999998
0 0.5630000000000001 0.3466666666666667 0.11800000000000001 0.13866666666666666
0 0.631 0.32666666666666666 0.082 0.104
0 0.7010000000000001 0.3373333333333333 0.062 0.09866666666666667
0 0.809 0.35333333333333333 0.098 0.152
0 0.923 0.4413333333333333 0.13 0.312
0 0.481 0.5906666666666667 0.178 0.2906666666666667
2 0.501 0.6093333333333333 0.998 0.7813333333333333
