19 0.854 0.6706349206349206 0.088 0.1455026455026455
19 0.67 0.6415343915343915 0.124 0.09788359788359788
19 0.518 0.6044973544973544 0.112 0.0873015873015873
19 0.35000000000000003 0.5767195767195767 0.20800000000000002 0.1693121693121693
19 0.19 0.548941798941799 0.1 0.15608465608465608
