2 0.464 0.5480480480480481 0.28800000000000003 0.2912912912912913
2 0.101 0.4774774774774775 0.198 0.29429429429429427
2 0.187 0.4024024024024024 0.19 0.22822822822822822
2 0.139 0.24624624624624625 0.162 0.15615615615615616
2 0.864 0.27177177177177175 0.164 0.2012012012012012
2 0.395 0.13213213213213212 0.14200000000000002 0.15015015015015015
2 0.92 0.4159159159159159 0.16 0.23723723723723725
2 0.927 0.5945945945945946 0.146 0.3003003003003003
