0 0.9410000000000001 0.13733333333333334 0.11800000000000001 0.2693333333333333
62 0.311 0.3426666666666667 0.266 0.44
62 0.5730000000000001 0.30266666666666664 0.278 0.344
62 0.66 0.5253333333333333 0.112 0.176
62 0.505 0.5293333333333333 0.198 0.24266666666666667
0 0.659 0.5226666666666666 0.07 0.08533333333333333
