3 0.788 0.5435435435435435 0.20400000000000001 0.4744744744744745
3 0.216 0.6321321321321322 0.42 0.7237237237237237
0 0.794 0.487987987987988 0.17200000000000001 0.4894894894894895
0 0.5720000000000001 0.46846846846846846 0.228 0.8108108108108109
0 0.243 0.47147147147147145 0.39 0.8348348348348348
