0 0.176 0.132 0.076 0.25866666666666666
0 0.266 0.27066666666666667 0.14 0.536
0 0.044 0.268 0.084 0.5253333333333333
0 0.363 0.11466666666666667 0.08600000000000001 0.208
0 0.898 0.5026666666666666 0.20400000000000001 0.9946666666666666
3 0.548 0.5546666666666666 0.652 0.8853333333333333
