0 0.736 0.5013333333333333 0.28800000000000003 0.7946666666666666
1 0.35000000000000003 0.6386666666666666 0.528 0.7226666666666667
62 0.763 0.27599999999999997 0.47400000000000003 0.5466666666666666
