3 0.8200000000000001 0.5173333333333333 0.36 0.352
3 0.166 0.504 0.228 0.29866666666666664
0 0.908 0.27999999999999997 0.168 0.29866666666666664
0 0.073 0.44666666666666666 0.14200000000000002 0.4666666666666667
