2 0.433 0.8866666666666666 0.198 0.21066666666666667
2 0.22 0.8853333333333333 0.16 0.15466666666666667
2 0.06 0.896 0.112 0.20266666666666666
2 0.605 0.8853333333333333 0.106 0.10133333333333333
5 0.661 0.8466666666666667 0.07 0.12
