2 0.367 0.6 0.73 0.6506666666666666
0 0.653 0.39466666666666667 0.094 0.23466666666666666
0 0.553 0.376 0.082 0.176
0 0.522 0.3253333333333333 0.076 0.288
0 0.582 0.2813333333333333 0.056 0.16266666666666665
0 0.65 0.3 0.08 0.19999999999999998
0 0.725 0.44666666666666666 0.07 0.39199999999999996
0 0.9400000000000001 0.31066666666666665 0.064 0.16799999999999998
0 0.9380000000000001 0.48666666666666664 0.1 0.22133333333333333
2 0.835 0.33866666666666667 0.182 0.09066666666666666
0 0.376 0.42933333333333334 0.04 0.064
0 0.312 0.43066666666666664 0.024 0.056
0 0.039 0.4413333333333333 0.074 0.17866666666666667
0 0.9560000000000001 0.5026666666666666 0.068 0.152
