60 0.401 0.6453333333333333 0.53 0.704
0 0.8250000000000001 0.6759999999999999 0.35000000000000003 0.632
0 0.6920000000000001 0.37066666666666664 0.08 0.112
0 0.5 0.33466666666666667 0.076 0.13599999999999998
0 0.459 0.34933333333333333 0.062 0.16
0 0.421 0.35866666666666663 0.08600000000000001 0.17866666666666667
0 0.366 0.496 0.168 0.368
0 0.133 0.6706666666666666 0.234 0.5253333333333333
0 0.259 0.31466666666666665 0.47000000000000003 0.5173333333333333
39 0.5670000000000001 0.45066666666666666 0.046 0.11733333333333333
0 0.913 0.17466666666666666 0.066 0.088
0 0.855 0.16266666666666665 0.062 0.112
0 0.9460000000000001 0.3173333333333333 0.092 0.10666666666666666
