39 0.11945031712473574 0.11800000000000001 0.23044397463002114 0.156
39 0.33298097251585623 0.123 0.18816067653276958 0.194
39 0.5200845665961945 0.137 0.18604651162790697 0.178
39 0.6892177589852009 0.147 0.16067653276955604 0.134
39 0.7822410147991544 0.08 0.13530655391120508 0.10400000000000001
39 0.8932346723044398 0.155 0.17970401691331925 0.10200000000000001
39 0.9196617336152221 0.07 0.16067653276955604 0.12
