0 0.316 0.5853333333333333 0.088 0.27466666666666667
2 0.606 0.4666666666666667 0.076 0.058666666666666666
2 0.23800000000000002 0.5066666666666666 0.128 0.17066666666666666
2 0.091 0.5586666666666666 0.17400000000000002 0.248
2 0.9540000000000001 0.5386666666666666 0.092 0.21333333333333332
0 0.112 0.6013333333333333 0.068 0.27466666666666667
0 0.03 0.62 0.056 0.376
