19 0.824 0.504 0.352 0.328
19 0.2613333333333333 0.482 0.36266666666666664 0.352
19 0.12933333333333333 0.383 0.2533333333333333 0.202
19 0.588 0.292 0.32266666666666666 0.108
19 0.412 0.356 0.19999999999999998 0.23600000000000002
