2 0.498 0.575075075075075 0.932 0.6576576576576576
0 0.787 0.18018018018018017 0.158 0.2702702702702703
0 0.493 0.13363363363363362 0.15 0.22522522522522523
0 0.368 0.06906906906906907 0.096 0.13213213213213212
0 0.867 0.09309309309309309 0.154 0.18018018018018017
