18 0.20600000000000002 0.16266666666666665 0.164 0.17066666666666666
18 0.515 0.5986666666666667 0.166 0.22133333333333333
18 0.5680000000000001 0.41866666666666663 0.184 0.33599999999999997
18 0.3 0.19733333333333333 0.056 0.10666666666666666
18 0.769 0.06799999999999999 0.066 0.056
