57 0.502 0.5209923664122137 0.996 0.9580152671755725
15 0.246 0.5114503816793893 0.41600000000000004 0.16793893129770993
15 0.6970000000000001 0.6374045801526718 0.47800000000000004 0.33587786259541985
