56 0.663 0.7706666666666666 0.15 0.29333333333333333
0 0.632 0.752 0.384 0.496
0 0.749 0.7213333333333333 0.246 0.5413333333333333
0 0.915 0.5933333333333333 0.17 0.296
0 0.46 0.5186666666666666 0.196 0.584
0 0.14400000000000002 0.576 0.136 0.49066666666666664
