56 0.41100000000000003 0.6373333333333333 0.214 0.42666666666666664
56 0.68 0.632 0.224 0.39466666666666667
56 0.8130000000000001 0.5986666666666667 0.11800000000000001 0.34933333333333333
56 0.879 0.5706666666666667 0.08600000000000001 0.31466666666666665
56 0.24 0.58 0.132 0.3813333333333333
0 0.27 0.5333333333333333 0.116 0.45866666666666667
0 0.371 0.372 0.074 0.14133333333333334
0 0.464 0.5426666666666666 0.148 0.47733333333333333
0 0.787 0.42133333333333334 0.082 0.224
0 0.6940000000000001 0.46266666666666667 0.14400000000000002 0.2853333333333333
58 0.096 0.3973333333333333 0.17200000000000001 0.5866666666666667
60 0.5750000000000001 0.5946666666666667 0.28200000000000003 0.3413333333333333
58 0.5660000000000001 0.312 0.16 0.26666666666666666
