2 0.47300000000000003 0.37237237237237236 0.55 0.5645645645645646
0 0.806 0.08708708708708708 0.036000000000000004 0.12012012012012012
0 0.776 0.07957957957957958 0.06 0.15315315315315314
0 0.726 0.06006006006006006 0.044 0.11411411411411411
0 0.59 0.06006006006006006 0.08 0.11411411411411411
0 0.508 0.052552552552552555 0.092 0.08708708708708708
0 0.227 0.12612612612612611 0.054 0.1021021021021021
