56 0.148 0.732 0.16799999999999998 0.184
56 0.06 0.746 0.11466666666666667 0.184
56 0.6293333333333333 0.664 0.10133333333333333 0.136
56 0.716 0.709 0.152 0.162
56 0.9186666666666666 0.858 0.16266666666666665 0.268
56 0.8426666666666667 0.809 0.192 0.214
