1 0.745 0.8667664670658684 0.242 0.25449101796407186
1 0.227 0.811377245508982 0.186 0.2035928143712575
0 0.742 0.7634730538922156 0.164 0.32335329341317365
0 0.212 0.7440119760479043 0.124 0.2964071856287425
