2 0.75 0.7492492492492493 0.188 0.23123123123123124
0 0.881 0.7087087087087087 0.054 0.22822822822822822
0 0.9380000000000001 0.6951951951951952 0.056 0.26126126126126126
0 0.986 0.6981981981981982 0.028 0.24924924924924924
0 0.27 0.6801801801801802 0.068 0.26126126126126126
0 0.387 0.4069069069069069 0.058 0.1111111111111111
