1 0.325 0.8050595238095237 0.218 0.28869047619047616
0 0.314 0.6235119047619048 0.14 0.3898809523809524
2 0.677 0.6339285714285714 0.27 0.29166666666666663
2 0.49 0.5758928571428571 0.16 0.12202380952380952
2 0.274 0.5788690476190476 0.268 0.13988095238095238
