60 0.5519999999999999 0.8200000000000001 0.896 0.36
56 0.4053333333333333 0.8290000000000001 0.39999999999999997 0.342
56 0.16666666666666666 0.74 0.17866666666666667 0.368
56 0.8453333333333333 0.867 0.30933333333333335 0.266
58 0.292 0.501 0.16266666666666665 0.106
