56 0.752 0.7342342342342342 0.124 0.2972972972972973
56 0.512 0.7087087087087087 0.056 0.26426426426426425
56 0.5700000000000001 0.8408408408408409 0.14 0.3183183183183183
60 0.656 0.7897897897897898 0.248 0.3183183183183183
