58 0.803 0.472 0.27 0.3893333333333333
58 0.502 0.2866666666666667 0.328 0.408
58 0.188 0.268 0.368 0.5253333333333333
58 0.34900000000000003 0.48266666666666663 0.226 0.3413333333333333
58 0.5730000000000001 0.564 0.23 0.30666666666666664
58 0.674 0.8213333333333334 0.256 0.3413333333333333
58 0.41600000000000004 0.7573333333333333 0.26 0.39999999999999997
58 0.179 0.6946666666666667 0.25 0.36533333333333334
