3 0.5993975903614458 0.5750000000000001 0.7530120481927711 0.65
0 0.11445783132530121 0.513 0.21686746987951808 0.47400000000000003
0 0.38253012048192775 0.41200000000000003 0.1746987951807229 0.34
0 0.8117469879518072 0.529 0.2620481927710844 0.546
