19 0.12 0.5855855855855856 0.232 0.24624624624624625
19 0.6880000000000001 0.8093093093093093 0.324 0.3813813813813814
19 0.452 0.6696696696696697 0.176 0.36036036036036034
19 0.331 0.6186186186186187 0.122 0.16816816816816815
8 0.798 0.37987987987987987 0.23600000000000002 0.30930930930930933
8 0.5760000000000001 0.35435435435435436 0.2 0.24624624624624625
8 0.378 0.34234234234234234 0.168 0.21621621621621623
8 0.275 0.3843843843843844 0.09 0.12612612612612611
8 0.057 0.36036036036036034 0.106 0.1021021021021021
8 0.9470000000000001 0.33783783783783783 0.106 0.06306306306306306
0 0.218 0.7012012012012012 0.076 0.30930930930930933
