2 0.465 0.49866310160427807 0.782 0.6818181818181818
2 0.922 0.4959893048128342 0.156 0.18983957219251335
0 0.669 0.6537433155080213 0.078 0.31283422459893045
0 0.796 0.6818181818181818 0.084 0.2620320855614973
