56 0.218 0.612 0.41600000000000004 0.536
56 0.708 0.7293333333333333 0.47600000000000003 0.5413333333333333
0 0.22 0.4533333333333333 0.32 0.3893333333333333
0 0.615 0.6426666666666666 0.518 0.7146666666666667
