4 0.754 0.2012012012012012 0.164 0.10810810810810811
4 0.47600000000000003 0.24924924924924924 0.16 0.13213213213213212
4 0.501 0.45795795795795796 0.162 0.10510510510510511
4 0.179 0.3048048048048048 0.17 0.1111111111111111
4 0.241 0.47297297297297297 0.158 0.10510510510510511
4 0.251 0.7117117117117117 0.154 0.1021021021021021
