56 0.043000000000000003 0.7272727272727272 0.082 0.2994652406417112
56 0.308 0.7967914438502673 0.18 0.34759358288770054
0 0.613 0.6002673796791443 0.486 0.7887700534759358
0 0.338 0.6524064171122994 0.14400000000000002 0.3422459893048128
0 0.40900000000000003 0.5855614973262032 0.062 0.1229946524064171
58 0.23700000000000002 0.6550802139037433 0.062 0.1497326203208556
