0 0.678 0.5346666666666666 0.428 0.6106666666666667
0 0.357 0.5439999999999999 0.47400000000000003 0.6986666666666667
39 0.623 0.8586666666666667 0.074 0.2773333333333333
39 0.751 0.844 0.066 0.2853333333333333
60 0.552 0.896 0.852 0.208
