56 0.764 0.8786666666666666 0.17200000000000001 0.24266666666666667
56 0.505 0.8653333333333333 0.14200000000000002 0.2693333333333333
56 0.337 0.8813333333333333 0.162 0.2373333333333333
56 0.226 0.8213333333333334 0.112 0.23466666666666666
56 0.221 0.96 0.122 0.08
56 0.067 0.8066666666666666 0.13 0.216
