16 0.23700000000000002 0.7906666666666666 0.28600000000000003 0.41866666666666663
16 0.34 0.49066666666666664 0.376 0.37866666666666665
0 0.529 0.524 0.65 0.9146666666666666
56 0.462 0.5013333333333333 0.92 0.9973333333333333
