2 0.437 0.5533333333333333 0.262 0.12533333333333332
2 0.962 0.5453333333333333 0.076 0.21066666666666667
2 0.896 0.5213333333333333 0.2 0.16799999999999998
0 0.758 0.5826666666666667 0.096 0.30133333333333334
