0 0.929 0.42042042042042044 0.026000000000000002 0.06606606606606606
0 0.9490000000000001 0.5375375375375375 0.066 0.2882882882882883
0 0.986 0.45495495495495497 0.028 0.14114114114114115
0 0.743 0.43993993993993996 0.038 0.0990990990990991
0 0.794 0.4444444444444444 0.028 0.09009009009009009
2 0.4 0.7027027027027027 0.752 0.5945945945945946
0 0.328 0.4294294294294294 0.028 0.04204204204204204
0 0.41000000000000003 0.4339339339339339 0.028 0.06906906906906907
0 0.277 0.4219219219219219 0.014 0.03303303303303303
