39 0.271 0.24666666666666665 0.058 0.18933333333333333
39 0.234 0.27466666666666667 0.048 0.18666666666666665
39 0.29 0.22133333333333333 0.04 0.16533333333333333
0 0.597 0.3773333333333333 0.27 0.408
0 0.228 0.616 0.40800000000000003 0.704
0 0.857 0.532 0.28600000000000003 0.4933333333333333
